mdCldEXCVi              EXCESSIVE INCOMING CALLS SUMMARY          10/20/17 12:30
                            19-OCT-17 thru 19-OCT-17                PAGE:      1

BY CALLED NUMBER WHERE #CALLS > 64

                             TOTAL          CALLS/
CALLED NUMBER               MINUTES        ATTEMPTS
-------------------    -------------    -----------
++393200175786                   0.0            802
++393202676821                   0.0            282
++393206420511                   0.0             72
++393208682835                   0.0             90
++393209128440                   0.0             68
++393209570368                   0.0             92
++393246210083                   0.0             96
++393271778439                   0.0            152
++393275303945                   0.0             76
++393276285838                   0.0             90
++393280623251                   0.0             80
++393281728055                   0.0            284
++393282312821                   0.0             72
++393282631008                   0.0            144
++393283328987                   0.0             75
++393283535300                   0.0             72
++393288384185                   0.0             72
++393288954768                   0.0             72
++393291903208                   0.0             85
++393297717396                   0.0            144
++393299296130                   0.0            115
++393331354177                   0.0             72
++393331909586                   0.0             90
++393357526893                   0.0             96
++393396674800                   0.0            116
++393406424801                   0.0             72
++393455896423                   0.0            148
++393457696076                   0.0             72
++393473608703                   0.0             72
++393663400587                   0.0             85
++393664535676                   0.0             68
++393774640931                   0.0             65
++393807433434                   0.0             90
++393881640246                   0.0             75
++393884684667                   0.0             72
++393886296700                   0.0             72
++393887320024                   0.0            163
++393888335739                   0.0             72
++393891170803                   0.0            437
++393893166567                   0.0             72
++393894485610                   0.0             90
++393895731790                   0.0             68
++393898850296                   0.0            144
++393898852908                   0.0             85
++393899853830                   0.0            115
++393899885917                   0.0            160
++393928215224                   0.0            257
++393931234855                   0.0             65
+358405733257                    0.0             96
+94345729077                   203.0             66
+94375871725                   212.3             84
+94552522                        0.2             94
mdCldEXCVi              EXCESSIVE INCOMING CALLS SUMMARY          10/20/17 12:30
                            19-OCT-17 thru 19-OCT-17                PAGE:      2

BY CALLED NUMBER WHERE #CALLS > 64

                             TOTAL          CALLS/
CALLED NUMBER               MINUTES        ATTEMPTS
-------------------    -------------    -----------
+94702983858                     0.7            136
+94710569443                    42.8             67
+94710605570                   148.9            107
+94713560125                    63.3             84
+94713902586                     0.4             68
+94714218760                    27.8            191
+94714810085                     6.1             80
+94715218757                   129.7             65
+94715829952                    32.4             73
+94716307691                    31.2             94
+94716327924                   132.7            110
+94716670517                     1.0            169
+94717256782                    97.2             76
+94717876808                    48.0             91
+94718360131                     7.1             87
+94718547830                    36.4             69
+94719478426                    23.2            120
+94722632480                    13.9             65
000                            411.8            581
0027115207294                   98.0             72
00442081186100                  86.1             84
0112005053                       0.0             66
0112005300                     149.3            161
0112013012                      29.0            154
0112013070                      77.7            171
0112013071                      35.1             70
0112013500                      96.4            118
0112030600                     906.0          1,444
0112030900                      59.9             66
0112035100                   2,286.3            770
0112035454                     486.9            208
0112035666                       0.3            230
0112080739                       0.0            198
0112080944                       0.0            484
0112080983                      75.6            134
0112146464                     230.5            217
0112148400                     156.1            230
0112148800                   1,025.5            869
0112167300                     103.5            107
0112167500                      75.7            169
0112168071                      14.8            145
0112168188                      65.3             83
0112168268                     178.1            167
0112206306                   1,072.3            452
0112300400                     334.2            154
0112303800                      47.0             74
0112307074                       0.0            281
0112314444                     268.8            192
0112319117                       1.3             68
0112339671                       0.0            286
0112339682                       0.0            281
0112342291                      21.4             75
mdCldEXCVi              EXCESSIVE INCOMING CALLS SUMMARY          10/20/17 12:30
                            19-OCT-17 thru 19-OCT-17                PAGE:      3

BY CALLED NUMBER WHERE #CALLS > 64

                             TOTAL          CALLS/
CALLED NUMBER               MINUTES        ATTEMPTS
-------------------    -------------    -----------
0112344322                      73.5            158
0112350000                     919.7            304
0112444404                   1,419.7            348
0112448448                      10.9             65
0112487452                       0.0            484
0112487534                       0.0            246
0112487705                       0.0            192
0112487989                       0.0            188
0112488890                       0.0            237
0112544300                     256.9            124
0112737373                     548.7            220
0112738479                      20.4             96
0112816816                   1,531.8          1,085
0113600001                       0.0         14,217
0113600031                       0.0         14,699
0113601238                       0.0         14,702
0113602006                       0.0         14,494
0114521000                      78.2            168
0114521075                       8.8            130
0114925958                       0.0            130
0117519801                       0.6            237
01961202                         0.0             72
0197331477                      79.0             77
0197331940                     279.9             73
0197331979                     258.7            167
0197332012                     201.8             84
0197332227                       5.2             84
0197332312                     195.8             84
0197332443                      16.0             85
0197332677                      40.1            232
0197332757                     198.1            299
0197332795                      60.3            105
0197333000                     133.4             77
0197333222                      47.5            107
0197333283                     179.9            116
0197333333                     475.6            280
0197333355                     234.8            141
0197333366                     159.6            111
0197333653                     238.6             80
0197334000                     203.5            135
0197334058                     149.9            122
0197334309                      46.0             94
0197335500                     245.1            259
0197335555                     580.2            326
0212216609                       0.0            281
0212216617                       0.0            293
0212216696                       0.0            305
0253120428                       0.0          6,526
0312241602                      25.7             74
0312555555                     546.3            191
0313120151                       0.0         24,446
0323120003                       0.0         19,065
mdCldEXCVi              EXCESSIVE INCOMING CALLS SUMMARY          10/20/17 12:30
                            19-OCT-17 thru 19-OCT-17                PAGE:      4

BY CALLED NUMBER WHERE #CALLS > 64

                             TOTAL          CALLS/
CALLED NUMBER               MINUTES        ATTEMPTS
-------------------    -------------    -----------
0352050202                       0.0             78
0352051152                       0.0             74
0352051175                       0.0             75
0352230254                       0.0             80
0352230724                       0.0             78
0352230791                       0.0             78
0352230894                       0.0             73
0352230910                       0.0             78
0412221025                       0.0             80
0412226323                       0.0             81
0412238247                       0.0             78
0412238248                       0.0             78
0412238251                       0.0             78
0412238256                       0.0             79
0412238272                       0.0             74
0412238521                       0.0             78
0412238523                       0.0             79
0412238526                       0.0             75
0412238542                       0.0             80
0412238547                       0.0             75
0412238556                       0.0             70
0412238564                       0.0             79
0412238565                       0.0             78
0412238570                       0.0             76
0412238573                       0.0             79
0412238579                       0.0             74
0412238600                       0.0             81
0412238601                       0.0             78
0412238611                       0.0             78
0412238612                       0.0             78
0412238619                       0.0             79
0412238620                       0.0             78
0412238635                       0.0             78
0412238652                       0.0             78
0412238656                       0.0             70
0412238659                       0.0             76
0452050724                       0.0            194
0452050726                       0.0            192
0472031000                     129.9             84
0472031485                      19.7            131
0472031911                       8.4             82
0513120997                       0.0          5,068
0634925110                      44.7             77
0662040400                     240.7             80
0711812880                     102.6            112
0714158672                      29.3             73
0714222250                      28.0             74
0714307701                       0.0             76
0716237762                      96.8             80
0716348310                      97.6             68
0718560791                       3.4            440
0719332876                      63.6             97
mdCldEXCVi              EXCESSIVE INCOMING CALLS SUMMARY          10/20/17 12:30
                            19-OCT-17 thru 19-OCT-17                PAGE:      5

BY CALLED NUMBER WHERE #CALLS > 64

                             TOTAL          CALLS/
CALLED NUMBER               MINUTES        ATTEMPTS
-------------------    -------------    -----------
0719883168                       0.0             84
0754237314                       3.4            125
0757342397                       0.0             79
0766314744                      35.8            163
0767636399                       4.4             65
0772017205                       0.0             65
0772910778                      41.5            143
0773033054                       9.9             79
0773033496                      33.0             65
0773139040                      11.4            100
0773141431                       0.0            201
0773304111                       0.5             90
0773336517                      16.4             80
0773482814                       0.6            140
0773957346                       9.5             88
0776098357                      28.5             99
0776167706                      62.4            179
0776781521                      96.7             72
0777318150                       9.6            105
0777371134                       7.9             65
0812423831                      96.8             76
0813120074                       0.0            198
0813121036                       0.0         24,371
0912278278                     181.4            244
0913120244                       0.0          7,777
0913120246                       0.0         23,415
0913120422                       0.0          9,924
1111                             0.0            152
112002255                      150.7            182
112154154                       29.1            158
112155000                        0.0             85
112556329                      307.9            152
112577933                        0.0            151
112816814                      171.2            214
112854178                      128.0             66
112865113                       49.1             66
113117650                        0.0             76
113117839                        1.8             75
113600989                        0.0            115
113601043                        0.0         11,814
113603021                        0.0         14,240
117709712                        0.0             65
1214                         2,519.1          1,436
1314                           505.3            462
15034811120                     58.8             69
1919                         7,367.8          1,411
2050749                          1.0             80
221                              0.2             75
224                             11.0             92
253120428                        0.0            845
255                            134.8            182
300                          2,798.2            845
mdCldEXCVi              EXCESSIVE INCOMING CALLS SUMMARY          10/20/17 12:30
                            19-OCT-17 thru 19-OCT-17                PAGE:      6

BY CALLED NUMBER WHERE #CALLS > 64

                             TOTAL          CALLS/
CALLED NUMBER               MINUTES        ATTEMPTS
-------------------    -------------    -----------
303                             43.4             79
312238504                        0.0             72
313317591                        3.3             86
332267420                       82.8            113
342261115                      687.3            157
342261999                      119.2            108
343120000                        0.0         25,041
343120023                        0.0            155
343121109                        0.0         13,718
352222247                      488.5            152
358                             10.7             74
3603310                         18.6             72
361                             22.2            101
373120018                        0.0         14,498
382299924                        0.2            104
413120043                        0.0         23,955
4520999                        206.0            134
555                             56.6            103
603443                           0.0             78
61415639269                    179.1             77
61459480826                    134.2             68
663120009                        0.0          7,374
663120015                        0.0         13,872
663120033                        0.0         14,210
663120034                        0.0         14,021
663120047                        0.0         14,223
717439907                        0.0             66
717881211                      120.3            282
775864476                        0.0             84
777760612                        0.0            120
777880077                        0.0            195
812410916                        0.0             65
9*                               0.0            131
923108189747                   168.8             67
923168137542                    44.3             78
923206404210                   162.3             87
923226690723                    33.0             75
923310360316                   111.4            128
923324022065                   199.5            120
923333881319                    14.5             98
923334815151                    73.2             87
923409735237                    75.5            142
923418051206                   200.6             68
923421266557                   107.9             80
923456638405                    21.3             67
923483310603                   114.9             77
94112023020                      0.0             78
94112307041                      0.0            242
94112331111                      0.0            212
94112339042                      0.0            278
94112339534                      0.0            291
94112339542                      0.0            276
mdCldEXCVi              EXCESSIVE INCOMING CALLS SUMMARY          10/20/17 12:30
                            19-OCT-17 thru 19-OCT-17                PAGE:      7

BY CALLED NUMBER WHERE #CALLS > 64

                             TOTAL          CALLS/
CALLED NUMBER               MINUTES        ATTEMPTS
-------------------    -------------    -----------
94112353353                    122.5             82
94112362267                    114.6             66
94112436095                      9.4             85
94112575966                     15.8             97
94112611505                    108.9            100
94112706896                      4.0             80
94112730783                      2.5             70
94112731587                     21.6             72
94113088272                      0.6             87
94113137657                     44.4             70
94152104138                      0.6            274
9415822731                       0.1             72
9420478207                       0.1             65
94212213057                    245.2             76
94212221604                    117.6             79
94213208416                    160.0            134
94252236112                     25.7             68
94312224562                    187.1             80
94313317417                    169.2             69
94342223311                     77.2             74
94342227138                      0.7             68
94364913715                    113.6            124
94382054500                      0.7             92
9446269455                      20.1             72
94552222095                      4.6             81
94594991975                      0.8            363
94672222532                    124.3             68
94711514213                     62.7             90
94711784580                      8.9             70
94712284051                     31.7             70
94714388377                      8.7             70
94714411412                     12.3             80
94714732304                      5.8             69
94715877113                     36.5            168
94716081562                    274.2             88
94716670517                     21.2            156
94717912683                     40.1            112
94718360131                      5.4             71
94719451236                     27.3             92
94719478426                     33.1            126
94719875888                     27.0            175
94719988382                      4.0             96
94720327764                     73.0             68
94722363509                    211.2             78
94722923665                     24.9             98
94723095947                     14.0            103
94723719271                     19.1             74
94724192638                    259.9             71
94724390349                     42.3            226
94758645344                      1.5            120
94770179903                    149.2            116
94770263267                     35.1            124
mdCldEXCVi              EXCESSIVE INCOMING CALLS SUMMARY          10/20/17 12:30
                            19-OCT-17 thru 19-OCT-17                PAGE:      8

BY CALLED NUMBER WHERE #CALLS > 64

                             TOTAL          CALLS/
CALLED NUMBER               MINUTES        ATTEMPTS
-------------------    -------------    -----------
94771544484                     43.2             95
94774718606                     25.6             73
94776528659                      9.0             68
94777149321                      0.0             70
94777317924                     34.5             78
94777323366                      1.2             80
94777569119                     99.9             84
94777764727                      2.9             83
94779428135                      8.3             70
94783264490                     20.1             84
94783553070                     35.9            104
94812210352                    193.2             67
94813992163                    134.9             81
948803203662                    20.3             84
94912246566                    143.2            108
949961184456                     0.2             76
949969491                        0.2             90
9500                           554.9            278
9511                           471.5            424
9512                           400.1            272
9513                           438.2            228
9514                           353.8            222
9515                           320.7            255
9516                           281.2            165
9517                           130.8            118
9518                            78.0             82
9519                            43.9             84
9520                            90.2            147
9521                           137.4            106
9522                            56.4             72
9523                           245.7            180
9528                            57.1             72
9529                           228.7             90
96898575604                    194.5             76
971554096773                     0.0             78
9779807165589                   40.1             74
9779809222167                   47.2             99
9779811593058                   54.7             99
9779811641328                   41.3            100
9779816777193                    9.8             68
ping                             0.0            418
                                 0.0        291,536
                       -------------    -----------
sum                         46,539.2        692,959

406 rows selected.

