QCALLEDm                NetViewPoint - SPECIFIC CALLED #          10/20/17 12:25
                           19-OCT-17  thru  19-OCT-17              PAGE:       1

CALLED Number: 0112860159                                   Total Calls:     100

                                CALL
DATE:TIME           DISP     Minutes       CALLING Number
------------------  ----  ----------  -------------------
19-OCT-17 01:15:00  SA1           .0  0112080905
19-OCT-17 01:15:00  SA1           .0  0112080905
19-OCT-17 01:30:00  DA1           .0  0112080905
19-OCT-17 01:30:00  SA1           .0  0112080905
19-OCT-17 01:30:00  SA1           .0  0112080905
19-OCT-17 01:30:00  SA1           .0  0112080905
19-OCT-17 01:30:00  DA1           .0  0112080905
19-OCT-17 01:30:00  SA1           .0  0112080905
19-OCT-17 02:00:00  SA1           .0  0112080905
19-OCT-17 02:00:00  SA1           .0  0112080905
19-OCT-17 02:30:00  SA1           .0  0112080905
19-OCT-17 02:30:00  SA1           .0  0112080905
19-OCT-17 02:30:00  SA1           .0  0112080905
19-OCT-17 03:15:00  SA1           .0  0112080905
19-OCT-17 03:15:00  SA1           .0  0112080905
19-OCT-17 03:15:00  DUP           .0  0112080905
19-OCT-17 03:15:00  SA1           .0  0112080905
19-OCT-17 03:15:00  DUP           .0  0112080905
19-OCT-17 03:15:00  SA1           .0  0112080905
19-OCT-17 03:45:00  SA1           .0  0112080905
19-OCT-17 03:45:00  SA1           .0  0112080905
19-OCT-17 04:00:00  SA1           .0  0112080905
19-OCT-17 04:00:00  SA1           .0  0112080905
19-OCT-17 06:45:00  SA1           .0  0112080905
19-OCT-17 06:45:00  SA1           .0  0112080905
19-OCT-17 07:00:00  SA1           .0  0112080905
19-OCT-17 07:00:00  SA1           .0  0112080905
19-OCT-17 07:00:00  DA1           .0  0112080905
19-OCT-17 07:00:00  SA1           .0  0112080905
19-OCT-17 07:00:00  DA1           .0  0112080905
19-OCT-17 07:00:00  SA1           .0  0112080905
19-OCT-17 07:30:00  SA1           .0  0112080905
19-OCT-17 07:30:00  SA1           .0  0112080905
19-OCT-17 08:00:00  SA1           .0  0112080905
19-OCT-17 08:00:00  SA1           .0  0112080905
19-OCT-17 08:00:00  SA1           .0  0112080905
19-OCT-17 08:45:00  SA1           .0  0112080905
19-OCT-17 08:45:00  SA1           .0  0112080905
19-OCT-17 08:45:00  DUP           .0  0112080905
19-OCT-17 08:45:00  DUP           .0  0112080905
19-OCT-17 08:45:00  SA1           .0  0112080905
19-OCT-17 08:45:00  SA1           .0  0112080905
19-OCT-17 09:15:00  SA1           .0  0112080905
19-OCT-17 09:15:00  SA1           .0  0112080905
19-OCT-17 09:30:00  SA1           .0  0112080905
19-OCT-17 09:30:00  SA1           .0  0112080905
19-OCT-17 12:15:00  SA1           .0  0112080905
19-OCT-17 12:15:00  SA1           .0  0112080905
19-OCT-17 12:30:00  SA1           .0  0112080905
19-OCT-17 12:30:00  DA1           .0  0112080905
19-OCT-17 12:30:00  SA1           .0  0112080905
19-OCT-17 12:30:00  SA1           .0  0112080905
QCALLEDm                NetViewPoint - SPECIFIC CALLED #          10/20/17 12:25
                           19-OCT-17  thru  19-OCT-17              PAGE:       2

CALLED Number: 0112860159                                   Total Calls:     100

                                CALL
DATE:TIME           DISP     Minutes       CALLING Number
------------------  ----  ----------  -------------------
19-OCT-17 12:30:00  DA1           .0  0112080905
19-OCT-17 12:30:00  SA1           .0  0112080905
19-OCT-17 13:00:00  SA1           .0  0112080905
19-OCT-17 13:00:00  SA1           .0  0112080905
19-OCT-17 13:30:00  SA1           .0  0112080905
19-OCT-17 13:30:00  SA1           .0  0112080905
19-OCT-17 13:30:00  SA1           .0  0112080905
19-OCT-17 14:15:00  SA1           .0  0112080905
19-OCT-17 14:15:00  SA1           .0  0112080905
19-OCT-17 14:15:00  DUP           .0  0112080905
19-OCT-17 14:15:00  DUP           .0  0112080905
19-OCT-17 14:15:00  SA1           .0  0112080905
19-OCT-17 14:15:00  SA1           .0  0112080905
19-OCT-17 14:45:00  SA1           .0  0112080905
19-OCT-17 14:45:00  SA1           .0  0112080905
19-OCT-17 15:00:00  SA1           .0  0112080905
19-OCT-17 15:00:00  SA1           .0  0112080905
19-OCT-17 17:45:00  SA1           .0  0112080905
19-OCT-17 17:45:00  SA1           .0  0112080905
19-OCT-17 18:00:00  SA1           .0  0112080905
19-OCT-17 18:00:00  SA1           .0  0112080905
19-OCT-17 18:00:00  SA1           .0  0112080905
19-OCT-17 18:00:00  SA1           .0  0112080905
19-OCT-17 18:00:00  DA1           .0  0112080905
19-OCT-17 18:00:00  DA1           .0  0112080905
19-OCT-17 18:30:00  SA1           .0  0112080905
19-OCT-17 18:30:00  SA1           .0  0112080905
19-OCT-17 19:00:00  SA1           .0  0112080905
19-OCT-17 19:00:00  SA1           .0  0112080905
19-OCT-17 19:00:00  SA1           .0  0112080905
19-OCT-17 19:45:00  SA1           .0  0112080905
19-OCT-17 19:45:00  SA1           .0  0112080905
19-OCT-17 19:45:00  DUP           .0  0112080905
19-OCT-17 19:45:00  DUP           .0  0112080905
19-OCT-17 19:45:00  SA1           .0  0112080905
19-OCT-17 19:45:00  SA1           .0  0112080905
19-OCT-17 20:15:00  SA1           .0  0112080905
19-OCT-17 20:15:00  SA1           .0  0112080905
19-OCT-17 20:30:00  SA1           .0  0112080905
19-OCT-17 20:30:00  SA1           .0  0112080905
19-OCT-17 23:15:00  SA1           .0  0112080905
19-OCT-17 23:15:00  SA1           .0  0112080905
19-OCT-17 23:30:00  SA1           .0  0112080905
19-OCT-17 23:30:00  DA1           .0  0112080905
19-OCT-17 23:30:00  SA1           .0  0112080905
19-OCT-17 23:30:00  SA1           .0  0112080905
19-OCT-17 23:30:00  DA1           .0  0112080905
19-OCT-17 23:30:00  SA1           .0  0112080905
                          ----------
sum                               .0

100 rows selected.

