DLYLONGIs_XD         Incoming CALLS LASTING > 30 Mins Summary     10/20/17 12:32
                       10/18/17 23:30 THRU 10/19/17 23:45          PAGE:       1

TOTAL Incoming ATTEMPTS:      873,161

                           Total Call          Number      Average Call
      Called Number           Minutes        of Calls           Minutes
-------------------     -------------     -----------     -------------
61402609614                     159.9               5              32.0
94652050447                     156.6               5              31.3
NULL                            139.3               4              34.8
                        -------------     -----------
sum                             455.8              14

3 rows selected.

