Report type,OCN,OCN_Name,MTA Market,Total_calls,Total_Minutes,rate,Total_$_Amount,                                                                                                                                                                                                                                                                                                                                                                                                                                  

MICwMTA_SameMTA_OCNwRates_Summary_yymm_0707,4,China Telephone Company                                     ,MTA08,57220,131624.92,0.015,1974.37,                                                                                                                                                                                                                                                                                                                                             
MICwMTA_SameMTA_OCNwRates_Summary_yymm_0707,5,COBBOSSEECONTEE TEL CO                                      ,MTA08,16071,39684.3,0.017,674.63,                                                                                                                                                                                                                                                                                                                                             
MICwMTA_SameMTA_OCNwRates_Summary_yymm_0707,7,THE ISLAND TELEPHONE                                        ,MTA08,5547,13846.9,0.017,235.4,                                                                                                                                                                                                                                                                                                                                             
MICwMTA_SameMTA_OCNwRates_Summary_yymm_0707,10,HAMPDEN TELEPHONE                                           ,MTA08,46721,103304.65,0.017,1756.18,                                                                                                                                                                                                                                                                                                                                             
MICwMTA_SameMTA_OCNwRates_Summary_yymm_0707,11,HARTLAND & ST. ALBANS TELEPHONE                             ,MTA08,46556,99764.59,0.017,1696,                                                                                                                                                                                                                                                                                                                                             
MICwMTA_SameMTA_OCNwRates_Summary_yymm_0707,15,Community Service Telephone                                 ,MTA08,171709,366742.58,0.015,5501.14,                                                                                                                                                                                                                                                                                                                                             
MICwMTA_SameMTA_OCNwRates_Summary_yymm_0707,20,Pine Tree Telephone                                         ,MTA08,38931,87706.88,0.017,1491.02,                                                                                                                                                                                                                                                                                                                                             
MICwMTA_SameMTA_OCNwRates_Summary_yymm_0707,22,Saco River Telephone                                        ,MTA08,24271,68710.32,0.017,1168.08,                                                                                                                                                                                                                                                                                                                                             
MICwMTA_SameMTA_OCNwRates_Summary_yymm_0707,24,SOMERSET TELEPHONE                                          ,MTA08,144271,304897.95,0.017,5183.27,                                                                                                                                                                                                                                                                                                                                             
MICwMTA_SameMTA_OCNwRates_Summary_yymm_0707,25,Standish Telephone                                          ,MTA08,84416,178444.45,0.015,2676.67,                                                                                                                                                                                                                                                                                                                                             
MICwMTA_SameMTA_OCNwRates_Summary_yymm_0707,31,WARREN TELEPHONE                                            ,MTA08,43918,87560.46,0.017,1488.53,                                                                                                                                                                                                                                                                                                                                             
MICwMTA_SameMTA_OCNwRates_Summary_yymm_0707,34,WEST PENOBSCOT                                              ,MTA08,32490,69641.33,0.017,1183.9,                                                                                                                                                                                                                                                                                                                                             
MICwMTA_SameMTA_OCNwRates_Summary_yymm_0707,39,Granite State - NH                                          ,MTA08,27862,62436.92,0.015,936.55,                                                                                                                                                                                                                                                                                                                                             
MICwMTA_SameMTA_OCNwRates_Summary_yymm_0707,45,KEARSARGE TELEPHONE                                         ,MTA08,48545,90665.64,0.018,1631.98,                                                                                                                                                                                                                                                                                                                                             
MICwMTA_SameMTA_OCNwRates_Summary_yymm_0707,47,MERRIMACK COUNTY TELEPHONE                                  ,MTA08,31733,64117.62,0.01611,1032.93,                                                                                                                                                                                                                                                                                                                                             
MICwMTA_SameMTA_OCNwRates_Summary_yymm_0707,50,WILTON TELEPHONE                                            ,MTA08,13727,29922.41,0.018,538.6,                                                                                                                                                                                                                                                                                                                                             
MICwMTA_SameMTA_OCNwRates_Summary_yymm_0707,58,LUDLOW TELEPHONE                                            ,MTA01,6958,10924.62,0.019,207.57,                                                                                                                                                                                                                                                                                                                                             
MICwMTA_SameMTA_OCNwRates_Summary_yymm_0707,61,NORTHFIELD TELEPHONE                                        ,MTA01,161,352.38,0.019,6.7,                                                                                                                                                                                                                                                                                                                                             
MICwMTA_SameMTA_OCNwRates_Summary_yymm_0707,62,PERKINSVILLE TEL CO                                         ,MTA01,4826,9315.32,0.019,176.99,                                                                                                                                                                                                                                                                                                                                             
MICwMTA_SameMTA_OCNwRates_Summary_yymm_0707,148,"LAKEFIELD COMMUNICATIONS, INC. - WI                         ",MTA20,43994,91881.09,0.025,2297.03,                                                                                                                                                                                                                                                                                                                                             
MICwMTA_SameMTA_OCNwRates_Summary_yymm_0707,149,FRONTIER COMMUNICATIONS CO OF BREEZEWOOD                    ,MTA21,1141,1811.88,0.011,19.93,                                                                                                                                                                                                                                                                                                                                             
MICwMTA_SameMTA_OCNwRates_Summary_yymm_0707,169,VERIZON-PA                                                  ,MTA01,11,29.98,0.0007,0.02,                                                                                                                                                                                                                                                                                                                                             
MICwMTA_SameMTA_OCNwRates_Summary_yymm_0707,169,VERIZON-PA                                                  ,MTA21,15511,51426.99,0.0007,36,                                                                                                                                                                                                                                                                                                                                             
MICwMTA_SameMTA_OCNwRates_Summary_yymm_0707,170,VERIZON-PA                                                  ,MTA01,10,7,0.0007,0,                                                                                                                                                                                                                                                                                                                                             
MICwMTA_SameMTA_OCNwRates_Summary_yymm_0707,170,VERIZON-PA                                                  ,MTA21,76,268.99,0.0007,0.19,                                                                                                                                                                                                                                                                                                                                             

290 rows selected.,,,,,,,,
