<?xml version="1.0" encoding="UTF-8" standalone="no"?>
<!DOCTYPE svg PUBLIC "-//W3C//DTD SVG 1.1//EN" "http://www.w3.org/Graphics/SVG/1.1/DTD/svg11.dtd">
<!-- Generated by Microsoft Visio, SVG Export NAS- 500C 96-LINK 4-SLOT BACKPLANE block diagram.svg Page-1 -->
<svg xmlns="http://www.w3.org/2000/svg" xmlns:xlink="http://www.w3.org/1999/xlink" xmlns:ev="http://www.w3.org/2001/xml-events"
		xmlns:v="http://schemas.microsoft.com/visio/2003/SVGExtensions/" width="6.30573in" height="8.66474in"
		viewBox="0 0 454.012 623.861" xml:space="preserve" color-interpolation-filters="sRGB" class="st14">
	<title>13_5X10P</title>
	<desc>Fanfold wide drawing, blank
Stuff put too close to upper right hand corner has pieces missing</desc>
	<v:documentProperties v:langID="1033" v:viewMarkup="false">
		<v:userDefs>
			<v:ud v:nameU="msvConvertTheme"/>
		</v:userDefs>
	</v:documentProperties>

	<style type="text/css">
	<![CDATA[
		.st1 {fill:none;stroke:none;stroke-linecap:round;stroke-linejoin:round;stroke-width:0.72}
		.st2 {fill:#000000;font-family:Arial;font-size:1.33333em;font-weight:bold}
		.st3 {font-size:1em}
		.st4 {baseline-shift:32.4948%;font-size:0.649895em}
		.st5 {fill:#ffffff;stroke:#000000;stroke-linecap:round;stroke-linejoin:round;stroke-width:2.16}
		.st6 {fill:none;stroke:none;stroke-linecap:round;stroke-linejoin:round;stroke-width:0.24}
		.st7 {fill:#000000;font-family:Arial;font-size:1.33333em;font-style:italic;font-weight:bold}
		.st8 {font-size:1em;text-decoration:underline}
		.st9 {stroke:#000000;stroke-linecap:round;stroke-linejoin:round;stroke-width:2.16}
		.st10 {marker-end:url(#mrkr13-57);stroke:#000000;stroke-linecap:round;stroke-linejoin:round;stroke-width:2.16}
		.st11 {fill:#000000;fill-opacity:1;stroke:#000000;stroke-opacity:1;stroke-width:0.46153846153846}
		.st12 {fill:#000000;font-family:Arial;font-size:1.99999em;font-weight:bold}
		.st13 {fill:#000000;font-family:Arial;font-size:0.833336em;font-style:italic;font-weight:bold}
		.st14 {fill:none;fill-rule:evenodd;font-size:12px;overflow:visible;stroke-linecap:square;stroke-miterlimit:3}
	]]>
	</style>

	<defs id="Markers">
		<g id="lend13">
			<path d="M 3 1 L 0 0 L 3 -1 L 3 1 " style="stroke:none"/>
		</g>
		<marker id="mrkr13-57" class="st11" v:arrowType="13" v:arrowSize="2" v:setback="6.5" refX="-6.5" orient="auto"
				markerUnits="strokeWidth" overflow="visible">
			<use xlink:href="#lend13" transform="scale(-2.1666666666667,-2.1666666666667) "/>
		</marker>
	</defs>
	<g v:mID="0" v:index="1" v:groupContext="foregroundPage">
		<title>Page-1</title>
		<v:pageProperties v:drawingScale="1" v:pageScale="1" v:drawingUnits="19" v:shadowOffsetX="9" v:shadowOffsetY="-9"/>
		<g id="shape1-1" v:mID="1" v:groupContext="shape" transform="translate(78.705,-609.098)">
			<title>Sheet.1</title>
			<desc>PMC BLOCK DIAGRAM NAS-500C2</desc>
			<v:textBlock v:margins="rect(0,0,0,0)" v:verticalAlign="0"/>
			<v:textRect cx="102.375" cy="616.659" width="204.75" height="14.4037"/>
			<rect x="0" y="609.458" width="204.75" height="14.4037" class="st1"/>
			<text x="13.49" y="626.26" class="st2" v:langID="1033"><v:paragraph v:spLine="-1.4" v:horizAlign="1"/><v:tabList/>PMC BLOCK DIAGRAM <v:newlineChar/><tspan
						x="60.8" dy="1.4em" class="st3">NAS</tspan>-500C<tspan dy="-0.235em" class="st4" v:baseFontSize="16">2</tspan></text>		</g>
		<g id="shape2-6" v:mID="2" v:groupContext="shape" transform="translate(379.08,-346.299)">
			<title>Sheet.2</title>
			<rect x="0" y="560.861" width="72" height="63" class="st5"/>
		</g>
		<g id="shape3-8" v:mID="3" v:groupContext="shape" transform="translate(1.08,-346.299)">
			<title>Sheet.3</title>
			<rect x="0" y="560.861" width="72" height="63" class="st5"/>
		</g>
		<g id="shape4-10" v:mID="4" v:groupContext="shape" transform="translate(1.08,-283.299)">
			<title>Sheet.4</title>
			<rect x="0" y="560.861" width="72" height="63" class="st5"/>
		</g>
		<g id="shape5-12" v:mID="5" v:groupContext="shape" transform="translate(127.08,-346.299)">
			<title>Sheet.5</title>
			<rect x="0" y="560.861" width="72" height="63" class="st5"/>
		</g>
		<g id="shape6-14" v:mID="6" v:groupContext="shape" transform="translate(127.08,-283.299)">
			<title>Sheet.6</title>
			<rect x="0" y="560.861" width="72" height="63" class="st5"/>
		</g>
		<g id="shape7-16" v:mID="7" v:groupContext="shape" transform="translate(253.08,-346.299)">
			<title>Sheet.7</title>
			<rect x="0" y="560.861" width="72" height="63" class="st5"/>
		</g>
		<g id="shape8-18" v:mID="8" v:groupContext="shape" transform="translate(253.08,-283.299)">
			<title>Sheet.8</title>
			<rect x="0" y="560.861" width="72" height="63" class="st5"/>
		</g>
		<g id="shape9-20" v:mID="9" v:groupContext="shape" transform="translate(55.08,-550.299)">
			<title>Sheet.9</title>
			<desc>96 LINK UNIT ( 4 SLOT BACK PLANE)</desc>
			<v:textBlock v:margins="rect(0,0,0,0)" v:verticalAlign="0"/>
			<v:textRect cx="121.641" cy="617.861" width="243.29" height="12"/>
			<rect x="0" y="611.861" width="243.281" height="12" class="st6"/>
			<text x="70.97" y="626.26" class="st7" v:langID="1033"><v:paragraph v:horizAlign="1"/><v:tabList/><tspan class="st8">96 </tspan><tspan
						class="st8">LINK UNIT<v:newlineChar/></tspan><tspan x="29.2" dy="1.2em" class="st3"> </tspan>( 4 SLOT BACK PLANE)</text>		</g>
		<g id="group10-26" transform="translate(379.08,-455.799)" v:mID="10" v:groupContext="group">
			<title>Sheet.10</title>
			<g id="shape11-27" v:mID="11" v:groupContext="shape">
				<title>Sheet.11</title>
				<path d="M0 623.86 L0 617.11 A6.75 6.75 0 0 1 6.75 610.36 L32.62 610.36 A3.375 3.375 -180 0 0 36 606.99 L36 603.61"
						class="st9"/>
			</g>
			<g id="shape12-30" v:mID="12" v:groupContext="shape" transform="translate(72,1.13687E-013) scale(-1,1)">
				<title>Sheet.12</title>
				<path d="M0 623.86 L0 617.11 A6.75 6.75 0 0 1 6.75 610.36 L32.62 610.36 A3.375 3.375 -180 0 0 36 606.99 L36 603.61"
						class="st9"/>
			</g>
		</g>
		<g id="group13-33" transform="translate(1.08,-455.799)" v:mID="13" v:groupContext="group">
			<title>Sheet.13</title>
			<g id="shape14-34" v:mID="14" v:groupContext="shape">
				<title>Sheet.14</title>
				<path d="M0 623.86 L0 617.11 A6.75 6.75 0 0 1 6.75 610.36 L158.62 610.36 A3.375 3.375 -180 0 0 162 606.99 L162 603.61"
						class="st9"/>
			</g>
			<g id="shape15-37" v:mID="15" v:groupContext="shape" transform="translate(324,1.13687E-013) scale(-1,1)">
				<title>Sheet.15</title>
				<path d="M0 623.86 L0 617.11 A6.75 6.75 0 0 1 6.75 610.36 L158.62 610.36 A3.375 3.375 -180 0 0 162 606.99 L162 603.61"
						class="st9"/>
			</g>
		</g>
		<g id="shape16-40" v:mID="16" v:groupContext="shape" transform="translate(91.08,-482.799)">
			<title>Sheet.16</title>
			<desc>T1/ATM or I/O PMC’s</desc>
			<v:textBlock v:margins="rect(0,0,0,0)" v:verticalAlign="0"/>
			<v:textRect cx="87.1875" cy="617.861" width="174.38" height="12"/>
			<rect x="0" y="611.861" width="174.375" height="12" class="st6"/>
			<text x="8.52" y="626.26" class="st2" v:langID="1033"><v:paragraph v:horizAlign="1"/><v:tabList/>T1/ATM or I/O PMC’s</text>		</g>
		<g id="shape17-43" v:mID="17" v:groupContext="shape" transform="translate(379.08,-482.799)">
			<title>Sheet.17</title>
			<desc>I/O PMC</desc>
			<v:textBlock v:margins="rect(0,0,0,0)" v:verticalAlign="0"/>
			<v:textRect cx="37.4063" cy="617.861" width="74.82" height="12"/>
			<rect x="0" y="611.861" width="74.8125" height="12" class="st6"/>
			<text x="6.74" y="626.26" class="st2" v:langID="1033"><v:paragraph v:horizAlign="1"/><v:tabList/>I/O PMC</text>		</g>
		<g id="shape18-46" v:mID="18" v:groupContext="shape" transform="translate(127.08,-167.799)">
			<title>Sheet.18</title>
			<rect x="0" y="587.861" width="72" height="36" class="st5"/>
		</g>
		<g id="shape19-48" v:mID="19" v:groupContext="shape" transform="translate(127.08,-131.799)">
			<title>Sheet.19</title>
			<rect x="0" y="587.861" width="72" height="36" class="st5"/>
		</g>
		<g id="shape20-50" v:mID="20" v:groupContext="shape" transform="translate(127.08,-95.7995)">
			<title>Sheet.20</title>
			<rect x="0" y="587.861" width="72" height="36" class="st5"/>
		</g>
		<g id="shape21-52" v:mID="21" v:groupContext="shape" transform="translate(127.08,1097.92) rotate(180)">
			<title>Sheet.21</title>
			<path d="M0 623.86 L21.96 623.86" class="st10"/>
		</g>
		<g id="shape22-58" v:mID="22" v:groupContext="shape" transform="translate(-433.781,528.062) rotate(-90) scale(-1,1)">
			<title>Sheet.22</title>
			<path d="M0 623.86 L81 623.86" class="st9"/>
		</g>
		<g id="shape23-61" v:mID="23" v:groupContext="shape" transform="translate(190.08,-14.7995) scale(-1,1)">
			<title>Sheet.23</title>
			<path d="M0 623.86 L84.96 623.86" class="st10"/>
		</g>
		<g id="group24-66" transform="translate(199.08,-185.799)" v:mID="24" v:groupContext="group">
			<title>Sheet.24</title>
			<g id="shape25-67" v:mID="25" v:groupContext="shape">
				<title>Sheet.25</title>
				<path d="M0 623.86 L216 623.86" class="st9"/>
			</g>
			<g id="shape26-70" v:mID="26" v:groupContext="shape" transform="translate(-407.861,623.861) rotate(-90)">
				<title>Sheet.26</title>
				<path d="M0 623.86 L159.75 623.86" class="st9"/>
			</g>
		</g>
		<g id="shape27-73" v:mID="27" v:groupContext="shape" transform="translate(37.08,-239.799)">
			<title>Sheet.27</title>
			<path d="M0 623.86 L252 623.86" class="st9"/>
		</g>
		<g id="shape28-76" v:mID="28" v:groupContext="shape" transform="translate(-460.781,420.062) rotate(-90)">
			<title>Sheet.28</title>
			<path d="M0 623.86 L78.75 623.86" class="st9"/>
		</g>
		<g id="shape29-79" v:mID="29" v:groupContext="shape" transform="translate(-334.781,384.062) rotate(-90)">
			<title>Sheet.29</title>
			<path d="M0 623.86 L42.75 623.86" class="st9"/>
		</g>
		<g id="shape30-82" v:mID="30" v:groupContext="shape" transform="translate(-586.781,384.062) rotate(-90)">
			<title>Sheet.30</title>
			<path d="M0 623.86 L42.75 623.86" class="st9"/>
		</g>
		<g id="shape31-85" v:mID="31" v:groupContext="shape" transform="translate(25.83,-365.799)">
			<title>Sheet.31</title>
			<desc>1</desc>
			<v:textBlock v:margins="rect(0,0,0,0)" v:verticalAlign="0"/>
			<v:textRect cx="11.25" cy="609.799" width="22.5" height="28.125"/>
			<rect x="0" y="595.736" width="22.5" height="28.125" class="st6"/>
			<text x="4.58" y="617.34" class="st12" v:langID="1033"><v:paragraph v:horizAlign="1"/><v:tabList/>1</text>		</g>
		<g id="shape32-88" v:mID="32" v:groupContext="shape" transform="translate(25.83,-300.549)">
			<title>Sheet.32</title>
			<desc>2</desc>
			<v:textBlock v:margins="rect(0,0,0,0)" v:verticalAlign="0"/>
			<v:textRect cx="11.25" cy="609.799" width="22.5" height="28.125"/>
			<rect x="0" y="595.736" width="22.5" height="28.125" class="st6"/>
			<text x="4.58" y="617.34" class="st12" v:langID="1033"><v:paragraph v:horizAlign="1"/><v:tabList/>2</text>		</g>
		<g id="shape33-91" v:mID="33" v:groupContext="shape" transform="translate(154.08,-365.799)">
			<title>Sheet.33</title>
			<desc>3</desc>
			<v:textBlock v:margins="rect(0,0,0,0)" v:verticalAlign="0"/>
			<v:textRect cx="11.25" cy="609.799" width="22.5" height="28.125"/>
			<rect x="0" y="595.736" width="22.5" height="28.125" class="st6"/>
			<text x="4.58" y="617.34" class="st12" v:langID="1033"><v:paragraph v:horizAlign="1"/><v:tabList/>3</text>		</g>
		<g id="shape34-94" v:mID="34" v:groupContext="shape" transform="translate(154.08,-299.987)">
			<title>Sheet.34</title>
			<desc>4</desc>
			<v:textBlock v:margins="rect(0,0,0,0)" v:verticalAlign="0"/>
			<v:textRect cx="11.25" cy="609.799" width="22.5" height="28.125"/>
			<rect x="0" y="595.736" width="22.5" height="28.125" class="st6"/>
			<text x="4.58" y="617.34" class="st12" v:langID="1033"><v:paragraph v:horizAlign="1"/><v:tabList/>4</text>		</g>
		<g id="shape35-97" v:mID="35" v:groupContext="shape" transform="translate(277.83,-365.799)">
			<title>Sheet.35</title>
			<desc>5</desc>
			<v:textBlock v:margins="rect(0,0,0,0)" v:verticalAlign="0"/>
			<v:textRect cx="11.25" cy="609.799" width="22.5" height="28.125"/>
			<rect x="0" y="595.736" width="22.5" height="28.125" class="st6"/>
			<text x="4.58" y="617.34" class="st12" v:langID="1033"><v:paragraph v:horizAlign="1"/><v:tabList/>5</text>		</g>
		<g id="shape36-100" v:mID="36" v:groupContext="shape" transform="translate(277.83,-299.987)">
			<title>Sheet.36</title>
			<desc>6</desc>
			<v:textBlock v:margins="rect(0,0,0,0)" v:verticalAlign="0"/>
			<v:textRect cx="11.25" cy="609.799" width="22.5" height="28.125"/>
			<rect x="0" y="595.736" width="22.5" height="28.125" class="st6"/>
			<text x="4.58" y="617.34" class="st12" v:langID="1033"><v:paragraph v:horizAlign="1"/><v:tabList/>6</text>		</g>
		<g id="shape37-103" v:mID="37" v:groupContext="shape" transform="translate(403.83,-365.799)">
			<title>Sheet.37</title>
			<desc>7</desc>
			<v:textBlock v:margins="rect(0,0,0,0)" v:verticalAlign="0"/>
			<v:textRect cx="11.25" cy="609.799" width="22.5" height="28.125"/>
			<rect x="0" y="595.736" width="22.5" height="28.125" class="st6"/>
			<text x="4.58" y="617.34" class="st12" v:langID="1033"><v:paragraph v:horizAlign="1"/><v:tabList/>7</text>		</g>
		<g id="shape38-106" v:mID="38" v:groupContext="shape" transform="translate(-208.781,213.062) rotate(-90)">
			<title>Sheet.38</title>
			<path d="M0 623.86 L18 623.86" class="st9"/>
		</g>
		<g id="shape39-109" v:mID="39" v:groupContext="shape" transform="translate(-334.781,213.062) rotate(-90)">
			<title>Sheet.39</title>
			<path d="M0 623.86 L18 623.86" class="st9"/>
		</g>
		<g id="shape40-112" v:mID="40" v:groupContext="shape" transform="translate(-460.781,213.062) rotate(-90)">
			<title>Sheet.40</title>
			<path d="M0 623.86 L18 623.86" class="st9"/>
		</g>
		<g id="shape41-115" v:mID="41" v:groupContext="shape" transform="translate(-586.781,213.062) rotate(-90)">
			<title>Sheet.41</title>
			<path d="M0 623.86 L18 623.86" class="st9"/>
		</g>
		<g id="shape42-118" v:mID="42" v:groupContext="shape" transform="translate(4.17375,-146.799)">
			<title>Sheet.42</title>
			<desc>MATING</desc>
			<v:textBlock v:margins="rect(0,0,0,0)" v:verticalAlign="0"/>
			<v:textRect cx="37.4063" cy="617.861" width="74.82" height="12"/>
			<rect x="0" y="611.861" width="74.8125" height="12" class="st6"/>
			<text x="5.86" y="626.26" class="st2" v:langID="1033"><v:paragraph v:horizAlign="1"/><v:tabList/>MATING</text>		</g>
		<g id="shape43-121" v:mID="43" v:groupContext="shape" transform="translate(-487.781,528.062) rotate(-90) scale(-1,1)">
			<title>Sheet.43</title>
			<path d="M0 623.86 L27 623.86" class="st9"/>
		</g>
		<g id="shape44-124" v:mID="44" v:groupContext="shape" transform="translate(136.08,-68.7995) scale(-1,1)">
			<title>Sheet.44</title>
			<path d="M0 623.86 L30.96 623.86" class="st10"/>
		</g>
		<g id="shape45-129" v:mID="45" v:groupContext="shape" transform="translate(9.5175,-64.2995)">
			<title>Sheet.45</title>
			<desc>ADMIN</desc>
			<v:textBlock v:margins="rect(0,0,0,0)" v:verticalAlign="0"/>
			<v:textRect cx="37.4063" cy="617.861" width="74.82" height="12"/>
			<rect x="0" y="611.861" width="74.8125" height="12" class="st6"/>
			<text x="11.19" y="626.26" class="st2" v:langID="1033"><v:paragraph v:horizAlign="1"/><v:tabList/>ADMIN</text>		</g>
		<g id="shape46-132" v:mID="46" v:groupContext="shape" transform="translate(8.67375,-38.7995)">
			<title>Sheet.46</title>
			<desc>DATA 1</desc>
			<v:textBlock v:margins="rect(0,0,0,0)" v:verticalAlign="0"/>
			<v:textRect cx="37.4063" cy="617.861" width="74.82" height="12"/>
			<rect x="0" y="611.861" width="74.8125" height="12" class="st6"/>
			<text x="8.52" y="626.26" class="st2" v:langID="1033"><v:paragraph v:horizAlign="1"/><v:tabList/>DATA 1</text>		</g>
		<g id="shape47-135" v:mID="47" v:groupContext="shape" transform="translate(6.705,-11.7995)">
			<title>Sheet.47</title>
			<desc>DATA 2</desc>
			<v:textBlock v:margins="rect(0,0,0,0)" v:verticalAlign="0"/>
			<v:textRect cx="37.4063" cy="617.861" width="74.82" height="12"/>
			<rect x="0" y="611.861" width="74.8125" height="12" class="st6"/>
			<text x="8.52" y="626.26" class="st2" v:langID="1033"><v:paragraph v:horizAlign="1"/><v:tabList/>DATA 2</text>		</g>
		<g id="shape48-138" v:mID="48" v:groupContext="shape" transform="translate(-460.781,528.062) rotate(-90) scale(-1,1)">
			<title>Sheet.48</title>
			<path d="M0 623.86 L54 623.86" class="st9"/>
		</g>
		<g id="shape49-141" v:mID="49" v:groupContext="shape" transform="translate(163.08,-41.7995) scale(-1,1)">
			<title>Sheet.49</title>
			<path d="M0 623.86 L57.96 623.86" class="st10"/>
		</g>
		<g id="shape50-146" v:mID="50" v:groupContext="shape" transform="translate(206.955,-77.7995)">
			<title>Sheet.50</title>
			<desc>PROCESSOR# 1</desc>
			<v:textBlock v:margins="rect(0,0,0,0)" v:verticalAlign="0"/>
			<v:textRect cx="72" cy="617.861" width="144" height="12"/>
			<rect x="0" y="611.861" width="144" height="12" class="st6"/>
			<text x="9.76" y="626.26" class="st7" v:langID="1033"><v:paragraph v:horizAlign="1"/><v:tabList/>PROCESSOR# 1</text>		</g>
		<g id="shape51-149" v:mID="51" v:groupContext="shape" transform="translate(144.518,-170.612)">
			<title>Sheet.51</title>
			<desc>BM</desc>
			<v:textBlock v:margins="rect(0,0,0,0)" v:verticalAlign="0"/>
			<v:textRect cx="19.6875" cy="609.799" width="39.38" height="28.125"/>
			<rect x="0" y="595.736" width="39.375" height="28.125" class="st6"/>
			<text x="1.03" y="617.34" class="st12" v:langID="1033"><v:paragraph v:horizAlign="1"/><v:tabList/>BM</text>		</g>
		<g id="shape52-152" v:mID="52" v:groupContext="shape" transform="translate(143.393,-100.299)">
			<title>Sheet.52</title>
			<desc>CC</desc>
			<v:textBlock v:margins="rect(0,0,0,0)" v:verticalAlign="0"/>
			<v:textRect cx="19.6875" cy="609.799" width="39.38" height="28.125"/>
			<rect x="0" y="595.736" width="39.375" height="28.125" class="st6"/>
			<text x="2.36" y="617.34" class="st12" v:langID="1033"><v:paragraph v:horizAlign="1"/><v:tabList/>CC</text>		</g>
		<g id="shape53-155" v:mID="53" v:groupContext="shape" transform="translate(143.393,-135.737)">
			<title>Sheet.53</title>
			<desc>BC</desc>
			<v:textBlock v:margins="rect(0,0,0,0)" v:verticalAlign="0"/>
			<v:textRect cx="19.6875" cy="609.799" width="39.38" height="28.125"/>
			<rect x="0" y="595.736" width="39.375" height="28.125" class="st6"/>
			<text x="2.36" y="617.34" class="st12" v:langID="1033"><v:paragraph v:horizAlign="1"/><v:tabList/>BC</text>		</g>
		<g id="shape54-158" v:mID="54" v:groupContext="shape" transform="translate(317.205,-187.299)">
			<title>Sheet.54</title>
			<desc>ON PROCESSOR</desc>
			<v:textBlock v:margins="rect(0,0,0,0)" v:verticalAlign="0"/>
			<v:textRect cx="48.375" cy="617.861" width="96.75" height="12"/>
			<rect x="0" y="611.861" width="96.75" height="12" class="st6"/>
			<text x="7.53" y="620.86" class="st13" v:langID="1033"><v:paragraph v:horizAlign="1"/><v:tabList/>ON PROCESSOR</text>		</g>
		<g id="shape55-161" v:mID="55" v:groupContext="shape" transform="translate(1.08,-452.799)">
			<title>Sheet.55</title>
			<desc>SLOT 1 (FRONT)</desc>
			<v:textBlock v:margins="rect(0,0,0,0)" v:verticalAlign="0"/>
			<v:textRect cx="37.4063" cy="617.861" width="74.82" height="12"/>
			<rect x="0" y="611.861" width="74.8125" height="12" class="st6"/>
			<text x="9.4" y="626.26" class="st2" v:langID="1033"><v:paragraph v:horizAlign="1"/><v:tabList/>SLOT 1 <tspan x="4.53"
						dy="1.2em" class="st3">(</tspan>FRONT)</text>		</g>
		<g id="shape56-165" v:mID="56" v:groupContext="shape" transform="translate(125.674,-452.799)">
			<title>Sheet.56</title>
			<desc>SLOT 2 (FRONT)</desc>
			<v:textBlock v:margins="rect(0,0,0,0)" v:verticalAlign="0"/>
			<v:textRect cx="37.4063" cy="617.861" width="74.82" height="12"/>
			<rect x="0" y="611.861" width="74.8125" height="12" class="st6"/>
			<text x="9.4" y="626.26" class="st2" v:langID="1033"><v:paragraph v:horizAlign="1"/><v:tabList/>SLOT 2 <tspan x="4.53"
						dy="1.2em" class="st3">(</tspan>FRONT)</text>		</g>
		<g id="shape57-169" v:mID="57" v:groupContext="shape" transform="translate(251.674,-454.299)">
			<title>Sheet.57</title>
			<desc>SLOT 3 (FRONT)</desc>
			<v:textBlock v:margins="rect(0,0,0,0)" v:verticalAlign="0"/>
			<v:textRect cx="37.4063" cy="617.861" width="74.82" height="12"/>
			<rect x="0" y="611.861" width="74.8125" height="12" class="st6"/>
			<text x="9.4" y="626.26" class="st2" v:langID="1033"><v:paragraph v:horizAlign="1"/><v:tabList/>SLOT 3 <tspan x="4.53"
						dy="1.2em" class="st3">(</tspan>FRONT)</text>		</g>
		<g id="shape58-173" v:mID="58" v:groupContext="shape" transform="translate(379.08,-452.799)">
			<title>Sheet.58</title>
			<desc>SLOT 4 (FRONT)</desc>
			<v:textBlock v:margins="rect(0,0,0,0)" v:verticalAlign="0"/>
			<v:textRect cx="37.4063" cy="617.861" width="74.82" height="12"/>
			<rect x="0" y="611.861" width="74.8125" height="12" class="st6"/>
			<text x="9.4" y="626.26" class="st2" v:langID="1033"><v:paragraph v:horizAlign="1"/><v:tabList/>SLOT 4 <tspan x="4.53"
						dy="1.2em" class="st3">(</tspan>FRONT)</text>		</g>
		<g id="shape59-177" v:mID="59" v:groupContext="shape" transform="translate(235.08,-59.7995)">
			<title>Sheet.59</title>
			<desc>SLOT 4 (REAR)</desc>
			<v:textBlock v:margins="rect(0,0,0,0)" v:verticalAlign="0"/>
			<v:textRect cx="37.4062" cy="617.861" width="74.82" height="12"/>
			<rect x="0" y="611.861" width="74.8125" height="12" class="st6"/>
			<text x="9.4" y="626.26" class="st2" v:langID="1033"><v:paragraph v:horizAlign="1"/><v:tabList/>SLOT 4 <tspan x="9.41"
						dy="1.2em" class="st3">(</tspan>REAR)</text>		</g>
	</g>
</svg>
