<?xml version="1.0" encoding="UTF-8" standalone="no"?>
<!DOCTYPE svg PUBLIC "-//W3C//DTD SVG 1.1//EN" "http://www.w3.org/Graphics/SVG/1.1/DTD/svg11.dtd">
<!-- Generated by Microsoft Visio, SVG Export NAS0037-IsolationPanelConnectionDiagSpanLink.svg Page-1 -->
<svg xmlns="http://www.w3.org/2000/svg" xmlns:xlink="http://www.w3.org/1999/xlink" xmlns:ev="http://www.w3.org/2001/xml-events"
		xmlns:v="http://schemas.microsoft.com/visio/2003/SVGExtensions/" width="6.3225in" height="6.34072in"
		viewBox="0 0 455.22 456.532" xml:space="preserve" color-interpolation-filters="sRGB" class="st15">
	<title>IsolationPanelConnection</title>
	<v:documentProperties v:langID="1033" v:viewMarkup="false">
		<v:userDefs>
			<v:ud v:nameU="msvConvertTheme"/>
		</v:userDefs>
	</v:documentProperties>

	<style type="text/css">
	<![CDATA[
		.st1 {stroke:#000000;stroke-linecap:round;stroke-linejoin:round;stroke-width:0.72}
		.st2 {fill:#ffffff;stroke:#000000;stroke-linecap:round;stroke-linejoin:round;stroke-width:0.72;visibility:hidden}
		.st3 {fill:none;stroke:#000000;stroke-linecap:round;stroke-linejoin:round;stroke-width:0.72}
		.st4 {fill:#000000;stroke:#000000;stroke-linecap:round;stroke-linejoin:round;stroke-width:0.24}
		.st5 {fill:none;stroke:none;stroke-linecap:round;stroke-linejoin:round;stroke-width:0.72}
		.st6 {fill:#000000;font-family:Calibri;font-size:0.833336em}
		.st7 {fill:#000000;font-family:Calibri;font-size:0.666664em}
		.st8 {marker-start:url(#mrkr4-169);stroke:#000000;stroke-linecap:round;stroke-linejoin:round;stroke-width:0.24}
		.st9 {fill:#000000;fill-opacity:1;stroke:#000000;stroke-opacity:1;stroke-width:0.08695652173913}
		.st10 {font-size:1em}
		.st11 {stroke:#000000;stroke-linecap:round;stroke-linejoin:round;stroke-width:0.24}
		.st12 {marker-end:url(#mrkr4-208);stroke:#000000;stroke-linecap:round;stroke-linejoin:round;stroke-width:0.24}
		.st13 {stroke:#000000;stroke-dasharray:5.04,3.6;stroke-linecap:round;stroke-linejoin:round;stroke-width:0.72}
		.st14 {stroke:#000000;stroke-linecap:round;stroke-linejoin:round;stroke-width:0.5}
		.st15 {fill:none;fill-rule:evenodd;font-size:12px;overflow:visible;stroke-linecap:square;stroke-miterlimit:3}
	]]>
	</style>

	<defs id="Markers">
		<g id="lend4">
			<path d="M 2 1 L 0 0 L 2 -1 L 2 1 " style="stroke:none"/>
		</g>
		<marker id="mrkr4-169" class="st9" v:arrowType="4" v:arrowSize="2" v:setback="21.5" refX="21.5" orient="auto"
				markerUnits="strokeWidth" overflow="visible">
			<use xlink:href="#lend4" transform="scale(11.5) "/>
		</marker>
		<marker id="mrkr4-208" class="st9" v:arrowType="4" v:arrowSize="2" v:setback="23" refX="-23" orient="auto"
				markerUnits="strokeWidth" overflow="visible">
			<use xlink:href="#lend4" transform="scale(-11.5,-11.5) "/>
		</marker>
	</defs>
	<g v:mID="0" v:index="1" v:groupContext="foregroundPage">
		<title>Page-1</title>
		<v:pageProperties v:drawingScale="1" v:pageScale="1" v:drawingUnits="19" v:shadowOffsetX="9" v:shadowOffsetY="-9"/>
		<v:layer v:name="Electrical" v:index="0"/>
		<g id="group4-1" transform="translate(609.892,36.36) rotate(90)" v:mID="4" v:groupContext="group">
			<title>Resistor</title>
			<g id="shape5-2" v:mID="5" v:groupContext="shape" transform="translate(40.5,-4.5)">
				<title>Sheet.5</title>
				<path d="M0 456.53 L13.5 456.53" class="st1"/>
			</g>
			<g id="shape6-5" v:mID="6" v:groupContext="shape" transform="translate(0,-4.5)">
				<title>Sheet.6</title>
				<path d="M0 456.53 L13.5 456.53" class="st1"/>
			</g>
			<g id="shape7-8" v:mID="7" v:groupContext="shape" transform="translate(13.5,0)">
				<title>Sheet.7</title>
				<path d="M0 452.03 L2.25 447.53 L6.75 456.53 L11.25 447.53 L15.75 456.53 L20.25 447.53 L24.75 456.53 L27 452.03"
						class="st1"/>
			</g>
			<g id="shape8-11" v:mID="8" v:groupContext="shape">
				<title>Sheet.8</title>
				<rect x="0" y="447.532" width="54" height="9" class="st2"/>
			</g>
		</g>
		<g id="shape9-13" v:mID="9" v:groupContext="shape" transform="translate(120.735,-276.172)">
			<title>Sheet.9</title>
			<rect x="0" y="294.532" width="199.125" height="162" class="st3"/>
		</g>
		<g id="group10-15" transform="translate(627.892,36.36) rotate(90)" v:mID="10" v:groupContext="group">
			<title>Resistor.13</title>
			<g id="shape11-16" v:mID="11" v:groupContext="shape" transform="translate(40.5,-4.5)">
				<title>Sheet.11</title>
				<path d="M0 456.53 L13.5 456.53" class="st1"/>
			</g>
			<g id="shape12-19" v:mID="12" v:groupContext="shape" transform="translate(0,-4.5)">
				<title>Sheet.12</title>
				<path d="M0 456.53 L13.5 456.53" class="st1"/>
			</g>
			<g id="shape13-22" v:mID="13" v:groupContext="shape" transform="translate(13.5,0)">
				<title>Sheet.13</title>
				<path d="M0 452.03 L2.25 447.53 L6.75 456.53 L11.25 447.53 L15.75 456.53 L20.25 447.53 L24.75 456.53 L27 452.03"
						class="st1"/>
			</g>
			<g id="shape14-25" v:mID="14" v:groupContext="shape">
				<title>Sheet.14</title>
				<rect x="0" y="447.532" width="54" height="9" class="st2"/>
			</g>
		</g>
		<g id="group15-27" transform="translate(735.892,36.36) rotate(90)" v:mID="15" v:groupContext="group">
			<title>Resistor.18</title>
			<g id="shape16-28" v:mID="16" v:groupContext="shape" transform="translate(40.5,-4.5)">
				<title>Sheet.16</title>
				<path d="M0 456.53 L13.5 456.53" class="st1"/>
			</g>
			<g id="shape17-31" v:mID="17" v:groupContext="shape" transform="translate(0,-4.5)">
				<title>Sheet.17</title>
				<path d="M0 456.53 L13.5 456.53" class="st1"/>
			</g>
			<g id="shape18-34" v:mID="18" v:groupContext="shape" transform="translate(13.5,0)">
				<title>Sheet.18</title>
				<path d="M0 452.03 L2.25 447.53 L6.75 456.53 L11.25 447.53 L15.75 456.53 L20.25 447.53 L24.75 456.53 L27 452.03"
						class="st1"/>
			</g>
			<g id="shape19-37" v:mID="19" v:groupContext="shape">
				<title>Sheet.19</title>
				<rect x="0" y="447.532" width="54" height="9" class="st2"/>
			</g>
		</g>
		<g id="group20-39" transform="translate(753.892,36.36) rotate(90)" v:mID="20" v:groupContext="group">
			<title>Resistor.23</title>
			<g id="shape21-40" v:mID="21" v:groupContext="shape" transform="translate(40.5,-4.5)">
				<title>Sheet.21</title>
				<path d="M0 456.53 L13.5 456.53" class="st1"/>
			</g>
			<g id="shape22-43" v:mID="22" v:groupContext="shape" transform="translate(0,-4.5)">
				<title>Sheet.22</title>
				<path d="M0 456.53 L13.5 456.53" class="st1"/>
			</g>
			<g id="shape23-46" v:mID="23" v:groupContext="shape" transform="translate(13.5,0)">
				<title>Sheet.23</title>
				<path d="M0 452.03 L2.25 447.53 L6.75 456.53 L11.25 447.53 L15.75 456.53 L20.25 447.53 L24.75 456.53 L27 452.03"
						class="st1"/>
			</g>
			<g id="shape24-49" v:mID="24" v:groupContext="shape">
				<title>Sheet.24</title>
				<rect x="0" y="447.532" width="54" height="9" class="st2"/>
			</g>
		</g>
		<g id="shape25-51" v:mID="25" v:groupContext="shape" transform="translate(154.485,-416.797)">
			<title>Sheet.25</title>
			<path d="M0 453.16 A3.375 3.375 0 0 1 6.75 453.16 A3.375 3.375 0 1 1 0 453.16 Z" class="st4"/>
		</g>
		<g id="shape26-53" v:mID="26" v:groupContext="shape" transform="translate(172.485,-416.797)">
			<title>Sheet.26</title>
			<path d="M0 453.16 A3.375 3.375 0 0 1 6.75 453.16 A3.375 3.375 0 1 1 0 453.16 Z" class="st4"/>
		</g>
		<g id="shape27-55" v:mID="27" v:groupContext="shape" transform="translate(280.485,-416.797)">
			<title>Sheet.27</title>
			<path d="M0 453.16 A3.375 3.375 0 0 1 6.75 453.16 A3.375 3.375 0 1 1 0 453.16 Z" class="st4"/>
		</g>
		<g id="shape28-57" v:mID="28" v:groupContext="shape" transform="translate(298.485,-416.797)">
			<title>Sheet.28</title>
			<path d="M0 453.16 A3.375 3.375 0 0 1 6.75 453.16 A3.375 3.375 0 1 1 0 453.16 Z" class="st4"/>
		</g>
		<g id="shape29-59" v:mID="29" v:groupContext="shape" transform="translate(298.485,-362.797)">
			<title>Sheet.29</title>
			<path d="M0 453.16 A3.375 3.375 0 0 1 6.75 453.16 A3.375 3.375 0 1 1 0 453.16 Z" class="st4"/>
		</g>
		<g id="shape30-61" v:mID="30" v:groupContext="shape" transform="translate(280.485,-362.797)">
			<title>Sheet.30</title>
			<path d="M0 453.16 A3.375 3.375 0 0 1 6.75 453.16 A3.375 3.375 0 1 1 0 453.16 Z" class="st4"/>
		</g>
		<g id="shape31-63" v:mID="31" v:groupContext="shape" transform="translate(154.485,-362.797)">
			<title>Sheet.31</title>
			<path d="M0 453.16 A3.375 3.375 0 0 1 6.75 453.16 A3.375 3.375 0 1 1 0 453.16 Z" class="st4"/>
		</g>
		<g id="shape32-65" v:mID="32" v:groupContext="shape" transform="translate(172.485,-362.797)">
			<title>Sheet.32</title>
			<path d="M0 453.16 A3.375 3.375 0 0 1 6.75 453.16 A3.375 3.375 0 1 1 0 453.16 Z" class="st4"/>
		</g>
		<g id="shape35-67" v:mID="35" v:groupContext="shape" transform="translate(148.86,-422.422)">
			<title>Sheet.35</title>
			<desc>1</desc>
			<v:textBlock v:margins="rect(4,4,4,4)"/>
			<v:textRect cx="9" cy="449.782" width="18" height="13.5"/>
			<rect x="0" y="443.032" width="18" height="13.5" class="st5"/>
			<text x="6.47" y="452.78" class="st6" v:langID="1033"><v:paragraph v:horizAlign="1"/><v:tabList/>1</text>		</g>
		<g id="shape36-70" v:mID="36" v:groupContext="shape" transform="translate(166.86,-422.422)">
			<title>Sheet.36</title>
			<desc>2</desc>
			<v:textBlock v:margins="rect(4,4,4,4)"/>
			<v:textRect cx="9" cy="449.782" width="18" height="13.5"/>
			<rect x="0" y="443.032" width="18" height="13.5" class="st5"/>
			<text x="6.47" y="452.78" class="st6" v:langID="1033"><v:paragraph v:horizAlign="1"/><v:tabList/>2</text>		</g>
		<g id="shape37-73" v:mID="37" v:groupContext="shape" transform="translate(274.86,-422.422)">
			<title>Sheet.37</title>
			<desc>9</desc>
			<v:textBlock v:margins="rect(4,4,4,4)"/>
			<v:textRect cx="9" cy="449.782" width="18" height="13.5"/>
			<rect x="0" y="443.032" width="18" height="13.5" class="st5"/>
			<text x="6.47" y="452.78" class="st6" v:langID="1033"><v:paragraph v:horizAlign="1"/><v:tabList/>9</text>		</g>
		<g id="shape38-76" v:mID="38" v:groupContext="shape" transform="translate(291.735,-422.422)">
			<title>Sheet.38</title>
			<desc>10</desc>
			<v:textBlock v:margins="rect(4,4,4,4)"/>
			<v:textRect cx="10.125" cy="449.782" width="20.25" height="13.5"/>
			<rect x="0" y="443.032" width="20.25" height="13.5" class="st5"/>
			<text x="5.06" y="452.78" class="st6" v:langID="1033"><v:paragraph v:horizAlign="1"/><v:tabList/>10</text>		</g>
		<g id="shape39-79" v:mID="39" v:groupContext="shape" transform="translate(304.11,-413.422)">
			<title>Sheet.39</title>
			<desc>A</desc>
			<v:textBlock v:margins="rect(4,4,4,4)"/>
			<v:textRect cx="9" cy="449.782" width="18" height="13.5"/>
			<rect x="0" y="443.032" width="18" height="13.5" class="st5"/>
			<text x="6.11" y="452.78" class="st6" v:langID="1033"><v:paragraph v:horizAlign="1"/><v:tabList/>A</text>		</g>
		<g id="shape40-82" v:mID="40" v:groupContext="shape" transform="translate(304.11,-359.422)">
			<title>Sheet.40</title>
			<desc>B</desc>
			<v:textBlock v:margins="rect(4,4,4,4)"/>
			<v:textRect cx="9" cy="449.782" width="18" height="13.5"/>
			<rect x="0" y="443.032" width="18" height="13.5" class="st5"/>
			<text x="6.28" y="452.78" class="st6" v:langID="1033"><v:paragraph v:horizAlign="1"/><v:tabList/>B</text>		</g>
		<g id="shape42-85" v:mID="42" v:groupContext="shape" transform="translate(193.86,-438.172)">
			<title>Sheet.42</title>
			<desc>Block 1</desc>
			<v:textBlock v:margins="rect(4,4,4,4)"/>
			<v:textRect cx="36" cy="447.532" width="72" height="18"/>
			<rect x="0" y="438.532" width="72" height="18" class="st5"/>
			<text x="21.44" y="450.53" class="st6" v:langID="1033"><v:paragraph v:horizAlign="1"/><v:tabList/>Block 1</text>		</g>
		<g id="group43-88" transform="translate(610.454,117.36) rotate(90)" v:mID="43" v:groupContext="group">
			<title>Resistor.46</title>
			<g id="shape44-89" v:mID="44" v:groupContext="shape" transform="translate(40.5,-4.5)">
				<title>Sheet.44</title>
				<path d="M0 456.53 L13.5 456.53" class="st1"/>
			</g>
			<g id="shape45-92" v:mID="45" v:groupContext="shape" transform="translate(0,-4.5)">
				<title>Sheet.45</title>
				<path d="M0 456.53 L13.5 456.53" class="st1"/>
			</g>
			<g id="shape46-95" v:mID="46" v:groupContext="shape" transform="translate(13.5,0)">
				<title>Sheet.46</title>
				<path d="M0 452.03 L2.25 447.53 L6.75 456.53 L11.25 447.53 L15.75 456.53 L20.25 447.53 L24.75 456.53 L27 452.03"
						class="st1"/>
			</g>
			<g id="shape47-98" v:mID="47" v:groupContext="shape">
				<title>Sheet.47</title>
				<rect x="0" y="447.532" width="54" height="9" class="st2"/>
			</g>
		</g>
		<g id="group48-100" transform="translate(628.454,117.36) rotate(90)" v:mID="48" v:groupContext="group">
			<title>Resistor.51</title>
			<g id="shape49-101" v:mID="49" v:groupContext="shape" transform="translate(40.5,-4.5)">
				<title>Sheet.49</title>
				<path d="M0 456.53 L13.5 456.53" class="st1"/>
			</g>
			<g id="shape50-104" v:mID="50" v:groupContext="shape" transform="translate(0,-4.5)">
				<title>Sheet.50</title>
				<path d="M0 456.53 L13.5 456.53" class="st1"/>
			</g>
			<g id="shape51-107" v:mID="51" v:groupContext="shape" transform="translate(13.5,0)">
				<title>Sheet.51</title>
				<path d="M0 452.03 L2.25 447.53 L6.75 456.53 L11.25 447.53 L15.75 456.53 L20.25 447.53 L24.75 456.53 L27 452.03"
						class="st1"/>
			</g>
			<g id="shape52-110" v:mID="52" v:groupContext="shape">
				<title>Sheet.52</title>
				<rect x="0" y="447.532" width="54" height="9" class="st2"/>
			</g>
		</g>
		<g id="group53-112" transform="translate(736.454,117.36) rotate(90)" v:mID="53" v:groupContext="group">
			<title>Resistor.56</title>
			<g id="shape54-113" v:mID="54" v:groupContext="shape" transform="translate(40.5,-4.5)">
				<title>Sheet.54</title>
				<path d="M0 456.53 L13.5 456.53" class="st1"/>
			</g>
			<g id="shape55-116" v:mID="55" v:groupContext="shape" transform="translate(0,-4.5)">
				<title>Sheet.55</title>
				<path d="M0 456.53 L13.5 456.53" class="st1"/>
			</g>
			<g id="shape56-119" v:mID="56" v:groupContext="shape" transform="translate(13.5,0)">
				<title>Sheet.56</title>
				<path d="M0 452.03 L2.25 447.53 L6.75 456.53 L11.25 447.53 L15.75 456.53 L20.25 447.53 L24.75 456.53 L27 452.03"
						class="st1"/>
			</g>
			<g id="shape57-122" v:mID="57" v:groupContext="shape">
				<title>Sheet.57</title>
				<rect x="0" y="447.532" width="54" height="9" class="st2"/>
			</g>
		</g>
		<g id="group58-124" transform="translate(754.454,117.36) rotate(90)" v:mID="58" v:groupContext="group">
			<title>Resistor.61</title>
			<g id="shape59-125" v:mID="59" v:groupContext="shape" transform="translate(40.5,-4.5)">
				<title>Sheet.59</title>
				<path d="M0 456.53 L13.5 456.53" class="st1"/>
			</g>
			<g id="shape60-128" v:mID="60" v:groupContext="shape" transform="translate(0,-4.5)">
				<title>Sheet.60</title>
				<path d="M0 456.53 L13.5 456.53" class="st1"/>
			</g>
			<g id="shape61-131" v:mID="61" v:groupContext="shape" transform="translate(13.5,0)">
				<title>Sheet.61</title>
				<path d="M0 452.03 L2.25 447.53 L6.75 456.53 L11.25 447.53 L15.75 456.53 L20.25 447.53 L24.75 456.53 L27 452.03"
						class="st1"/>
			</g>
			<g id="shape62-134" v:mID="62" v:groupContext="shape">
				<title>Sheet.62</title>
				<rect x="0" y="447.532" width="54" height="9" class="st2"/>
			</g>
		</g>
		<g id="shape63-136" v:mID="63" v:groupContext="shape" transform="translate(155.047,-335.797)">
			<title>Sheet.63</title>
			<path d="M0 453.16 A3.375 3.375 0 0 1 6.75 453.16 A3.375 3.375 0 1 1 0 453.16 Z" class="st4"/>
		</g>
		<g id="shape64-138" v:mID="64" v:groupContext="shape" transform="translate(173.047,-335.797)">
			<title>Sheet.64</title>
			<path d="M0 453.16 A3.375 3.375 0 0 1 6.75 453.16 A3.375 3.375 0 1 1 0 453.16 Z" class="st4"/>
		</g>
		<g id="shape65-140" v:mID="65" v:groupContext="shape" transform="translate(281.048,-335.797)">
			<title>Sheet.65</title>
			<path d="M0 453.16 A3.375 3.375 0 0 1 6.75 453.16 A3.375 3.375 0 1 1 0 453.16 Z" class="st4"/>
		</g>
		<g id="shape66-142" v:mID="66" v:groupContext="shape" transform="translate(299.048,-335.797)">
			<title>Sheet.66</title>
			<path d="M0 453.16 A3.375 3.375 0 0 1 6.75 453.16 A3.375 3.375 0 1 1 0 453.16 Z" class="st4"/>
		</g>
		<g id="shape67-144" v:mID="67" v:groupContext="shape" transform="translate(299.048,-281.797)">
			<title>Sheet.67</title>
			<path d="M0 453.16 A3.375 3.375 0 0 1 6.75 453.16 A3.375 3.375 0 1 1 0 453.16 Z" class="st4"/>
		</g>
		<g id="shape68-146" v:mID="68" v:groupContext="shape" transform="translate(281.048,-281.797)">
			<title>Sheet.68</title>
			<path d="M0 453.16 A3.375 3.375 0 0 1 6.75 453.16 A3.375 3.375 0 1 1 0 453.16 Z" class="st4"/>
		</g>
		<g id="shape69-148" v:mID="69" v:groupContext="shape" transform="translate(155.047,-281.797)">
			<title>Sheet.69</title>
			<path d="M0 453.16 A3.375 3.375 0 0 1 6.75 453.16 A3.375 3.375 0 1 1 0 453.16 Z" class="st4"/>
		</g>
		<g id="shape70-150" v:mID="70" v:groupContext="shape" transform="translate(173.047,-281.797)">
			<title>Sheet.70</title>
			<path d="M0 453.16 A3.375 3.375 0 0 1 6.75 453.16 A3.375 3.375 0 1 1 0 453.16 Z" class="st4"/>
		</g>
		<g id="shape71-152" v:mID="71" v:groupContext="shape" transform="translate(304.673,-332.422)">
			<title>Sheet.71</title>
			<desc>D</desc>
			<v:textBlock v:margins="rect(4,4,4,4)"/>
			<v:textRect cx="9" cy="449.782" width="18" height="13.5"/>
			<rect x="0" y="443.032" width="18" height="13.5" class="st5"/>
			<text x="5.92" y="452.78" class="st6" v:langID="1033"><v:paragraph v:horizAlign="1"/><v:tabList/>D</text>		</g>
		<g id="shape72-155" v:mID="72" v:groupContext="shape" transform="translate(304.673,-278.422)">
			<title>Sheet.72</title>
			<desc>E</desc>
			<v:textBlock v:margins="rect(4,4,4,4)"/>
			<v:textRect cx="9" cy="449.782" width="18" height="13.5"/>
			<rect x="0" y="443.032" width="18" height="13.5" class="st5"/>
			<text x="6.56" y="452.78" class="st6" v:langID="1033"><v:paragraph v:horizAlign="1"/><v:tabList/>E</text>		</g>
		<g id="shape75-158" v:mID="75" v:groupContext="shape" transform="translate(184.86,-384.172)">
			<title>Sheet.75</title>
			<desc>o o o o o o</desc>
			<v:textBlock v:margins="rect(4,4,4,4)"/>
			<v:textRect cx="45" cy="449.782" width="90" height="13.5"/>
			<rect x="0" y="443.032" width="90" height="13.5" class="st5"/>
			<text x="15.16" y="452.18" class="st7" v:langID="1033"><v:paragraph v:horizAlign="1"/><v:tabList/>o    o    o    o    o   o</text>		</g>
		<g id="shape76-161" v:mID="76" v:groupContext="shape" transform="translate(184.86,-303.172)">
			<title>Sheet.76</title>
			<desc>o o o o o o</desc>
			<v:textBlock v:margins="rect(4,4,4,4)"/>
			<v:textRect cx="45" cy="449.782" width="90" height="13.5"/>
			<rect x="0" y="443.032" width="90" height="13.5" class="st5"/>
			<text x="15.16" y="452.18" class="st7" v:langID="1033"><v:paragraph v:horizAlign="1"/><v:tabList/>o    o    o    o    o   o</text>		</g>
		<g id="shape77-164" v:mID="77" v:groupContext="shape" transform="translate(301.86,-411.172)">
			<title>Sheet.77</title>
			<path d="M5.16 456.53 L5.52 456.53 L36 456.53 L54 438.53 L63 438.53" class="st8"/>
		</g>
		<g id="shape78-170" v:mID="78" v:groupContext="shape" transform="translate(355.86,-420.172)">
			<title>Sheet.78</title>
			<desc>Resistors are 430 ohms</desc>
			<v:textBlock v:margins="rect(4,4,4,4)"/>
			<v:textRect cx="40.5" cy="447.532" width="81" height="18"/>
			<rect x="0" y="438.532" width="81" height="18" class="st5"/>
			<text x="5.74" y="444.53" class="st6" v:langID="1033"><v:paragraph v:horizAlign="1"/><v:tabList/>Resistors are 430 <tspan
						x="29.29" dy="1.2em" class="st10">ohms</tspan></text>		</g>
		<g id="shape79-174" v:mID="79" v:groupContext="shape" transform="translate(153.36,-429.172)">
			<title>Sheet.79</title>
			<path d="M9 456.53 L9 449.78 L0 449.78 L0 456.53" class="st11"/>
		</g>
		<g id="shape80-177" v:mID="80" v:groupContext="shape" transform="translate(85.86,-435.922)">
			<title>Sheet.80</title>
			<path d="M72 456.53 L72 449.78 L0 449.78" class="st11"/>
		</g>
		<g id="shape81-180" v:mID="81" v:groupContext="shape" transform="translate(171.36,-429.172)">
			<title>Sheet.81</title>
			<path d="M9 456.53 L9 449.78 L0 449.78 L0 456.53" class="st11"/>
		</g>
		<g id="shape82-183" v:mID="82" v:groupContext="shape" transform="translate(31.86,-435.922)">
			<title>Sheet.82</title>
			<path d="M144 456.53 L144 445.28 L0 445.28" class="st11"/>
		</g>
		<g id="shape83-186" v:mID="83" v:groupContext="shape" transform="translate(151.11,-278.422)">
			<title>Sheet.83</title>
			<path d="M13.5 452.03 L13.5 456.53 L0 456.53 L0 452.03" class="st11"/>
		</g>
		<g id="shape84-189" v:mID="84" v:groupContext="shape" transform="translate(85.86,-271.672)">
			<title>Sheet.84</title>
			<path d="M72 449.78 L72 456.53 L0 456.53" class="st11"/>
		</g>
		<g id="shape85-192" v:mID="85" v:groupContext="shape" transform="translate(169.11,-278.422)">
			<title>Sheet.85</title>
			<path d="M0 452.03 L0 456.53 L13.5 456.53 L13.5 452.03" class="st11"/>
		</g>
		<g id="shape86-195" v:mID="86" v:groupContext="shape" transform="translate(31.86,-267.172)">
			<title>Sheet.86</title>
			<path d="M144 445.28 L144 456.53 L0 456.53" class="st11"/>
		</g>
		<g id="shape87-198" v:mID="87" v:groupContext="shape" transform="translate(546.892,13.86) rotate(90)">
			<title>Sheet.87</title>
			<path d="M5.16 456.53 L5.52 456.53 L76.5 456.53" class="st8"/>
		</g>
		<g id="shape88-203" v:mID="88" v:groupContext="shape" transform="translate(546.892,117.36) rotate(90)">
			<title>Sheet.88</title>
			<path d="M0 456.53 L61.98 456.53" class="st12"/>
		</g>
		<g id="shape89-209" v:mID="89" v:groupContext="shape" transform="translate(497.392,90.36) rotate(90)">
			<title>Sheet.89</title>
			<path d="M0 456.53 L93.48 456.53" class="st12"/>
		</g>
		<g id="shape90-214" v:mID="90" v:groupContext="shape" transform="translate(497.392,9.36) rotate(90)">
			<title>Sheet.90</title>
			<path d="M5.16 456.53 L5.52 456.53 L45 456.53" class="st8"/>
		</g>
		<g id="shape91-219" v:mID="91" v:groupContext="shape" transform="translate(67.86,-341.422)">
			<title>Sheet.91</title>
			<desc>CO Side RX</desc>
			<v:textBlock v:margins="rect(4,4,4,4)"/>
			<v:textRect cx="24.75" cy="445.282" width="49.5" height="22.5"/>
			<rect x="0" y="434.032" width="49.5" height="22.5" class="st5"/>
			<text x="18.77" y="442.28" class="st6" v:langID="1033"><v:paragraph v:horizAlign="1"/><v:tabList/>CO<v:newlineChar/><tspan
						x="9.75" dy="1.2em" class="st10">Side RX</tspan></text>		</g>
		<g id="shape92-223" v:mID="92" v:groupContext="shape" transform="translate(16.11,-368.422)">
			<title>Sheet.92</title>
			<desc>CO Side TX</desc>
			<v:textBlock v:margins="rect(4,4,4,4)"/>
			<v:textRect cx="24.75" cy="440.782" width="49.5" height="31.5"/>
			<rect x="0" y="425.032" width="49.5" height="31.5" class="st5"/>
			<text x="18.77" y="437.78" class="st6" v:langID="1033"><v:paragraph v:horizAlign="1"/><v:tabList/>CO<v:newlineChar/><tspan
						x="10.03" dy="1.2em" class="st10">Side TX</tspan></text>		</g>
		<g id="group93-227" transform="translate(609.892,297.36) rotate(90)" v:mID="93" v:groupContext="group">
			<title>Resistor.11</title>
			<g id="shape94-228" v:mID="94" v:groupContext="shape" transform="translate(40.5,-4.5)">
				<title>Sheet.94</title>
				<path d="M0 456.53 L13.5 456.53" class="st1"/>
			</g>
			<g id="shape95-231" v:mID="95" v:groupContext="shape" transform="translate(0,-4.5)">
				<title>Sheet.95</title>
				<path d="M0 456.53 L13.5 456.53" class="st1"/>
			</g>
			<g id="shape96-234" v:mID="96" v:groupContext="shape" transform="translate(13.5,0)">
				<title>Sheet.96</title>
				<path d="M0 452.03 L2.25 447.53 L6.75 456.53 L11.25 447.53 L15.75 456.53 L20.25 447.53 L24.75 456.53 L27 452.03"
						class="st1"/>
			</g>
			<g id="shape97-237" v:mID="97" v:groupContext="shape">
				<title>Sheet.97</title>
				<rect x="0" y="447.532" width="54" height="9" class="st2"/>
			</g>
		</g>
		<g id="group99-239" transform="translate(627.892,297.36) rotate(90)" v:mID="99" v:groupContext="group">
			<title>Resistor.100</title>
			<g id="shape100-240" v:mID="100" v:groupContext="shape" transform="translate(40.5,-4.5)">
				<title>Sheet.100</title>
				<path d="M0 456.53 L13.5 456.53" class="st1"/>
			</g>
			<g id="shape101-243" v:mID="101" v:groupContext="shape" transform="translate(0,-4.5)">
				<title>Sheet.101</title>
				<path d="M0 456.53 L13.5 456.53" class="st1"/>
			</g>
			<g id="shape102-246" v:mID="102" v:groupContext="shape" transform="translate(13.5,0)">
				<title>Sheet.102</title>
				<path d="M0 452.03 L2.25 447.53 L6.75 456.53 L11.25 447.53 L15.75 456.53 L20.25 447.53 L24.75 456.53 L27 452.03"
						class="st1"/>
			</g>
			<g id="shape103-249" v:mID="103" v:groupContext="shape">
				<title>Sheet.103</title>
				<rect x="0" y="447.532" width="54" height="9" class="st2"/>
			</g>
		</g>
		<g id="group104-251" transform="translate(735.892,297.36) rotate(90)" v:mID="104" v:groupContext="group">
			<title>Resistor.105</title>
			<g id="shape105-252" v:mID="105" v:groupContext="shape" transform="translate(40.5,-4.5)">
				<title>Sheet.105</title>
				<path d="M0 456.53 L13.5 456.53" class="st1"/>
			</g>
			<g id="shape106-255" v:mID="106" v:groupContext="shape" transform="translate(0,-4.5)">
				<title>Sheet.106</title>
				<path d="M0 456.53 L13.5 456.53" class="st1"/>
			</g>
			<g id="shape107-258" v:mID="107" v:groupContext="shape" transform="translate(13.5,0)">
				<title>Sheet.107</title>
				<path d="M0 452.03 L2.25 447.53 L6.75 456.53 L11.25 447.53 L15.75 456.53 L20.25 447.53 L24.75 456.53 L27 452.03"
						class="st1"/>
			</g>
			<g id="shape108-261" v:mID="108" v:groupContext="shape">
				<title>Sheet.108</title>
				<rect x="0" y="447.532" width="54" height="9" class="st2"/>
			</g>
		</g>
		<g id="group109-263" transform="translate(753.892,297.36) rotate(90)" v:mID="109" v:groupContext="group">
			<title>Resistor.110</title>
			<g id="shape110-264" v:mID="110" v:groupContext="shape" transform="translate(40.5,-4.5)">
				<title>Sheet.110</title>
				<path d="M0 456.53 L13.5 456.53" class="st1"/>
			</g>
			<g id="shape111-267" v:mID="111" v:groupContext="shape" transform="translate(0,-4.5)">
				<title>Sheet.111</title>
				<path d="M0 456.53 L13.5 456.53" class="st1"/>
			</g>
			<g id="shape112-270" v:mID="112" v:groupContext="shape" transform="translate(13.5,0)">
				<title>Sheet.112</title>
				<path d="M0 452.03 L2.25 447.53 L6.75 456.53 L11.25 447.53 L15.75 456.53 L20.25 447.53 L24.75 456.53 L27 452.03"
						class="st1"/>
			</g>
			<g id="shape113-273" v:mID="113" v:groupContext="shape">
				<title>Sheet.113</title>
				<rect x="0" y="447.532" width="54" height="9" class="st2"/>
			</g>
		</g>
		<g id="shape114-275" v:mID="114" v:groupContext="shape" transform="translate(154.485,-155.797)">
			<title>Sheet.114</title>
			<path d="M0 453.16 A3.375 3.375 0 0 1 6.75 453.16 A3.375 3.375 0 1 1 0 453.16 Z" class="st4"/>
		</g>
		<g id="shape115-277" v:mID="115" v:groupContext="shape" transform="translate(172.485,-155.797)">
			<title>Sheet.115</title>
			<path d="M0 453.16 A3.375 3.375 0 0 1 6.75 453.16 A3.375 3.375 0 1 1 0 453.16 Z" class="st4"/>
		</g>
		<g id="shape116-279" v:mID="116" v:groupContext="shape" transform="translate(280.485,-155.797)">
			<title>Sheet.116</title>
			<path d="M0 453.16 A3.375 3.375 0 0 1 6.75 453.16 A3.375 3.375 0 1 1 0 453.16 Z" class="st4"/>
		</g>
		<g id="shape117-281" v:mID="117" v:groupContext="shape" transform="translate(298.485,-155.797)">
			<title>Sheet.117</title>
			<path d="M0 453.16 A3.375 3.375 0 0 1 6.75 453.16 A3.375 3.375 0 1 1 0 453.16 Z" class="st4"/>
		</g>
		<g id="shape118-283" v:mID="118" v:groupContext="shape" transform="translate(298.485,-101.797)">
			<title>Sheet.118</title>
			<path d="M0 453.16 A3.375 3.375 0 0 1 6.75 453.16 A3.375 3.375 0 1 1 0 453.16 Z" class="st4"/>
		</g>
		<g id="shape119-285" v:mID="119" v:groupContext="shape" transform="translate(280.485,-101.797)">
			<title>Sheet.119</title>
			<path d="M0 453.16 A3.375 3.375 0 0 1 6.75 453.16 A3.375 3.375 0 1 1 0 453.16 Z" class="st4"/>
		</g>
		<g id="shape120-287" v:mID="120" v:groupContext="shape" transform="translate(154.485,-101.797)">
			<title>Sheet.120</title>
			<path d="M0 453.16 A3.375 3.375 0 0 1 6.75 453.16 A3.375 3.375 0 1 1 0 453.16 Z" class="st4"/>
		</g>
		<g id="shape121-289" v:mID="121" v:groupContext="shape" transform="translate(172.485,-101.797)">
			<title>Sheet.121</title>
			<path d="M0 453.16 A3.375 3.375 0 0 1 6.75 453.16 A3.375 3.375 0 1 1 0 453.16 Z" class="st4"/>
		</g>
		<g id="shape124-291" v:mID="124" v:groupContext="shape" transform="translate(148.86,-161.422)">
			<title>Sheet.124</title>
			<desc>1</desc>
			<v:textBlock v:margins="rect(4,4,4,4)"/>
			<v:textRect cx="9" cy="449.782" width="18" height="13.5"/>
			<rect x="0" y="443.032" width="18" height="13.5" class="st5"/>
			<text x="6.47" y="452.78" class="st6" v:langID="1033"><v:paragraph v:horizAlign="1"/><v:tabList/>1</text>		</g>
		<g id="shape125-294" v:mID="125" v:groupContext="shape" transform="translate(166.86,-161.422)">
			<title>Sheet.125</title>
			<desc>2</desc>
			<v:textBlock v:margins="rect(4,4,4,4)"/>
			<v:textRect cx="9" cy="449.782" width="18" height="13.5"/>
			<rect x="0" y="443.032" width="18" height="13.5" class="st5"/>
			<text x="6.47" y="452.78" class="st6" v:langID="1033"><v:paragraph v:horizAlign="1"/><v:tabList/>2</text>		</g>
		<g id="shape126-297" v:mID="126" v:groupContext="shape" transform="translate(274.86,-161.422)">
			<title>Sheet.126</title>
			<desc>9</desc>
			<v:textBlock v:margins="rect(4,4,4,4)"/>
			<v:textRect cx="9" cy="449.782" width="18" height="13.5"/>
			<rect x="0" y="443.032" width="18" height="13.5" class="st5"/>
			<text x="6.47" y="452.78" class="st6" v:langID="1033"><v:paragraph v:horizAlign="1"/><v:tabList/>9</text>		</g>
		<g id="shape127-300" v:mID="127" v:groupContext="shape" transform="translate(291.735,-161.422)">
			<title>Sheet.127</title>
			<desc>10</desc>
			<v:textBlock v:margins="rect(4,4,4,4)"/>
			<v:textRect cx="10.125" cy="449.782" width="20.25" height="13.5"/>
			<rect x="0" y="443.032" width="20.25" height="13.5" class="st5"/>
			<text x="5.06" y="452.78" class="st6" v:langID="1033"><v:paragraph v:horizAlign="1"/><v:tabList/>10</text>		</g>
		<g id="shape128-303" v:mID="128" v:groupContext="shape" transform="translate(304.11,-152.422)">
			<title>Sheet.128</title>
			<desc>A</desc>
			<v:textBlock v:margins="rect(4,4,4,4)"/>
			<v:textRect cx="9" cy="449.782" width="18" height="13.5"/>
			<rect x="0" y="443.032" width="18" height="13.5" class="st5"/>
			<text x="6.11" y="452.78" class="st6" v:langID="1033"><v:paragraph v:horizAlign="1"/><v:tabList/>A</text>		</g>
		<g id="shape129-306" v:mID="129" v:groupContext="shape" transform="translate(304.11,-98.4215)">
			<title>Sheet.129</title>
			<desc>B</desc>
			<v:textBlock v:margins="rect(4,4,4,4)"/>
			<v:textRect cx="9" cy="449.782" width="18" height="13.5"/>
			<rect x="0" y="443.032" width="18" height="13.5" class="st5"/>
			<text x="6.28" y="452.78" class="st6" v:langID="1033"><v:paragraph v:horizAlign="1"/><v:tabList/>B</text>		</g>
		<g id="shape131-309" v:mID="131" v:groupContext="shape" transform="translate(193.86,-177.172)">
			<title>Sheet.131</title>
			<desc>Block 3</desc>
			<v:textBlock v:margins="rect(4,4,4,4)"/>
			<v:textRect cx="36" cy="447.532" width="72" height="18"/>
			<rect x="0" y="438.532" width="72" height="18" class="st5"/>
			<text x="21.44" y="450.53" class="st6" v:langID="1033"><v:paragraph v:horizAlign="1"/><v:tabList/>Block 3</text>		</g>
		<g id="group132-312" transform="translate(610.454,378.36) rotate(90)" v:mID="132" v:groupContext="group">
			<title>Resistor.133</title>
			<g id="shape133-313" v:mID="133" v:groupContext="shape" transform="translate(40.5,-4.5)">
				<title>Sheet.133</title>
				<path d="M0 456.53 L13.5 456.53" class="st1"/>
			</g>
			<g id="shape134-316" v:mID="134" v:groupContext="shape" transform="translate(0,-4.5)">
				<title>Sheet.134</title>
				<path d="M0 456.53 L13.5 456.53" class="st1"/>
			</g>
			<g id="shape135-319" v:mID="135" v:groupContext="shape" transform="translate(13.5,0)">
				<title>Sheet.135</title>
				<path d="M0 452.03 L2.25 447.53 L6.75 456.53 L11.25 447.53 L15.75 456.53 L20.25 447.53 L24.75 456.53 L27 452.03"
						class="st1"/>
			</g>
			<g id="shape136-322" v:mID="136" v:groupContext="shape">
				<title>Sheet.136</title>
				<rect x="0" y="447.532" width="54" height="9" class="st2"/>
			</g>
		</g>
		<g id="group137-324" transform="translate(628.454,378.36) rotate(90)" v:mID="137" v:groupContext="group">
			<title>Resistor.138</title>
			<g id="shape138-325" v:mID="138" v:groupContext="shape" transform="translate(40.5,-4.5)">
				<title>Sheet.138</title>
				<path d="M0 456.53 L13.5 456.53" class="st1"/>
			</g>
			<g id="shape139-328" v:mID="139" v:groupContext="shape" transform="translate(0,-4.5)">
				<title>Sheet.139</title>
				<path d="M0 456.53 L13.5 456.53" class="st1"/>
			</g>
			<g id="shape140-331" v:mID="140" v:groupContext="shape" transform="translate(13.5,0)">
				<title>Sheet.140</title>
				<path d="M0 452.03 L2.25 447.53 L6.75 456.53 L11.25 447.53 L15.75 456.53 L20.25 447.53 L24.75 456.53 L27 452.03"
						class="st1"/>
			</g>
			<g id="shape141-334" v:mID="141" v:groupContext="shape">
				<title>Sheet.141</title>
				<rect x="0" y="447.532" width="54" height="9" class="st2"/>
			</g>
		</g>
		<g id="group142-336" transform="translate(736.454,378.36) rotate(90)" v:mID="142" v:groupContext="group">
			<title>Resistor.143</title>
			<g id="shape143-337" v:mID="143" v:groupContext="shape" transform="translate(40.5,-4.5)">
				<title>Sheet.143</title>
				<path d="M0 456.53 L13.5 456.53" class="st1"/>
			</g>
			<g id="shape144-340" v:mID="144" v:groupContext="shape" transform="translate(0,-4.5)">
				<title>Sheet.144</title>
				<path d="M0 456.53 L13.5 456.53" class="st1"/>
			</g>
			<g id="shape145-343" v:mID="145" v:groupContext="shape" transform="translate(13.5,0)">
				<title>Sheet.145</title>
				<path d="M0 452.03 L2.25 447.53 L6.75 456.53 L11.25 447.53 L15.75 456.53 L20.25 447.53 L24.75 456.53 L27 452.03"
						class="st1"/>
			</g>
			<g id="shape146-346" v:mID="146" v:groupContext="shape">
				<title>Sheet.146</title>
				<rect x="0" y="447.532" width="54" height="9" class="st2"/>
			</g>
		</g>
		<g id="group147-348" transform="translate(754.454,378.36) rotate(90)" v:mID="147" v:groupContext="group">
			<title>Resistor.148</title>
			<g id="shape148-349" v:mID="148" v:groupContext="shape" transform="translate(40.5,-4.5)">
				<title>Sheet.148</title>
				<path d="M0 456.53 L13.5 456.53" class="st1"/>
			</g>
			<g id="shape149-352" v:mID="149" v:groupContext="shape" transform="translate(0,-4.5)">
				<title>Sheet.149</title>
				<path d="M0 456.53 L13.5 456.53" class="st1"/>
			</g>
			<g id="shape150-355" v:mID="150" v:groupContext="shape" transform="translate(13.5,0)">
				<title>Sheet.150</title>
				<path d="M0 452.03 L2.25 447.53 L6.75 456.53 L11.25 447.53 L15.75 456.53 L20.25 447.53 L24.75 456.53 L27 452.03"
						class="st1"/>
			</g>
			<g id="shape151-358" v:mID="151" v:groupContext="shape">
				<title>Sheet.151</title>
				<rect x="0" y="447.532" width="54" height="9" class="st2"/>
			</g>
		</g>
		<g id="shape152-360" v:mID="152" v:groupContext="shape" transform="translate(155.047,-74.7965)">
			<title>Sheet.152</title>
			<path d="M0 453.16 A3.375 3.375 0 0 1 6.75 453.16 A3.375 3.375 0 1 1 0 453.16 Z" class="st4"/>
		</g>
		<g id="shape153-362" v:mID="153" v:groupContext="shape" transform="translate(173.047,-74.7965)">
			<title>Sheet.153</title>
			<path d="M0 453.16 A3.375 3.375 0 0 1 6.75 453.16 A3.375 3.375 0 1 1 0 453.16 Z" class="st4"/>
		</g>
		<g id="shape154-364" v:mID="154" v:groupContext="shape" transform="translate(281.048,-74.7965)">
			<title>Sheet.154</title>
			<path d="M0 453.16 A3.375 3.375 0 0 1 6.75 453.16 A3.375 3.375 0 1 1 0 453.16 Z" class="st4"/>
		</g>
		<g id="shape155-366" v:mID="155" v:groupContext="shape" transform="translate(299.048,-74.7965)">
			<title>Sheet.155</title>
			<path d="M0 453.16 A3.375 3.375 0 0 1 6.75 453.16 A3.375 3.375 0 1 1 0 453.16 Z" class="st4"/>
		</g>
		<g id="shape156-368" v:mID="156" v:groupContext="shape" transform="translate(299.048,-20.7965)">
			<title>Sheet.156</title>
			<path d="M0 453.16 A3.375 3.375 0 0 1 6.75 453.16 A3.375 3.375 0 1 1 0 453.16 Z" class="st4"/>
		</g>
		<g id="shape157-370" v:mID="157" v:groupContext="shape" transform="translate(281.048,-20.7965)">
			<title>Sheet.157</title>
			<path d="M0 453.16 A3.375 3.375 0 0 1 6.75 453.16 A3.375 3.375 0 1 1 0 453.16 Z" class="st4"/>
		</g>
		<g id="shape158-372" v:mID="158" v:groupContext="shape" transform="translate(155.047,-20.7965)">
			<title>Sheet.158</title>
			<path d="M0 453.16 A3.375 3.375 0 0 1 6.75 453.16 A3.375 3.375 0 1 1 0 453.16 Z" class="st4"/>
		</g>
		<g id="shape159-374" v:mID="159" v:groupContext="shape" transform="translate(173.047,-20.7965)">
			<title>Sheet.159</title>
			<path d="M0 453.16 A3.375 3.375 0 0 1 6.75 453.16 A3.375 3.375 0 1 1 0 453.16 Z" class="st4"/>
		</g>
		<g id="shape160-376" v:mID="160" v:groupContext="shape" transform="translate(304.673,-71.4215)">
			<title>Sheet.160</title>
			<desc>D</desc>
			<v:textBlock v:margins="rect(4,4,4,4)"/>
			<v:textRect cx="9" cy="449.782" width="18" height="13.5"/>
			<rect x="0" y="443.032" width="18" height="13.5" class="st5"/>
			<text x="5.92" y="452.78" class="st6" v:langID="1033"><v:paragraph v:horizAlign="1"/><v:tabList/>D</text>		</g>
		<g id="shape161-379" v:mID="161" v:groupContext="shape" transform="translate(304.673,-17.4215)">
			<title>Sheet.161</title>
			<desc>E</desc>
			<v:textBlock v:margins="rect(4,4,4,4)"/>
			<v:textRect cx="9" cy="449.782" width="18" height="13.5"/>
			<rect x="0" y="443.032" width="18" height="13.5" class="st5"/>
			<text x="6.56" y="452.78" class="st6" v:langID="1033"><v:paragraph v:horizAlign="1"/><v:tabList/>E</text>		</g>
		<g id="shape164-382" v:mID="164" v:groupContext="shape" transform="translate(184.86,-125.422)">
			<title>Sheet.164</title>
			<desc>o o o o o o</desc>
			<v:textBlock v:margins="rect(4,4,4,4)"/>
			<v:textRect cx="45" cy="449.782" width="90" height="13.5"/>
			<rect x="0" y="443.032" width="90" height="13.5" class="st5"/>
			<text x="15.16" y="452.18" class="st7" v:langID="1033"><v:paragraph v:horizAlign="1"/><v:tabList/>o    o    o    o    o   o</text>		</g>
		<g id="shape165-385" v:mID="165" v:groupContext="shape" transform="translate(184.86,-44.4215)">
			<title>Sheet.165</title>
			<desc>o o o o o o</desc>
			<v:textBlock v:margins="rect(4,4,4,4)"/>
			<v:textRect cx="45" cy="449.782" width="90" height="13.5"/>
			<rect x="0" y="443.032" width="90" height="13.5" class="st5"/>
			<text x="15.16" y="452.18" class="st7" v:langID="1033"><v:paragraph v:horizAlign="1"/><v:tabList/>o    o    o    o    o   o</text>		</g>
		<g id="shape166-388" v:mID="166" v:groupContext="shape" transform="translate(151.11,-170.422)">
			<title>Sheet.166</title>
			<path d="M13.5 456.53 L13.5 452.03 L0 452.03 L0 456.53" class="st11"/>
		</g>
		<g id="shape167-391" v:mID="167" v:groupContext="shape" transform="translate(85.86,-174.922)">
			<title>Sheet.167</title>
			<path d="M72 456.53 L72 449.78 L0 449.78" class="st11"/>
		</g>
		<g id="shape168-394" v:mID="168" v:groupContext="shape" transform="translate(169.11,-170.422)">
			<title>Sheet.168</title>
			<path d="M13.5 456.53 L13.5 452.03 L0 452.03 L0 456.53" class="st11"/>
		</g>
		<g id="shape169-397" v:mID="169" v:groupContext="shape" transform="translate(31.86,-174.922)">
			<title>Sheet.169</title>
			<path d="M144 456.53 L144 445.28 L0 445.28" class="st11"/>
		</g>
		<g id="shape170-400" v:mID="170" v:groupContext="shape" transform="translate(151.672,-17.4215)">
			<title>Sheet.170</title>
			<path d="M12.94 452.03 L12.94 456.53 L0 456.53 L0 452.03" class="st11"/>
		</g>
		<g id="shape171-403" v:mID="171" v:groupContext="shape" transform="translate(85.86,-10.6715)">
			<title>Sheet.171</title>
			<path d="M72 449.78 L72 456.53 L0 456.53" class="st11"/>
		</g>
		<g id="shape172-406" v:mID="172" v:groupContext="shape" transform="translate(170.235,-17.4215)">
			<title>Sheet.172</title>
			<path d="M0 452.03 L0 456.53 L12.37 456.53 L12.37 452.03" class="st11"/>
		</g>
		<g id="shape173-409" v:mID="173" v:groupContext="shape" transform="translate(31.86,-6.17155)">
			<title>Sheet.173</title>
			<path d="M144 445.28 L144 456.53 L0 456.53" class="st11"/>
		</g>
		<g id="shape174-412" v:mID="174" v:groupContext="shape" transform="translate(546.892,274.86) rotate(90)">
			<title>Sheet.174</title>
			<path d="M5.16 456.53 L5.52 456.53 L103.5 456.53" class="st8"/>
		</g>
		<g id="shape175-417" v:mID="175" v:groupContext="shape" transform="translate(546.892,405.36) rotate(90)">
			<title>Sheet.175</title>
			<path d="M0 456.53 L34.98 456.53" class="st12"/>
		</g>
		<g id="shape176-422" v:mID="176" v:groupContext="shape" transform="translate(497.392,342.36) rotate(90)">
			<title>Sheet.176</title>
			<path d="M0 456.53 L102.48 456.53" class="st12"/>
		</g>
		<g id="shape177-427" v:mID="177" v:groupContext="shape" transform="translate(497.392,270.36) rotate(90)">
			<title>Sheet.177</title>
			<path d="M5.16 456.53 L5.52 456.53 L36 456.53" class="st8"/>
		</g>
		<g id="shape178-432" v:mID="178" v:groupContext="shape" transform="translate(70.11,-51.1715)">
			<title>Sheet.178</title>
			<desc>CO RX Side</desc>
			<v:textBlock v:margins="rect(4,4,4,4)"/>
			<v:textRect cx="24.75" cy="445.282" width="49.5" height="22.5"/>
			<rect x="0" y="434.032" width="49.5" height="22.5" class="st5"/>
			<text x="18.77" y="442.28" class="st6" v:langID="1033"><v:paragraph v:horizAlign="1"/><v:tabList/>CO<v:newlineChar/><tspan
						x="9.75" dy="1.2em" class="st10">RX Side</tspan></text>		</g>
		<g id="shape179-436" v:mID="179" v:groupContext="shape" transform="translate(16.11,-114.172)">
			<title>Sheet.179</title>
			<desc>CO TX Side</desc>
			<v:textBlock v:margins="rect(4,4,4,4)"/>
			<v:textRect cx="24.75" cy="440.782" width="49.5" height="31.5"/>
			<rect x="0" y="425.032" width="49.5" height="31.5" class="st5"/>
			<text x="18.77" y="437.78" class="st6" v:langID="1033"><v:paragraph v:horizAlign="1"/><v:tabList/>CO<v:newlineChar/><tspan
						x="10.03" dy="1.2em" class="st10">TX Side</tspan></text>		</g>
		<g id="shape181-440" v:mID="181" v:groupContext="shape" transform="translate(382.86,-15.1715)">
			<title>Sheet.181</title>
			<path d="M72 294.53 L0 294.53 L0 456.53 L72 456.53" class="st1"/>
		</g>
		<g id="shape182-443" v:mID="182" v:groupContext="shape" transform="translate(382.86,-177.172)">
			<title>Sheet.182</title>
			<desc>Block 5</desc>
			<v:textBlock v:margins="rect(4,4,4,4)"/>
			<v:textRect cx="36" cy="447.532" width="72" height="18"/>
			<rect x="0" y="438.532" width="72" height="18" class="st5"/>
			<text x="21.44" y="450.53" class="st6" v:langID="1033"><v:paragraph v:horizAlign="1"/><v:tabList/>Block 5</text>		</g>
		<g id="shape185-446" v:mID="185" v:groupContext="shape" transform="translate(203.985,-343.109)">
			<title>Sheet.185</title>
			<desc>To NetAnalyzer</desc>
			<v:textBlock v:margins="rect(4,4,4,4)"/>
			<v:textRect cx="27" cy="442.953" width="54" height="27.1575"/>
			<rect x="0" y="429.374" width="54" height="27.1575" class="st5"/>
			<text x="22.94" y="440.55" class="st7" v:langID="1033"><v:paragraph v:horizAlign="1"/><v:tabList/>To <tspan x="7.06"
						dy="1.2em" class="st10">NetAnalyzer</tspan></text>		</g>
		<g id="shape98-450" v:mID="98" v:groupContext="shape" transform="translate(120.735,-14.609)">
			<title>Sheet.98</title>
			<rect x="0" y="294.532" width="199.125" height="162" class="st3"/>
		</g>
		<g id="shape180-452" v:mID="180" v:groupContext="shape" transform="translate(319.86,-234.547)">
			<title>Sheet.180</title>
			<path d="M0 338.97 L31.5 338.97 L31.5 455.97 L31.5 456.53" class="st13"/>
		</g>
		<g id="shape188-455" v:mID="188" v:groupContext="shape" transform="translate(351.36,677.954) rotate(180)">
			<title>Sheet.188</title>
			<path d="M0 456.53 L351 456.53" class="st13"/>
		</g>
		<g id="shape189-458" v:mID="189" v:groupContext="shape" transform="translate(456.892,221.423) rotate(90)">
			<title>Sheet.189</title>
			<path d="M0 456.53 L135 456.53" class="st13"/>
		</g>
		<g id="shape190-461" v:mID="190" v:groupContext="shape" transform="translate(0.36,-100.109)">
			<title>Sheet.190</title>
			<path d="M0 456.53 L120.37 456.53" class="st13"/>
		</g>
		<g id="shape183-464" v:mID="183" v:groupContext="shape" transform="translate(319.86,-91.109)">
			<title>Sheet.183</title>
			<path d="M0 456.53 L63 456.53" class="st13"/>
		</g>
		<g id="shape33-467" v:mID="33" v:groupContext="shape" transform="translate(138.172,-345.359)">
			<title>Sheet.33</title>
			<desc>RX</desc>
			<v:textBlock v:margins="rect(4,4,4,4)"/>
			<v:textRect cx="11.25" cy="449.782" width="22.5" height="13.5"/>
			<rect x="0" y="443.032" width="22.5" height="13.5" class="st5"/>
			<text x="5.94" y="452.78" class="st6" v:langID="1033"><v:paragraph v:horizAlign="1"/><v:tabList/>RX</text>		</g>
		<g id="shape34-470" v:mID="34" v:groupContext="shape" transform="translate(175.297,-345.359)">
			<title>Sheet.34</title>
			<desc>TX</desc>
			<v:textBlock v:margins="rect(4,4,4,4)"/>
			<v:textRect cx="11.25" cy="449.782" width="22.5" height="13.5"/>
			<rect x="0" y="443.032" width="22.5" height="13.5" class="st5"/>
			<text x="6.22" y="452.78" class="st6" v:langID="1033"><v:paragraph v:horizAlign="1"/><v:tabList/>TX</text>		</g>
		<g id="shape73-473" v:mID="73" v:groupContext="shape" transform="translate(203.985,-82.109)">
			<title>Sheet.73</title>
			<desc>To NetAnalyzer</desc>
			<v:textBlock v:margins="rect(4,4,4,4)"/>
			<v:textRect cx="27" cy="441.828" width="54" height="29.4075"/>
			<rect x="0" y="427.124" width="54" height="29.4075" class="st5"/>
			<text x="22.94" y="439.43" class="st7" v:langID="1033"><v:paragraph v:horizAlign="1"/><v:tabList/>To <tspan x="7.06"
						dy="1.2em" class="st10">NetAnalyzer</tspan></text>		</g>
		<g id="shape74-477" v:mID="74" v:groupContext="shape" transform="translate(135.36,-84.359)">
			<title>Sheet.74</title>
			<desc>RX</desc>
			<v:textBlock v:margins="rect(4,4,4,4)"/>
			<v:textRect cx="11.25" cy="449.782" width="22.5" height="13.5"/>
			<rect x="0" y="443.032" width="22.5" height="13.5" class="st5"/>
			<text x="5.94" y="452.78" class="st6" v:langID="1033"><v:paragraph v:horizAlign="1"/><v:tabList/>RX</text>		</g>
		<g id="shape122-480" v:mID="122" v:groupContext="shape" transform="translate(175.86,-84.359)">
			<title>Sheet.122</title>
			<desc>TX</desc>
			<v:textBlock v:margins="rect(4,4,4,4)"/>
			<v:textRect cx="11.25" cy="449.782" width="22.5" height="13.5"/>
			<rect x="0" y="443.032" width="22.5" height="13.5" class="st5"/>
			<text x="6.22" y="452.78" class="st6" v:langID="1033"><v:paragraph v:horizAlign="1"/><v:tabList/>TX</text>		</g>
		<g id="shape1-483" v:mID="1" v:groupContext="shape" transform="translate(135.36,-412.859)">
			<title>Sheet.1</title>
			<desc>A</desc>
			<v:textBlock v:margins="rect(4,4,4,4)"/>
			<v:textRect cx="9" cy="449.782" width="18" height="13.5"/>
			<rect x="0" y="443.032" width="18" height="13.5" class="st5"/>
			<text x="6.11" y="452.78" class="st6" v:langID="1033"><v:paragraph v:horizAlign="1"/><v:tabList/>A</text>		</g>
		<g id="shape123-486" v:mID="123" v:groupContext="shape" transform="translate(135.36,-358.859)">
			<title>Sheet.123</title>
			<desc>B</desc>
			<v:textBlock v:margins="rect(4,4,4,4)"/>
			<v:textRect cx="9" cy="449.782" width="18" height="13.5"/>
			<rect x="0" y="443.032" width="18" height="13.5" class="st5"/>
			<text x="6.28" y="452.78" class="st6" v:langID="1033"><v:paragraph v:horizAlign="1"/><v:tabList/>B</text>		</g>
		<g id="shape41-489" v:mID="41" v:groupContext="shape" transform="translate(135.36,-331.859)">
			<title>Sheet.41</title>
			<desc>D</desc>
			<v:textBlock v:margins="rect(4,4,4,4)"/>
			<v:textRect cx="9" cy="449.782" width="18" height="13.5"/>
			<rect x="0" y="443.032" width="18" height="13.5" class="st5"/>
			<text x="5.92" y="452.78" class="st6" v:langID="1033"><v:paragraph v:horizAlign="1"/><v:tabList/>D</text>		</g>
		<g id="shape162-492" v:mID="162" v:groupContext="shape" transform="translate(135.36,-277.859)">
			<title>Sheet.162</title>
			<desc>E</desc>
			<v:textBlock v:margins="rect(4,4,4,4)"/>
			<v:textRect cx="9" cy="449.782" width="18" height="13.5"/>
			<rect x="0" y="443.032" width="18" height="13.5" class="st5"/>
			<text x="6.56" y="452.78" class="st6" v:langID="1033"><v:paragraph v:horizAlign="1"/><v:tabList/>E</text>		</g>
		<g id="shape163-495" v:mID="163" v:groupContext="shape" transform="translate(135.36,-149.609)">
			<title>Sheet.163</title>
			<desc>A</desc>
			<v:textBlock v:margins="rect(4,4,4,4)"/>
			<v:textRect cx="9" cy="448.657" width="18" height="15.75"/>
			<rect x="0" y="440.782" width="18" height="15.75" class="st5"/>
			<text x="6.11" y="451.66" class="st6" v:langID="1033"><v:paragraph v:horizAlign="1"/><v:tabList/>A</text>		</g>
		<g id="shape184-498" v:mID="184" v:groupContext="shape" transform="translate(135.36,-95.609)">
			<title>Sheet.184</title>
			<desc>B</desc>
			<v:textBlock v:margins="rect(4,4,4,4)"/>
			<v:textRect cx="9" cy="447.532" width="18" height="18"/>
			<rect x="0" y="438.532" width="18" height="18" class="st5"/>
			<text x="6.28" y="450.53" class="st6" v:langID="1033"><v:paragraph v:horizAlign="1"/><v:tabList/>B</text>		</g>
		<g id="shape186-501" v:mID="186" v:groupContext="shape" transform="translate(135.36,-68.609)">
			<title>Sheet.186</title>
			<desc>D</desc>
			<v:textBlock v:margins="rect(4,4,4,4)"/>
			<v:textRect cx="9" cy="448.657" width="18" height="15.75"/>
			<rect x="0" y="440.782" width="18" height="15.75" class="st5"/>
			<text x="5.92" y="451.66" class="st6" v:langID="1033"><v:paragraph v:horizAlign="1"/><v:tabList/>D</text>		</g>
		<g id="shape187-504" v:mID="187" v:groupContext="shape" transform="translate(135.36,-14.609)">
			<title>Sheet.187</title>
			<desc>E</desc>
			<v:textBlock v:margins="rect(4,4,4,4)"/>
			<v:textRect cx="9" cy="447.532" width="18" height="18"/>
			<rect x="0" y="438.532" width="18" height="18" class="st5"/>
			<text x="6.56" y="450.53" class="st6" v:langID="1033"><v:paragraph v:horizAlign="1"/><v:tabList/>E</text>		</g>
		<g id="shape130-507" v:mID="130" v:groupContext="shape" transform="translate(260.235,-84.359)">
			<title>Sheet.130</title>
			<desc>RX</desc>
			<v:textBlock v:margins="rect(4,4,4,4)"/>
			<v:textRect cx="13.5" cy="449.782" width="27" height="13.5"/>
			<rect x="0" y="443.032" width="27" height="13.5" class="st5"/>
			<text x="8.19" y="452.78" class="st6" v:langID="1033"><v:paragraph v:horizAlign="1"/><v:tabList/>RX</text>		</g>
		<g id="shape192-510" v:mID="192" v:groupContext="shape" transform="translate(298.485,-84.359)">
			<title>Sheet.192</title>
			<desc>TX</desc>
			<v:textBlock v:margins="rect(4,4,4,4)"/>
			<v:textRect cx="13.5" cy="449.782" width="27" height="13.5"/>
			<rect x="0" y="443.032" width="27" height="13.5" class="st5"/>
			<text x="8.47" y="452.78" class="st6" v:langID="1033"><v:paragraph v:horizAlign="1"/><v:tabList/>TX</text>		</g>
		<g id="shape193-513" v:mID="193" v:groupContext="shape" transform="translate(261.923,-345.359)">
			<title>Sheet.193</title>
			<desc>RX</desc>
			<v:textBlock v:margins="rect(4,4,4,4)"/>
			<v:textRect cx="11.25" cy="449.782" width="22.5" height="13.5"/>
			<rect x="0" y="443.032" width="22.5" height="13.5" class="st5"/>
			<text x="5.94" y="452.78" class="st6" v:langID="1033"><v:paragraph v:horizAlign="1"/><v:tabList/>RX</text>		</g>
		<g id="shape194-516" v:mID="194" v:groupContext="shape" transform="translate(301.298,-345.359)">
			<title>Sheet.194</title>
			<desc>TX</desc>
			<v:textBlock v:margins="rect(4,4,4,4)"/>
			<v:textRect cx="11.25" cy="449.782" width="22.5" height="13.5"/>
			<rect x="0" y="443.032" width="22.5" height="13.5" class="st5"/>
			<text x="6.22" y="452.78" class="st6" v:langID="1033"><v:paragraph v:horizAlign="1"/><v:tabList/>TX</text>		</g>
		<g id="shape195-519" v:mID="195" v:groupContext="shape" transform="translate(197.797,-352.109)">
			<title>Sheet.195</title>
			<path d="M0 456.53 L11.25 456.53" class="st1"/>
		</g>
		<g id="shape196-522" v:mID="196" v:groupContext="shape" transform="translate(252.36,-352.109)">
			<title>Sheet.196</title>
			<path d="M0 456.53 L11.25 456.53" class="st1"/>
		</g>
		<g id="shape197-525" v:mID="197" v:groupContext="shape" transform="translate(197.797,-91.109)">
			<title>Sheet.197</title>
			<path d="M0 456.53 L11.25 456.53" class="st1"/>
		</g>
		<g id="shape198-528" v:mID="198" v:groupContext="shape" transform="translate(252.36,-91.109)">
			<title>Sheet.198</title>
			<path d="M0 456.53 L11.25 456.53" class="st1"/>
		</g>
		<g id="group220-531" transform="translate(735.667,93.1725) rotate(90)" v:mID="220" v:groupContext="group" v:layerMember="0">
			<v:custProps>
				<v:cp v:nameU="Label" v:lbl="Label" v:type="0" v:format="@" v:sortKey="" v:invis="false" v:ask="false"
						v:langID="1033" v:val="VT4()"/>
				<v:cp v:nameU="Slider_Position" v:lbl="Slider position (0-1)" v:type="2" v:langID="1033" v:val="VT0(0.5):26"/>
			</v:custProps>
			<v:userDefs>
				<v:ud v:nameU="Form" v:val="VT0(1):5"/>
				<v:ud v:nameU="SubType" v:val="VT0(0):26"/>
				<v:ud v:nameU="visDescription" v:val="VT4(Represents a fixed or variable resistor.)"/>
				<v:ud v:nameU="visVersion" v:val="VT0(15):26"/>
			</v:userDefs>
			<title>Resistor.220</title>
			<g id="shape221-532" v:mID="221" v:groupContext="shape" v:layerMember="0">
				<title>Sheet.221</title>
				<v:userDefs>
					<v:ud v:nameU="SubType" v:val="VT0(0):26"/>
					<v:ud v:nameU="Form" v:val="VT0(1):5"/>
				</v:userDefs>
				<path d="M0 452.26 L1.78 447.98 L5.34 456.53 L8.91 447.98 L12.47 456.53 L16.03 447.98 L19.59 456.53 L21.37 452.26"
						class="st14"/>
			</g>
			<g id="shape222-535" v:mID="222" v:groupContext="shape" v:layerMember="0"
					transform="translate(-320.744,138.962) rotate(-45)">
				<title>Sheet.222</title>
				<v:userDefs>
					<v:ud v:nameU="SubType" v:val="VT0(0):26"/>
				</v:userDefs>
			</g>
		</g>
		<g id="group223-537" transform="translate(627.892,93.735) rotate(90)" v:mID="223" v:groupContext="group" v:layerMember="0">
			<v:custProps>
				<v:cp v:nameU="Label" v:lbl="Label" v:type="0" v:format="@" v:sortKey="" v:invis="false" v:ask="false"
						v:langID="1033" v:val="VT4()"/>
				<v:cp v:nameU="Slider_Position" v:lbl="Slider position (0-1)" v:type="2" v:langID="1033" v:val="VT0(0.5):26"/>
			</v:custProps>
			<v:userDefs>
				<v:ud v:nameU="Form" v:val="VT0(1):5"/>
				<v:ud v:nameU="SubType" v:val="VT0(0):26"/>
				<v:ud v:nameU="visDescription" v:val="VT4(Represents a fixed or variable resistor.)"/>
				<v:ud v:nameU="visVersion" v:val="VT0(15):26"/>
			</v:userDefs>
			<title>Resistor.223</title>
			<g id="shape224-538" v:mID="224" v:groupContext="shape" v:layerMember="0">
				<title>Sheet.224</title>
				<v:userDefs>
					<v:ud v:nameU="SubType" v:val="VT0(0):26"/>
					<v:ud v:nameU="Form" v:val="VT0(1):5"/>
				</v:userDefs>
				<path d="M0 452.26 L1.78 447.98 L5.34 456.53 L8.91 447.98 L12.47 456.53 L16.03 447.98 L19.59 456.53 L21.37 452.26"
						class="st14"/>
			</g>
			<g id="shape225-541" v:mID="225" v:groupContext="shape" v:layerMember="0"
					transform="translate(-320.744,138.962) rotate(-45)">
				<title>Sheet.225</title>
				<v:userDefs>
					<v:ud v:nameU="SubType" v:val="VT0(0):26"/>
				</v:userDefs>
			</g>
		</g>
		<g id="group226-543" transform="translate(612.142,93.1725) rotate(90)" v:mID="226" v:groupContext="group" v:layerMember="0">
			<v:custProps>
				<v:cp v:nameU="Label" v:lbl="Label" v:type="0" v:format="@" v:sortKey="" v:invis="false" v:ask="false"
						v:langID="1033" v:val="VT4()"/>
				<v:cp v:nameU="Slider_Position" v:lbl="Slider position (0-1)" v:type="2" v:langID="1033" v:val="VT0(0.5):26"/>
			</v:custProps>
			<v:userDefs>
				<v:ud v:nameU="Form" v:val="VT0(1):5"/>
				<v:ud v:nameU="SubType" v:val="VT0(0):26"/>
				<v:ud v:nameU="visDescription" v:val="VT4(Represents a fixed or variable resistor.)"/>
				<v:ud v:nameU="visVersion" v:val="VT0(15):26"/>
			</v:userDefs>
			<title>Resistor.226</title>
			<g id="shape227-544" v:mID="227" v:groupContext="shape" v:layerMember="0">
				<title>Sheet.227</title>
				<v:userDefs>
					<v:ud v:nameU="SubType" v:val="VT0(0):26"/>
					<v:ud v:nameU="Form" v:val="VT0(1):5"/>
				</v:userDefs>
				<path d="M0 452.26 L1.78 447.98 L5.34 456.53 L8.91 447.98 L12.47 456.53 L16.03 447.98 L19.59 456.53 L21.37 452.26"
						class="st14"/>
			</g>
			<g id="shape228-547" v:mID="228" v:groupContext="shape" v:layerMember="0"
					transform="translate(-320.744,138.962) rotate(-45)">
				<title>Sheet.228</title>
				<v:userDefs>
					<v:ud v:nameU="SubType" v:val="VT0(0):26"/>
				</v:userDefs>
			</g>
		</g>
		<g id="group232-549" transform="translate(753.892,93.1725) rotate(90)" v:mID="232" v:groupContext="group" v:layerMember="0">
			<v:custProps>
				<v:cp v:nameU="Label" v:lbl="Label" v:type="0" v:format="@" v:sortKey="" v:invis="false" v:ask="false"
						v:langID="1033" v:val="VT4()"/>
				<v:cp v:nameU="Slider_Position" v:lbl="Slider position (0-1)" v:type="2" v:langID="1033" v:val="VT0(0.5):26"/>
			</v:custProps>
			<v:userDefs>
				<v:ud v:nameU="Form" v:val="VT0(1):5"/>
				<v:ud v:nameU="SubType" v:val="VT0(0):26"/>
				<v:ud v:nameU="visDescription" v:val="VT4(Represents a fixed or variable resistor.)"/>
				<v:ud v:nameU="visVersion" v:val="VT0(15):26"/>
			</v:userDefs>
			<title>Resistor.232</title>
			<g id="shape233-550" v:mID="233" v:groupContext="shape" v:layerMember="0">
				<title>Sheet.233</title>
				<v:userDefs>
					<v:ud v:nameU="SubType" v:val="VT0(0):26"/>
					<v:ud v:nameU="Form" v:val="VT0(1):5"/>
				</v:userDefs>
				<path d="M0 452.26 L1.78 447.98 L5.34 456.53 L8.91 447.98 L12.47 456.53 L16.03 447.98 L19.59 456.53 L21.37 452.26"
						class="st14"/>
			</g>
			<g id="shape234-553" v:mID="234" v:groupContext="shape" v:layerMember="0"
					transform="translate(-320.744,138.962) rotate(-45)">
				<title>Sheet.234</title>
				<v:userDefs>
					<v:ud v:nameU="SubType" v:val="VT0(0):26"/>
				</v:userDefs>
			</g>
		</g>
		<g id="group235-555" transform="translate(736.342,354.735) rotate(90)" v:mID="235" v:groupContext="group" v:layerMember="0">
			<v:custProps>
				<v:cp v:nameU="Label" v:lbl="Label" v:type="0" v:format="@" v:sortKey="" v:invis="false" v:ask="false"
						v:langID="1033" v:val="VT4()"/>
				<v:cp v:nameU="Slider_Position" v:lbl="Slider position (0-1)" v:type="2" v:langID="1033" v:val="VT0(0.5):26"/>
			</v:custProps>
			<v:userDefs>
				<v:ud v:nameU="Form" v:val="VT0(1):5"/>
				<v:ud v:nameU="SubType" v:val="VT0(0):26"/>
				<v:ud v:nameU="visDescription" v:val="VT4(Represents a fixed or variable resistor.)"/>
				<v:ud v:nameU="visVersion" v:val="VT0(15):26"/>
			</v:userDefs>
			<title>Resistor.235</title>
			<g id="shape236-556" v:mID="236" v:groupContext="shape" v:layerMember="0">
				<title>Sheet.236</title>
				<v:userDefs>
					<v:ud v:nameU="SubType" v:val="VT0(0):26"/>
					<v:ud v:nameU="Form" v:val="VT0(1):5"/>
				</v:userDefs>
				<path d="M0 452.26 L1.78 447.98 L5.34 456.53 L8.91 447.98 L12.47 456.53 L16.03 447.98 L19.59 456.53 L21.37 452.26"
						class="st14"/>
			</g>
			<g id="shape237-559" v:mID="237" v:groupContext="shape" v:layerMember="0"
					transform="translate(-320.744,138.962) rotate(-45)">
				<title>Sheet.237</title>
				<v:userDefs>
					<v:ud v:nameU="SubType" v:val="VT0(0):26"/>
				</v:userDefs>
			</g>
		</g>
		<g id="group238-561" transform="translate(754.342,354.735) rotate(90)" v:mID="238" v:groupContext="group" v:layerMember="0">
			<v:custProps>
				<v:cp v:nameU="Label" v:lbl="Label" v:type="0" v:format="@" v:sortKey="" v:invis="false" v:ask="false"
						v:langID="1033" v:val="VT4()"/>
				<v:cp v:nameU="Slider_Position" v:lbl="Slider position (0-1)" v:type="2" v:langID="1033" v:val="VT0(0.5):26"/>
			</v:custProps>
			<v:userDefs>
				<v:ud v:nameU="Form" v:val="VT0(1):5"/>
				<v:ud v:nameU="SubType" v:val="VT0(0):26"/>
				<v:ud v:nameU="visDescription" v:val="VT4(Represents a fixed or variable resistor.)"/>
				<v:ud v:nameU="visVersion" v:val="VT0(15):26"/>
			</v:userDefs>
			<title>Resistor.238</title>
			<g id="shape239-562" v:mID="239" v:groupContext="shape" v:layerMember="0">
				<title>Sheet.239</title>
				<v:userDefs>
					<v:ud v:nameU="SubType" v:val="VT0(0):26"/>
					<v:ud v:nameU="Form" v:val="VT0(1):5"/>
				</v:userDefs>
				<path d="M0 452.26 L1.78 447.98 L5.34 456.53 L8.91 447.98 L12.47 456.53 L16.03 447.98 L19.59 456.53 L21.37 452.26"
						class="st14"/>
			</g>
			<g id="shape240-565" v:mID="240" v:groupContext="shape" v:layerMember="0"
					transform="translate(-320.744,138.962) rotate(-45)">
				<title>Sheet.240</title>
				<v:userDefs>
					<v:ud v:nameU="SubType" v:val="VT0(0):26"/>
				</v:userDefs>
			</g>
		</g>
		<g id="group241-567" transform="translate(610.342,354.173) rotate(90)" v:mID="241" v:groupContext="group" v:layerMember="0">
			<v:custProps>
				<v:cp v:nameU="Label" v:lbl="Label" v:type="0" v:format="@" v:sortKey="" v:invis="false" v:ask="false"
						v:langID="1033" v:val="VT4()"/>
				<v:cp v:nameU="Slider_Position" v:lbl="Slider position (0-1)" v:type="2" v:langID="1033" v:val="VT0(0.5):26"/>
			</v:custProps>
			<v:userDefs>
				<v:ud v:nameU="Form" v:val="VT0(1):5"/>
				<v:ud v:nameU="SubType" v:val="VT0(0):26"/>
				<v:ud v:nameU="visDescription" v:val="VT4(Represents a fixed or variable resistor.)"/>
				<v:ud v:nameU="visVersion" v:val="VT0(15):26"/>
			</v:userDefs>
			<title>Resistor.241</title>
			<g id="shape242-568" v:mID="242" v:groupContext="shape" v:layerMember="0">
				<title>Sheet.242</title>
				<v:userDefs>
					<v:ud v:nameU="SubType" v:val="VT0(0):26"/>
					<v:ud v:nameU="Form" v:val="VT0(1):5"/>
				</v:userDefs>
				<path d="M0 452.26 L1.78 447.98 L5.34 456.53 L8.91 447.98 L12.47 456.53 L16.03 447.98 L19.59 456.53 L21.37 452.26"
						class="st14"/>
			</g>
			<g id="shape243-571" v:mID="243" v:groupContext="shape" v:layerMember="0"
					transform="translate(-320.744,138.962) rotate(-45)">
				<title>Sheet.243</title>
				<v:userDefs>
					<v:ud v:nameU="SubType" v:val="VT0(0):26"/>
				</v:userDefs>
			</g>
		</g>
		<g id="group244-573" transform="translate(628.342,354.173) rotate(90)" v:mID="244" v:groupContext="group" v:layerMember="0">
			<v:custProps>
				<v:cp v:nameU="Label" v:lbl="Label" v:type="0" v:format="@" v:sortKey="" v:invis="false" v:ask="false"
						v:langID="1033" v:val="VT4()"/>
				<v:cp v:nameU="Slider_Position" v:lbl="Slider position (0-1)" v:type="2" v:langID="1033" v:val="VT0(0.5):26"/>
			</v:custProps>
			<v:userDefs>
				<v:ud v:nameU="Form" v:val="VT0(1):5"/>
				<v:ud v:nameU="SubType" v:val="VT0(0):26"/>
				<v:ud v:nameU="visDescription" v:val="VT4(Represents a fixed or variable resistor.)"/>
				<v:ud v:nameU="visVersion" v:val="VT0(15):26"/>
			</v:userDefs>
			<title>Resistor.244</title>
			<g id="shape245-574" v:mID="245" v:groupContext="shape" v:layerMember="0">
				<title>Sheet.245</title>
				<v:userDefs>
					<v:ud v:nameU="SubType" v:val="VT0(0):26"/>
					<v:ud v:nameU="Form" v:val="VT0(1):5"/>
				</v:userDefs>
				<path d="M0 452.26 L1.78 447.98 L5.34 456.53 L8.91 447.98 L12.47 456.53 L16.03 447.98 L19.59 456.53 L21.37 452.26"
						class="st14"/>
			</g>
			<g id="shape246-577" v:mID="246" v:groupContext="shape" v:layerMember="0"
					transform="translate(-320.744,138.962) rotate(-45)">
				<title>Sheet.246</title>
				<v:userDefs>
					<v:ud v:nameU="SubType" v:val="VT0(0):26"/>
				</v:userDefs>
			</g>
		</g>
		<g id="shape248-579" v:mID="248" v:groupContext="shape" transform="translate(302.985,-331.859)">
			<title>Sheet.248</title>
			<path d="M61.87 359.22 L30.94 456.53 L5.52 456.53" class="st12"/>
		</g>
		<g id="shape249-584" v:mID="249" v:groupContext="shape" transform="translate(360.36,-349.859)">
			<title>Sheet.249</title>
			<desc>Resistors are 120 ohms</desc>
			<v:textBlock v:margins="rect(4,4,4,4)"/>
			<v:textRect cx="40.5" cy="447.532" width="81" height="18"/>
			<rect x="0" y="438.532" width="81" height="18" class="st5"/>
			<text x="5.74" y="444.53" class="st6" v:langID="1033"><v:paragraph v:horizAlign="1"/><v:tabList/>Resistors are 120 <tspan
						x="29.29" dy="1.2em" class="st10">ohms</tspan></text>		</g>
		<g id="shape250-588" v:mID="250" v:groupContext="shape" transform="translate(367.11,554.204) rotate(180)">
			<title>Sheet.250</title>
			<path d="M0 456.53 L55.68 456.53" class="st12"/>
		</g>
	</g>
</svg>
