<?xml version="1.0" encoding="UTF-8" standalone="no"?>
<!DOCTYPE svg PUBLIC "-//W3C//DTD SVG 1.1//EN" "http://www.w3.org/Graphics/SVG/1.1/DTD/svg11.dtd">
<!-- Generated by Microsoft Visio, SVG Export SNMP_Config-v1.svg Page-1 -->
<svg xmlns="http://www.w3.org/2000/svg" xmlns:xlink="http://www.w3.org/1999/xlink" xmlns:ev="http://www.w3.org/2001/xml-events"
		xmlns:v="http://schemas.microsoft.com/visio/2003/SVGExtensions/" width="9.42929in" height="7.37in"
		viewBox="0 0 678.909 530.64" xml:space="preserve" color-interpolation-filters="sRGB" class="st40">
	<v:documentProperties v:langID="1033" v:viewMarkup="false">
		<v:userDefs>
			<v:ud v:nameU="msvConvertTheme"/>
		</v:userDefs>
	</v:documentProperties>

	<style type="text/css">
	<![CDATA[
		.st1 {fill:#ffffff;stroke:#000000;stroke-linecap:round;stroke-linejoin:round;stroke-width:1.2}
		.st2 {fill:none;stroke:none;stroke-linecap:round;stroke-linejoin:round;stroke-width:0.72}
		.st3 {fill:#000000;font-family:Arial;font-size:1.00001em;font-style:italic;font-weight:bold}
		.st4 {fill:#000000;font-family:Arial;font-size:0.833336em;font-style:italic;font-weight:bold}
		.st5 {font-size:1em}
		.st6 {fill:#facca7;stroke:#000000;stroke-linecap:round;stroke-linejoin:round;stroke-width:0.72}
		.st7 {fill:#000000;font-family:Arial;font-size:0.833336em}
		.st8 {fill:#dbeef3;stroke:#000000;stroke-linecap:round;stroke-linejoin:round;stroke-width:1.2}
		.st9 {fill:#000000;font-family:Arial;font-size:0.833336em;font-weight:bold}
		.st10 {fill:#d7e3bf;stroke:#000000;stroke-linecap:round;stroke-linejoin:round;stroke-width:0.72}
		.st11 {fill:#000000;font-family:Arial;font-size:0.666664em}
		.st12 {fill:#bababa}
		.st13 {stroke:#000000;stroke-linecap:butt;stroke-width:1.25}
		.st14 {fill:#000000;font-family:Calibri;font-size:0.499992em}
		.st15 {fill:#b7dde8;stroke:#000000;stroke-linecap:round;stroke-linejoin:round;stroke-width:0.72}
		.st16 {fill:#b7dde8;stroke:none;stroke-linecap:round;stroke-linejoin:round;stroke-width:0.72}
		.st17 {fill:#bababa;stroke:#000000;stroke-linecap:butt;stroke-width:1.25}
		.st18 {fill:#000000;font-family:Calibri;font-size:0.666664em}
		.st19 {fill:#ffffff;stroke:#000000;stroke-linecap:round;stroke-linejoin:round;stroke-width:0.75}
		.st20 {fill:#000000;font-family:Arial;font-size:1.33333em;font-style:italic}
		.st21 {fill:#dde2cd;stroke:none;stroke-linecap:round;stroke-linejoin:round;stroke-width:0.24}
		.st22 {stroke:#000000;stroke-linecap:round;stroke-linejoin:round;stroke-width:1}
		.st23 {fill:#000000;font-family:Arial;font-size:1.00001em;font-weight:bold}
		.st24 {fill:#000000;font-family:Arial;font-size:1.00001em}
		.st25 {fill:#bfbfbf;stroke:#000000;stroke-linecap:round;stroke-linejoin:round;stroke-width:0.24}
		.st26 {fill:#000000;font-family:Arial;font-size:0.75em}
		.st27 {marker-end:url(#mrkr4-123);marker-start:url(#mrkr4-121);stroke:#000000;stroke-linecap:round;stroke-linejoin:round;stroke-width:1}
		.st28 {fill:#000000;fill-opacity:1;stroke:#000000;stroke-opacity:1;stroke-width:0.28409090909091}
		.st29 {marker-end:url(#mrkr4-123);stroke:#000000;stroke-linecap:round;stroke-linejoin:round;stroke-width:1}
		.st30 {fill:#ffffff;stroke:#000000;stroke-linecap:round;stroke-linejoin:round;stroke-width:0.72}
		.st31 {fill:#000000}
		.st32 {marker-start:url(#mrkr13-157);stroke:#000000;stroke-linecap:round;stroke-linejoin:round;stroke-width:1}
		.st33 {fill:none;marker-start:url(#mrkr13-170);stroke:none;stroke-linecap:round;stroke-linejoin:round;stroke-width:0.72}
		.st34 {fill:#000000;fill-opacity:1;stroke:#000000;stroke-opacity:1;stroke-width:0.22222222222222}
		.st35 {fill:#000000;font-family:Arial;font-size:0.666664em;font-style:italic}
		.st36 {font-size:1em;font-style:normal}
		.st37 {marker-start:url(#mrkr4-121);stroke:#000000;stroke-linecap:round;stroke-linejoin:round;stroke-width:1}
		.st38 {marker-end:url(#mrkr4-209);stroke:#0f233e;stroke-linecap:round;stroke-linejoin:round;stroke-width:1}
		.st39 {fill:#0f233e;fill-opacity:1;stroke:#0f233e;stroke-opacity:1;stroke-width:0.28409090909091}
		.st40 {fill:none;fill-rule:evenodd;font-size:12px;overflow:visible;stroke-linecap:square;stroke-miterlimit:3}
	]]>
	</style>

	<defs id="Markers">
		<g id="lend4">
			<path d="M 2 1 L 0 0 L 2 -1 L 2 1 " style="stroke:none"/>
		</g>
		<marker id="mrkr4-121" class="st28" v:arrowType="4" v:arrowSize="2" v:setback="6.68" refX="6.68" orient="auto"
				markerUnits="strokeWidth" overflow="visible">
			<use xlink:href="#lend4" transform="scale(3.52) "/>
		</marker>
		<marker id="mrkr4-123" class="st28" v:arrowType="4" v:arrowSize="2" v:setback="7.04" refX="-7.04" orient="auto"
				markerUnits="strokeWidth" overflow="visible">
			<use xlink:href="#lend4" transform="scale(-3.52,-3.52) "/>
		</marker>
		<g id="lend13">
			<path d="M 3 1 L 0 0 L 3 -1 L 3 1 " style="stroke:none"/>
		</g>
		<marker id="mrkr13-157" class="st28" v:arrowType="13" v:arrowSize="2" v:setback="10.2" refX="10.2" orient="auto"
				markerUnits="strokeWidth" overflow="visible">
			<use xlink:href="#lend13" transform="scale(3.52) "/>
		</marker>
		<marker id="mrkr13-170" class="st34" v:arrowType="13" v:arrowSize="2" v:setback="13.5" refX="13.5" orient="auto"
				markerUnits="strokeWidth" overflow="visible">
			<use xlink:href="#lend13" transform="scale(4.5) "/>
		</marker>
		<marker id="mrkr4-209" class="st39" v:arrowType="4" v:arrowSize="2" v:setback="7.04" refX="-7.04" orient="auto"
				markerUnits="strokeWidth" overflow="visible">
			<use xlink:href="#lend4" transform="scale(-3.52,-3.52) "/>
		</marker>
	</defs>
	<g v:mID="0" v:index="1" v:groupContext="foregroundPage">
		<title>Page-1</title>
		<v:pageProperties v:drawingScale="1" v:pageScale="1" v:drawingUnits="0" v:shadowOffsetX="9" v:shadowOffsetY="-9"/>
		<v:layer v:name="Network" v:index="0"/>
		<v:layer v:name="Connector" v:index="1"/>
		<g id="shape1-1" v:mID="1" v:groupContext="shape" transform="translate(56.4536,-384.054)">
			<title>Rectangle</title>
			<v:userDefs>
				<v:ud v:nameU="visVersion" v:val="VT0(12):26"/>
			</v:userDefs>
			<rect x="0" y="433.003" width="144" height="97.6366" class="st1"/>
		</g>
		<g id="shape2-3" v:mID="2" v:groupContext="shape" transform="translate(86.5527,-461.4)">
			<title>Sheet.2</title>
			<desc>NetAnalyzer</desc>
			<v:textBlock v:margins="rect(4,4,4,4)"/>
			<v:textRect cx="41.9009" cy="523.42" width="83.81" height="14.44"/>
			<rect x="0" y="516.2" width="83.8018" height="14.44" class="st2"/>
			<text x="7.22" y="527.02" class="st3" v:langID="1033"><v:paragraph v:horizAlign="1"/><v:tabList/>NetAnalyzer</text>		</g>
		<g id="shape6-6" v:mID="6" v:groupContext="shape" transform="translate(531.654,-133.076)">
			<title>Rectangle.6</title>
			<v:userDefs>
				<v:ud v:nameU="visVersion" v:val="VT0(12):26"/>
			</v:userDefs>
			<rect x="0" y="474.195" width="142.658" height="56.4449" class="st1"/>
		</g>
		<g id="shape7-8" v:mID="7" v:groupContext="shape" transform="translate(553.023,-170.602)">
			<title>Sheet.7</title>
			<desc>NetAggregator Server</desc>
			<v:textBlock v:margins="rect(4,4,4,4)"/>
			<v:textRect cx="50.0826" cy="525.981" width="100.17" height="9.31888"/>
			<rect x="0" y="521.321" width="100.165" height="9.31888" class="st2"/>
			<text x="15.08" y="522.98" class="st4" v:langID="1033"><v:paragraph v:horizAlign="1"/><v:tabList/>NetAggregator <v:newlineChar/><tspan
						x="34.51" dy="1.2em" class="st5">Server</tspan></text>		</g>
		<g id="group56-12" transform="translate(542.624,-141.832)" v:mID="56" v:groupContext="group">
			<title>Sheet.56</title>
			<g id="shape23-13" v:mID="23" v:groupContext="shape" transform="translate(531.013,515.908) rotate(90)">
				<title>Rounded rectangle</title>
				<v:userDefs>
					<v:ud v:nameU="WatchCH1" v:val="VT0(0.125):0"/>
					<v:ud v:nameU="MaxRoundess" v:val="VT0(0.375):1"/>
					<v:ud v:nameU="visVersion" v:val="VT0(12):26"/>
					<v:ud v:nameU="WatchCH1" v:prompt="" v:val="VT0(0.10230209891319):1"/>
					<v:ud v:nameU="MaxRoundess" v:prompt="" v:val="VT0(0.10230209891319):1"/>
				</v:userDefs>
				<path d="M0 523.27 L0 457.07 A7.36575 7.36575 0 0 1 14.73 457.07 L14.73 523.27 A7.36575 7.36575 0 1 1 0 523.27 Z"
						class="st6"/>
			</g>
			<g id="shape32-15" v:mID="32" v:groupContext="shape" transform="translate(16.3583,-4.64344)">
				<title>Sheet.32</title>
				<desc>UDH</desc>
				<v:textBlock v:margins="rect(4,4,4,4)"/>
				<v:textRect cx="24.48" cy="527.918" width="48.96" height="5.44463"/>
				<rect x="0" y="525.195" width="48.96" height="5.44463" class="st2"/>
				<text x="13.65" y="530.92" class="st7" v:langID="1033"><v:paragraph v:horizAlign="1"/><v:tabList/>UDH</text>			</g>
		</g>
		<g id="shape61-18" v:mID="61" v:groupContext="shape" transform="translate(246.809,-187.8)">
			<title>Rectangle.61</title>
			<v:userDefs>
				<v:ud v:nameU="visVersion" v:val="VT0(12):26"/>
			</v:userDefs>
			<rect x="0" y="386.64" width="166.044" height="144" class="st8"/>
		</g>
		<g id="shape62-20" v:mID="62" v:groupContext="shape" transform="translate(329.741,-305.504)">
			<title>Sheet.62</title>
			<desc>NetQuest UI</desc>
			<v:textBlock v:margins="rect(4,4,4,4)"/>
			<v:textRect cx="38.36" cy="523.42" width="76.73" height="14.44"/>
			<rect x="0" y="516.2" width="76.72" height="14.44" class="st2"/>
			<text x="4.02" y="527.02" class="st3" v:langID="1033"><v:paragraph v:horizAlign="1"/><v:tabList/>NetQuest UI</text>		</g>
		<g id="shape63-23" v:mID="63" v:groupContext="shape" transform="translate(245.169,-358.884)">
			<title>Rectangle.63</title>
			<v:userDefs>
				<v:ud v:nameU="visVersion" v:val="VT0(12):26"/>
			</v:userDefs>
			<rect x="0" y="406.524" width="164.084" height="124.116" class="st1"/>
		</g>
		<g id="shape64-25" v:mID="64" v:groupContext="shape" transform="translate(284.235,-467.945)">
			<title>Sheet.64</title>
			<desc>NetDecode</desc>
			<v:textBlock v:margins="rect(4,4,4,4)"/>
			<v:textRect cx="36" cy="524.981" width="72" height="11.3178"/>
			<rect x="0" y="519.322" width="72" height="11.3178" class="st2"/>
			<text x="4.66" y="528.58" class="st3" v:langID="1033"><v:paragraph v:horizAlign="1"/><v:tabList/>NetDecode</text>		</g>
		<g id="shape65-28" v:mID="65" v:groupContext="shape" transform="translate(250.854,-33.1871)">
			<title>Rectangle.65</title>
			<v:userDefs>
				<v:ud v:nameU="visVersion" v:val="VT0(12):26"/>
			</v:userDefs>
			<rect x="0" y="440.827" width="136.8" height="89.8129" class="st1"/>
		</g>
		<g id="group66-30" transform="translate(532.809,-64.0577)" v:mID="66" v:groupContext="group">
			<title>Sheet.66</title>
			<g id="shape67-31" v:mID="67" v:groupContext="shape">
				<title>Rectangle.6</title>
				<v:userDefs>
					<v:ud v:nameU="visVersion" v:val="VT0(12):26"/>
				</v:userDefs>
				<rect x="0" y="475.338" width="142.369" height="55.3015" class="st1"/>
			</g>
			<g id="shape68-33" v:mID="68" v:groupContext="shape" transform="translate(21.1987,-36.7655)">
				<title>Sheet.68</title>
				<desc>NetForecasting Server</desc>
				<v:textBlock v:margins="rect(4,4,4,4)"/>
				<v:textRect cx="49.6817" cy="527.745" width="99.37" height="5.79011"/>
				<rect x="0" y="524.85" width="99.3634" height="5.79011" class="st2"/>
				<text x="13.29" y="524.74" class="st4" v:langID="1033"><v:paragraph v:horizAlign="1"/><v:tabList/>NetForecasting <v:newlineChar/><tspan
							x="34.11" dy="1.2em" class="st5">Server</tspan></text>			</g>
		</g>
		<g id="shape72-37" v:mID="72" v:groupContext="shape" transform="translate(273.515,-76.4004)">
			<title>Sheet.72</title>
			<desc>Network Management System (NMS)</desc>
			<v:textBlock v:margins="rect(4,4,4,4)"/>
			<v:textRect cx="46.2695" cy="523.42" width="92.54" height="14.44"/>
			<rect x="0" y="516.2" width="92.5389" height="14.44" class="st2"/>
			<text x="26.54" y="514.42" class="st9" v:langID="1033"><v:paragraph v:horizAlign="1"/><v:tabList/>Network <tspan
						x="15.71" dy="1.2em" class="st5">Management </tspan><tspan x="12.65" dy="1.2em" class="st5">System </tspan>(NMS)</text>		</g>
		<g id="shape74-42" v:mID="74" v:groupContext="shape" transform="translate(532.505,-0.6)">
			<title>Rectangle.74</title>
			<v:userDefs>
				<v:ud v:nameU="visVersion" v:val="VT0(12):26"/>
			</v:userDefs>
			<rect x="0" y="478.659" width="141.516" height="51.9805" class="st1"/>
		</g>
		<g id="shape75-44" v:mID="75" v:groupContext="shape" transform="translate(553.875,-34.5817)">
			<title>Sheet.75</title>
			<desc>NetStorage (NSS) Server</desc>
			<v:textBlock v:margins="rect(4,4,4,4)"/>
			<v:textRect cx="49.6817" cy="527.919" width="99.37" height="5.44241"/>
			<rect x="0" y="525.198" width="99.3634" height="5.44241" class="st2"/>
			<text x="8.01" y="524.92" class="st4" v:langID="1033"><v:paragraph v:horizAlign="1"/><v:tabList/>NetStorage (NSS)<v:newlineChar/><tspan
						x="34.11" dy="1.2em" class="st5">Server</tspan></text>		</g>
		<g id="group76-48" transform="translate(542.624,-9.23942)" v:mID="76" v:groupContext="group">
			<title>Sheet.76</title>
			<g id="shape77-49" v:mID="77" v:groupContext="shape" transform="translate(530.64,517.074) rotate(90)">
				<title>Rounded rectangle</title>
				<v:userDefs>
					<v:ud v:nameU="WatchCH1" v:val="VT0(0.125):0"/>
					<v:ud v:nameU="MaxRoundess" v:val="VT0(0.375):1"/>
					<v:ud v:nameU="visVersion" v:val="VT0(12):26"/>
					<v:ud v:nameU="WatchCH1" v:prompt="" v:val="VT0(0.094210732105448):1"/>
					<v:ud v:nameU="MaxRoundess" v:prompt="" v:val="VT0(0.094210732105448):1"/>
				</v:userDefs>
				<path d="M0 523.86 L0 445.98 A6.78317 6.78317 0 1 1 13.57 445.98 L13.57 523.86 A6.78317 6.78317 0 1 1 0 523.86 Z"
						class="st6"/>
			</g>
			<g id="shape78-51" v:mID="78" v:groupContext="shape" transform="translate(12.9176,-4.27618)">
				<title>Sheet.78</title>
				<desc>UDH</desc>
				<v:textBlock v:margins="rect(4,4,4,4)"/>
				<v:textRect cx="32.8024" cy="528.133" width="65.61" height="5.01399"/>
				<rect x="0" y="525.626" width="65.6048" height="5.01399" class="st2"/>
				<text x="21.97" y="531.13" class="st7" v:langID="1033"><v:paragraph v:horizAlign="1"/><v:tabList/>UDH</text>			</g>
		</g>
		<g id="group81-54" transform="translate(57.9596,-245.4)" v:mID="81" v:groupContext="group">
			<title>Sheet.81</title>
			<g id="shape82-55" v:mID="82" v:groupContext="shape">
				<title>Rectangle.6</title>
				<v:userDefs>
					<v:ud v:nameU="visVersion" v:val="VT0(12):26"/>
				</v:userDefs>
				<rect x="0" y="473.04" width="141.516" height="57.6" class="st1"/>
			</g>
			<g id="shape83-57" v:mID="83" v:groupContext="shape" transform="translate(21.1987,-38.2936)">
				<title>Sheet.83</title>
				<desc>NetScope</desc>
				<v:textBlock v:margins="rect(4,4,4,4)"/>
				<v:textRect cx="49.6817" cy="527.625" width="99.37" height="6.03077"/>
				<rect x="0" y="524.609" width="99.3634" height="6.03077" class="st2"/>
				<text x="22.01" y="531.22" class="st3" v:langID="1033"><v:paragraph v:horizAlign="1"/><v:tabList/>NetScope</text>			</g>
			<g id="group84-60" transform="translate(34.0761,-14.041)" v:mID="84" v:groupContext="group">
				<title>Sheet.84</title>
				<g id="shape85-61" v:mID="85" v:groupContext="shape" transform="translate(505.316,515.881) rotate(90)">
					<title>Rounded rectangle</title>
					<desc>DCS</desc>
					<v:userDefs>
						<v:ud v:nameU="WatchCH1" v:val="VT0(0.125):0"/>
						<v:ud v:nameU="MaxRoundess" v:val="VT0(0.375):1"/>
						<v:ud v:nameU="visVersion" v:val="VT0(12):26"/>
						<v:ud v:nameU="WatchCH1" v:prompt="" v:val="VT0(0.1043956043956):1"/>
						<v:ud v:nameU="MaxRoundess" v:prompt="" v:val="VT0(0.1043956043956):1"/>
					</v:userDefs>
					<v:textBlock v:margins="rect(0,0,0,0)"/>
					<v:textRect cx="7.51648" cy="490.499" width="65.25" height="15.033" transform="rotate(-90)"/>
					<path d="M0 523.12 L0 457.87 A7.51648 7.51648 0 0 1 15.03 457.87 L15.03 523.12 A7.51648 7.51648 0 1 1 -0 523.12
								 Z" class="st10"/>
					<text x="-498.94" y="9.92" transform="rotate(-90)" class="st11" v:langID="1033"><v:paragraph v:horizAlign="1"/><v:tabList/>DCS</text>				</g>
			</g>
		</g>
		<g id="shape100-64" v:mID="100" v:groupContext="shape" v:layerMember="0" transform="translate(358.854,-365.182)">
			<title>Datastore.38</title>
			<desc>SQL Database</desc>
			<v:custProps>
				<v:cp v:nameU="Manufacturer" v:lbl="Manufacturer" v:type="0" v:sortKey="1" v:invis="false" v:ask="false"
						v:langID="1033" v:val="VT4()"/>
				<v:cp v:nameU="ProductNumber" v:lbl="Product Number" v:type="0" v:sortKey="1" v:invis="false" v:ask="false"
						v:langID="1033" v:val="VT4()"/>
				<v:cp v:nameU="PartNumber" v:lbl="Part Number" v:type="0" v:sortKey="1" v:invis="false" v:ask="false"
						v:langID="1033" v:val="VT4()"/>
				<v:cp v:nameU="ProductDescription" v:lbl="Product Description" v:type="0" v:sortKey="1" v:invis="false"
						v:ask="false" v:langID="1033" v:val="VT4()"/>
				<v:cp v:nameU="AssetNumber" v:lbl="Asset Number" v:type="0" v:sortKey="1" v:invis="false" v:ask="false"
						v:langID="1033" v:val="VT4()"/>
				<v:cp v:nameU="SerialNumber" v:lbl="Serial Number" v:type="0" v:sortKey="1" v:invis="false" v:ask="false"
						v:langID="1033" v:val="VT4()"/>
				<v:cp v:nameU="Location" v:lbl="Location" v:type="0" v:sortKey="1" v:invis="false" v:ask="false" v:langID="1033"
						v:val="VT4()"/>
				<v:cp v:nameU="Building" v:lbl="Building" v:type="0" v:sortKey="1" v:invis="false" v:ask="false" v:langID="1033"
						v:val="VT4()"/>
				<v:cp v:nameU="Room" v:lbl="Room" v:type="0" v:sortKey="1" v:invis="false" v:ask="false" v:langID="1033"
						v:val="VT4()"/>
				<v:cp v:nameU="Department" v:lbl="Department" v:type="0" v:sortKey="1" v:invis="false" v:ask="false"
						v:langID="1033" v:val="VT4()"/>
			</v:custProps>
			<v:userDefs>
				<v:ud v:nameU="visVersion" v:val="VT0(15):26"/>
			</v:userDefs>
			<v:textBlock v:margins="rect(0,0,0,0)"/>
			<v:textRect cx="17.3455" cy="517.099" width="34.7" height="18.4091"/>
			<path d="M0 503.56 L0 526.3 A17.3455 4.33636 -180 1 0 34.69 526.3 L34.69 503.56 A17.3455 4.33636 -180 0 0 -0 503.56 Z"
					class="st12"/>
			<path d="M0 503.56 L0 526.3 A17.3455 4.33636 -180 1 0 34.69 526.3 L34.69 503.56 A17.3455 4.33636 -180 0 0 -0 503.56"
					class="st13"/>
			<path d="M0 503.56 A17.3455 4.33636 -180 0 0 34.69 503.56" class="st13"/>
			<text x="0.61" y="518.9" class="st14" v:langID="1033"><v:paragraph v:horizAlign="1"/><v:tabList/>SQL Database</text>		</g>
		<g id="shape102-69" v:mID="102" v:groupContext="shape" v:layerMember="0" transform="translate(358.854,-195.688)">
			<title>Datastore.102</title>
			<desc>SQL Database</desc>
			<v:custProps>
				<v:cp v:nameU="Manufacturer" v:lbl="Manufacturer" v:type="0" v:sortKey="1" v:invis="false" v:ask="false"
						v:langID="1033" v:val="VT4()"/>
				<v:cp v:nameU="ProductNumber" v:lbl="Product Number" v:type="0" v:sortKey="1" v:invis="false" v:ask="false"
						v:langID="1033" v:val="VT4()"/>
				<v:cp v:nameU="PartNumber" v:lbl="Part Number" v:type="0" v:sortKey="1" v:invis="false" v:ask="false"
						v:langID="1033" v:val="VT4()"/>
				<v:cp v:nameU="ProductDescription" v:lbl="Product Description" v:type="0" v:sortKey="1" v:invis="false"
						v:ask="false" v:langID="1033" v:val="VT4()"/>
				<v:cp v:nameU="AssetNumber" v:lbl="Asset Number" v:type="0" v:sortKey="1" v:invis="false" v:ask="false"
						v:langID="1033" v:val="VT4()"/>
				<v:cp v:nameU="SerialNumber" v:lbl="Serial Number" v:type="0" v:sortKey="1" v:invis="false" v:ask="false"
						v:langID="1033" v:val="VT4()"/>
				<v:cp v:nameU="Location" v:lbl="Location" v:type="0" v:sortKey="1" v:invis="false" v:ask="false" v:langID="1033"
						v:val="VT4()"/>
				<v:cp v:nameU="Building" v:lbl="Building" v:type="0" v:sortKey="1" v:invis="false" v:ask="false" v:langID="1033"
						v:val="VT4()"/>
				<v:cp v:nameU="Room" v:lbl="Room" v:type="0" v:sortKey="1" v:invis="false" v:ask="false" v:langID="1033"
						v:val="VT4()"/>
				<v:cp v:nameU="Department" v:lbl="Department" v:type="0" v:sortKey="1" v:invis="false" v:ask="false"
						v:langID="1033" v:val="VT4()"/>
			</v:custProps>
			<v:userDefs>
				<v:ud v:nameU="visVersion" v:val="VT0(15):26"/>
			</v:userDefs>
			<v:textBlock v:margins="rect(0,0,0,0)"/>
			<v:textRect cx="21.6" cy="512.428" width="43.21" height="25.6242"/>
			<path d="M0 494.22 L0 525.24 A21.6 5.4 -180 1 0 43.2 525.24 L43.2 494.22 A21.6 5.4 -180 0 0 -0 494.22 Z" class="st12"/>
			<path d="M0 494.22 L0 525.24 A21.6 5.4 -180 1 0 43.2 525.24 L43.2 494.22 A21.6 5.4 -180 0 0 -0 494.22" class="st13"/>
			<path d="M0 494.22 A21.6 5.4 -180 1 0 43.2 494.22" class="st13"/>
			<text x="4.86" y="514.23" class="st14" v:langID="1033"><v:paragraph v:horizAlign="1"/><v:tabList/>SQL Database</text>		</g>
		<g id="group110-74" transform="translate(276.552,-251.948)" v:mID="110" v:groupContext="group">
			<title>Sheet.110</title>
			<g id="shape111-75" v:mID="111" v:groupContext="shape" transform="translate(530.64,502.56) rotate(90)">
				<title>Rounded rectangle</title>
				<v:userDefs>
					<v:ud v:nameU="WatchCH1" v:val="VT0(0.125):0"/>
					<v:ud v:nameU="MaxRoundess" v:val="VT0(0.375):1"/>
					<v:ud v:nameU="visVersion" v:val="VT0(12):26"/>
					<v:ud v:nameU="MaxRoundess" v:prompt="" v:val="VT0(0.195):1"/>
				</v:userDefs>
				<path d="M0 521.64 L0 453.24 A14.04 9 0 0 1 28.08 453.24 L28.08 521.64 A14.04 9 0 1 1 0 521.64 Z" class="st15"/>
			</g>
			<g id="shape112-77" v:mID="112" v:groupContext="shape" transform="translate(3.6,-8.34499)">
				<title>Sheet.112</title>
				<desc>Integration Service</desc>
				<v:textBlock v:margins="rect(4,4,4,4)"/>
				<v:textRect cx="40.32" cy="525.451" width="80.64" height="10.3781"/>
				<rect x="0" y="520.262" width="80.64" height="10.3781" class="st16"/>
				<text x="16.69" y="522.45" class="st7" v:langID="1033"><v:paragraph v:horizAlign="1"/><v:tabList/>Integration <tspan
							x="23.65" dy="1.2em" class="st5">Service</tspan></text>			</g>
		</g>
		<g id="shape191-81" v:mID="191" v:groupContext="shape" transform="translate(159.308,-254.914)">
			<title>Process.191</title>
			<desc>Load Agent</desc>
			<v:userDefs>
				<v:ud v:nameU="visVersion" v:val="VT0(15):26"/>
			</v:userDefs>
			<v:textBlock v:margins="rect(4,4,4,4)"/>
			<v:textRect cx="16.973" cy="518.554" width="33.95" height="24.1717"/>
			<rect x="0" y="506.468" width="33.9461" height="24.1717" class="st17"/>
			<text x="9.16" y="516.15" class="st18" v:langID="1033"><v:paragraph v:horizAlign="1"/><v:tabList/>Load <tspan x="7.34"
						dy="1.2em" class="st5">Agent</tspan></text>		</g>
		<g id="shape192-85" v:mID="192" v:groupContext="shape" v:layerMember="0" transform="translate(643.701,-69.2566)">
			<title>Datastore.192</title>
			<desc>SQL Database</desc>
			<v:custProps>
				<v:cp v:nameU="Manufacturer" v:lbl="Manufacturer" v:type="0" v:sortKey="1" v:invis="false" v:ask="false"
						v:langID="1033" v:val="VT4()"/>
				<v:cp v:nameU="ProductNumber" v:lbl="Product Number" v:type="0" v:sortKey="1" v:invis="false" v:ask="false"
						v:langID="1033" v:val="VT4()"/>
				<v:cp v:nameU="PartNumber" v:lbl="Part Number" v:type="0" v:sortKey="1" v:invis="false" v:ask="false"
						v:langID="1033" v:val="VT4()"/>
				<v:cp v:nameU="ProductDescription" v:lbl="Product Description" v:type="0" v:sortKey="1" v:invis="false"
						v:ask="false" v:langID="1033" v:val="VT4()"/>
				<v:cp v:nameU="AssetNumber" v:lbl="Asset Number" v:type="0" v:sortKey="1" v:invis="false" v:ask="false"
						v:langID="1033" v:val="VT4()"/>
				<v:cp v:nameU="SerialNumber" v:lbl="Serial Number" v:type="0" v:sortKey="1" v:invis="false" v:ask="false"
						v:langID="1033" v:val="VT4()"/>
				<v:cp v:nameU="Location" v:lbl="Location" v:type="0" v:sortKey="1" v:invis="false" v:ask="false" v:langID="1033"
						v:val="VT4()"/>
				<v:cp v:nameU="Building" v:lbl="Building" v:type="0" v:sortKey="1" v:invis="false" v:ask="false" v:langID="1033"
						v:val="VT4()"/>
				<v:cp v:nameU="Room" v:lbl="Room" v:type="0" v:sortKey="1" v:invis="false" v:ask="false" v:langID="1033"
						v:val="VT4()"/>
				<v:cp v:nameU="Department" v:lbl="Department" v:type="0" v:sortKey="1" v:invis="false" v:ask="false"
						v:langID="1033" v:val="VT4()"/>
			</v:custProps>
			<v:userDefs>
				<v:ud v:nameU="visVersion" v:val="VT0(15):26"/>
			</v:userDefs>
			<v:textBlock v:margins="rect(0,0,0,0)"/>
			<v:textRect cx="12.5087" cy="519.695" width="25.02" height="15.6359"/>
			<path d="M0 508.75 L0 527.51 A12.5087 3.12718 -180 1 0 25.02 527.51 L25.02 508.75 A12.5087 3.12718 -180 0 0 0 508.75 Z"
					class="st12"/>
			<path d="M0 508.75 L0 527.51 A12.5087 3.12718 -180 1 0 25.02 527.51 L25.02 508.75 A12.5087 3.12718 -180 0 0 0 508.75"
					class="st13"/>
			<path d="M0 508.75 A12.5087 3.12718 -180 1 0 25.02 508.75" class="st13"/>
			<text x="7.85" y="517.89" class="st14" v:langID="1033"><v:paragraph v:horizAlign="1"/><v:tabList/>SQL <tspan x="1.1"
						dy="1.2em" class="st5">Database</tspan></text>		</g>
		<g id="shape196-91" v:mID="196" v:groupContext="shape" transform="translate(481.254,-216.071)">
			<title>Cloud</title>
			<desc>Corporate Network</desc>
			<v:userDefs>
				<v:ud v:nameU="SolSH"/>
				<v:ud v:nameU="ShapeType" v:val="VT0(1):26"/>
				<v:ud v:nameU="shapelook" v:val="VT0(2):26"/>
				<v:ud v:nameU="visVersion" v:val="VT0(15):26"/>
			</v:userDefs>
			<v:textBlock v:margins="rect(0,0,0,0)"/>
			<v:textRect cx="98.64" cy="487.175" width="197.29" height="86.9295"/>
			<path d="M73.28 455.68 A31.2259 22.3421 0 0 1 128.37 455.39 A22.9192 16.3987 0 0 1 167.79 460.81 A23.05 16.4922 0 0 1
						 195.01 469.12 A17.3877 12.4409 0 0 1 185.76 484.21 A19.6361 14.0496 0 0 1 170.7 510.15 A35.3594 25.2996
						 0 0 1 121.47 523.19 A44.5333 31.8635 0 0 1 59.68 520.03 A24.5075 17.5351 0 0 1 16.57 505.89 A17.7092 12.6709
						 0 0 1 16.65 480.6 A15.1524 10.8415 0 1 1 28.87 460.76 A23.7541 16.996 0 0 1 73.28 455.68 Z" class="st19"/>
			<text x="31.5" y="491.98" class="st20" v:langID="1033"><v:paragraph v:horizAlign="1"/><v:tabList/>Corporate Network</text>		</g>
		<g id="shape219-94" v:mID="219" v:groupContext="shape" transform="translate(58.6136,-386.361)">
			<title>Box.38</title>
			<v:userDefs>
				<v:ud v:nameU="visVersion" v:val="VT0(15):26"/>
			</v:userDefs>
			<rect x="0" y="462.801" width="139.68" height="67.8393" class="st21"/>
		</g>
		<g id="shape237-96" v:mID="237" v:groupContext="shape" v:layerMember="1"
				transform="translate(158.05,794.421) rotate(-1.19373) scale(1,-1)">
			<title>Line connector.237</title>
			<v:userDefs>
				<v:ud v:nameU="visVersion" v:val="VT0(15):26"/>
			</v:userDefs>
			<path d="M-0 530.64 A180.494 180.494 -180 0 0 12.32 530.64" class="st22"/>
		</g>
		<g id="shape251-99" v:mID="251" v:groupContext="shape" transform="translate(246.054,-495)">
			<title>Sheet.251</title>
			<desc>SNMP Architecture</desc>
			<v:textBlock v:margins="rect(4,4,4,4)"/>
			<v:textRect cx="90" cy="513" width="180" height="35.28"/>
			<rect x="0" y="495.36" width="180" height="35.28" class="st2"/>
			<text x="35.65" y="516.6" class="st23" v:langID="1033"><v:paragraph v:horizAlign="1"/><v:tabList/>SNMP Architecture</text>		</g>
		<g id="group252-102" transform="translate(542.624,-74.3212)" v:mID="252" v:groupContext="group">
			<title>Sheet.252</title>
			<g id="shape253-103" v:mID="253" v:groupContext="shape" transform="translate(531.013,515.908) rotate(90)">
				<title>Rounded rectangle</title>
				<v:userDefs>
					<v:ud v:nameU="WatchCH1" v:val="VT0(0.125):0"/>
					<v:ud v:nameU="MaxRoundess" v:val="VT0(0.375):1"/>
					<v:ud v:nameU="visVersion" v:val="VT0(12):26"/>
					<v:ud v:nameU="WatchCH1" v:prompt="" v:val="VT0(0.10230209891319):1"/>
					<v:ud v:nameU="MaxRoundess" v:prompt="" v:val="VT0(0.10230209891319):1"/>
				</v:userDefs>
				<path d="M0 523.27 L0 457.07 A7.36575 7.36575 0 0 1 14.73 457.07 L14.73 523.27 A7.36575 7.36575 0 1 1 0 523.27 Z"
						class="st6"/>
			</g>
			<g id="shape254-105" v:mID="254" v:groupContext="shape" transform="translate(16.3583,-4.64344)">
				<title>Sheet.254</title>
				<desc>UDH</desc>
				<v:textBlock v:margins="rect(4,4,4,4)"/>
				<v:textRect cx="24.48" cy="527.918" width="48.96" height="5.44463"/>
				<rect x="0" y="525.195" width="48.96" height="5.44463" class="st2"/>
				<text x="13.65" y="530.92" class="st7" v:langID="1033"><v:paragraph v:horizAlign="1"/><v:tabList/>UDH</text>			</g>
		</g>
		<g id="shape256-108" v:mID="256" v:groupContext="shape" transform="translate(272.454,-216.6)">
			<title>Sheet.256</title>
			<desc>SNMP</desc>
			<v:textBlock v:margins="rect(4,4,4,4)"/>
			<v:textRect cx="22.68" cy="524.16" width="45.37" height="12.96"/>
			<rect x="0" y="517.68" width="45.36" height="12.96" class="st2"/>
			<text x="5.34" y="527.76" class="st24" v:langID="1033"><v:paragraph v:horizAlign="1"/><v:tabList/>SNMP</text>		</g>
		<g id="shape257-111" v:mID="257" v:groupContext="shape" transform="translate(309.763,-418.2)">
			<title>Rectangle.46</title>
			<desc>NDR Loader</desc>
			<v:userDefs>
				<v:ud v:nameU="visVersion" v:val="VT0(15):26"/>
			</v:userDefs>
			<v:textBlock v:margins="rect(4,4,4,4)"/>
			<v:textRect cx="25.2" cy="516.24" width="50.41" height="28.8"/>
			<rect x="0" y="501.84" width="50.4" height="28.8" class="st25"/>
			<text x="15.45" y="513.54" class="st26" v:langID="1033"><v:paragraph v:horizAlign="1"/><v:tabList/>NDR <tspan x="11.19"
						dy="1.2em" class="st5">Loader</tspan></text>		</g>
		<g id="shape258-115" v:mID="258" v:groupContext="shape" v:layerMember="1" transform="translate(177.308,-279.086)">
			<title>Bottom to top 1</title>
			<v:userDefs>
				<v:ud v:nameU="TextPos" v:val="VT0(1):26"/>
				<v:ud v:nameU="visVersion" v:val="VT0(15):26"/>
			</v:userDefs>
			<path d="M0 427.01 L0 427.37 L0 475.48 L0 523.6" class="st27"/>
		</g>
		<g id="shape259-124" v:mID="259" v:groupContext="shape" v:layerMember="1" transform="translate(177.86,806.272) scale(1,-1)">
			<title>Top/bottom to side</title>
			<v:userDefs>
				<v:ud v:nameU="TextPos" v:val="VT0(1):5"/>
				<v:ud v:nameU="visVersion" v:val="VT0(15):26"/>
			</v:userDefs>
			<path d="M0 530.64 L0 353.73 L65.95 353.73" class="st29"/>
		</g>
		<g id="shape260-129" v:mID="260" v:groupContext="shape" v:layerMember="1" transform="translate(193.249,-265.719)">
			<title>Side to side 1</title>
			<v:userDefs>
				<v:ud v:nameU="TextPos" v:val="VT0(1):26"/>
				<v:ud v:nameU="visVersion" v:val="VT0(15):26"/>
			</v:userDefs>
			<path d="M0 530.64 L28.8 530.64 L75.76 530.64" class="st29"/>
		</g>
		<g id="group308-134" transform="translate(543.549,-360.6)" v:mID="308" v:groupContext="group">
			<v:custProps>
				<v:cp v:nameU="AssetNumber" v:lbl="Asset Number" v:prompt="" v:type="0" v:format="" v:sortKey="Asset"
						v:invis="false" v:ask="false" v:langID="1033" v:cal="0"/>
				<v:cp v:nameU="SerialNumber" v:lbl="Serial Number" v:prompt="" v:type="0" v:format="" v:sortKey="Asset"
						v:invis="false" v:ask="false" v:langID="1033" v:cal="0"/>
				<v:cp v:nameU="Location" v:lbl="Location" v:prompt="" v:type="0" v:format="" v:sortKey="Asset" v:invis="false"
						v:ask="false" v:langID="1033" v:cal="0"/>
				<v:cp v:nameU="Building" v:lbl="Building" v:prompt="" v:type="0" v:format="" v:sortKey="Asset" v:invis="false"
						v:ask="false" v:langID="1033" v:cal="0"/>
				<v:cp v:nameU="Room" v:lbl="Room" v:prompt="" v:type="0" v:format="" v:sortKey="Asset" v:invis="false"
						v:ask="false" v:langID="1033" v:cal="0"/>
				<v:cp v:nameU="Manufacturer" v:lbl="Manufacturer" v:prompt="" v:type="0" v:format="" v:sortKey="Equipment"
						v:invis="false" v:ask="false" v:langID="1033" v:cal="0"/>
				<v:cp v:nameU="ProductNumber" v:lbl="Product Number" v:prompt="" v:type="0" v:format="" v:sortKey="Equipment"
						v:invis="false" v:ask="false" v:langID="1033" v:cal="0"/>
				<v:cp v:nameU="PartNumber" v:lbl="Part Number" v:prompt="" v:type="0" v:format="" v:sortKey="Equipment"
						v:invis="false" v:ask="false" v:langID="1033" v:cal="0"/>
				<v:cp v:nameU="ProductDescription" v:lbl="Product Description" v:prompt="" v:type="0" v:format=""
						v:sortKey="Equipment" v:invis="false" v:ask="false" v:langID="1033" v:cal="0"/>
				<v:cp v:nameU="NetworkName" v:lbl="Network Name" v:prompt="" v:type="0" v:format="" v:sortKey="Network"
						v:invis="false" v:ask="false" v:langID="1033" v:cal="0"/>
				<v:cp v:nameU="IPAddress" v:lbl="IP Address" v:prompt="" v:type="0" v:format="" v:sortKey="Network" v:invis="false"
						v:ask="false" v:langID="1033" v:cal="0"/>
				<v:cp v:nameU="SubnetMask" v:lbl="Subnet Mask" v:prompt="" v:type="0" v:format="" v:sortKey="Network"
						v:invis="false" v:ask="false" v:langID="1033" v:cal="0"/>
				<v:cp v:nameU="AdminInterface" v:lbl="Administrative Interface" v:prompt="" v:type="0" v:format=""
						v:sortKey="Network" v:invis="false" v:ask="false" v:langID="1033" v:cal="0"/>
				<v:cp v:nameU="NumberOfPorts" v:lbl="Number of Ports" v:prompt="" v:type="0" v:format="" v:sortKey="Network"
						v:invis="false" v:ask="false" v:langID="1033" v:cal="0"/>
				<v:cp v:nameU="CommunityString" v:lbl="Community String" v:prompt="" v:type="0" v:format="" v:sortKey="Network"
						v:invis="false" v:ask="false" v:langID="1033" v:cal="0"/>
				<v:cp v:nameU="NetworkDescription" v:lbl="Network Description" v:prompt="" v:type="0" v:format=""
						v:sortKey="Network" v:invis="false" v:ask="false" v:langID="1033" v:cal="0"/>
				<v:cp v:nameU="MACAddress" v:lbl="MAC Address" v:prompt="" v:type="0" v:format="" v:sortKey="Network"
						v:invis="false" v:ask="false" v:langID="1033" v:cal="0"/>
				<v:cp v:nameU="CPU" v:lbl="CPU" v:prompt="" v:type="0" v:format="" v:sortKey="Workstation" v:invis="false"
						v:ask="false" v:langID="1033" v:cal="0"/>
				<v:cp v:nameU="Memory" v:lbl="Memory" v:prompt="" v:type="0" v:format="" v:sortKey="Workstation" v:invis="false"
						v:ask="false" v:langID="1033" v:cal="0"/>
				<v:cp v:nameU="OperatingSystem" v:lbl="Operating System" v:prompt="" v:type="0" v:format="" v:sortKey="Workstation"
						v:invis="false" v:ask="false" v:langID="1033" v:cal="0"/>
				<v:cp v:nameU="HardDriveSize" v:lbl="Hard Drive Capacity" v:prompt="" v:type="0" v:format=""
						v:sortKey="Workstation" v:invis="false" v:ask="false" v:langID="1033" v:cal="0"/>
				<v:cp v:nameU="ShapeClass" v:lbl="ShapeClass" v:prompt="" v:type="0" v:format="" v:sortKey="" v:invis="true"
						v:ask="false" v:langID="1033" v:cal="0" v:val="VT4(Equipment)"/>
				<v:cp v:nameU="ShapeType" v:lbl="ShapeType" v:prompt="" v:type="0" v:format="" v:sortKey="" v:invis="true"
						v:ask="false" v:langID="1033" v:cal="0" v:val="VT4(Terminal)"/>
			</v:custProps>
			<v:userDefs>
				<v:ud v:nameU="visVersion" v:prompt="" v:val="VT0(15):26"/>
				<v:ud v:nameU="ShapeClass" v:prompt="" v:val="VT0(5):26"/>
				<v:ud v:nameU="SolSH" v:prompt="" v:val="VT15({BF0433D9-CD73-4EB5-8390-8653BE590246}):41"/>
				<v:ud v:nameU="visLegendShape" v:prompt="" v:val="VT0(2):26"/>
			</v:userDefs>
			<title>Terminal</title>
			<g id="shape309-135" v:mID="309" v:groupContext="shape" transform="translate(0,-4.21196)">
				<title>Sheet.309</title>
				<path d="M68.54 467.06 L4.19 467.06 L4.19 510.01 L68.54 510.01 L68.54 467.06 ZM72 530.64 L61.2 517.1 L10.8 517.1
							 L0 530.64 L72 530.64 ZM41.66 510.01 L30.34 510.01 L30.34 517.1 L41.66 517.1 L41.66 510.01 Z"
						class="st30"/>
			</g>
			<g id="shape310-137" v:mID="310" v:groupContext="shape" transform="translate(8.36116,-28.7126)">
				<title>Sheet.310</title>
				<v:userDefs>
					<v:ud v:nameU="SurroundingRegionColor" v:prompt="" v:val="VT5(1)"/>
				</v:userDefs>
				<path d="M56.09 495.82 L0 495.82 L0 530.64 L56.09 530.64 L56.09 495.82 Z" class="st30"/>
			</g>
			<g id="shape311-139" v:mID="311" v:groupContext="shape" transform="translate(9.79853,-7.00675)">
				<title>Sheet.311</title>
				<v:userDefs>
					<v:ud v:nameU="SurroundingRegionColor" v:prompt="" v:val="VT5(1)"/>
				</v:userDefs>
				<path d="M49.17 525.39 L45.97 525.39 L47.76 527.38 L51.21 527.38 L49.17 525.39 ZM45.55 521.86 L42.79 521.86 L44.72
							 524 L47.74 524 L45.55 521.86 ZM44.24 525.39 L41.04 525.39 L42.45 527.38 L45.9 527.38 L44.24 525.39 ZM41.31
							 521.86 L38.55 521.86 L40.06 524 L43.09 524 L41.31 521.86 ZM39.32 525.39 L36.12 525.39 L37.14 527.38
							 L40.59 527.38 L39.32 525.39 ZM37.08 521.86 L34.32 521.86 L35.42 524.04 L38.45 524.04 L37.08 521.86 ZM34.4
							 525.39 L31.2 525.39 L31.84 527.38 L35.29 527.38 L34.4 525.39 ZM32.89 522.01 L30.12 522.01 L30.77 524.04
							 L33.8 524.04 L32.89 522.01 ZM29.48 525.39 L26.28 525.39 L26.53 527.38 L29.98 527.38 L29.48 525.39 ZM28.67
							 522.17 L25.87 522.17 L26.12 524.17 L29.17 524.17 L28.67 522.17 ZM24.37 522.17 L21.57 522.17 L21.44 524.17
							 L24.48 524.17 L24.37 522.17 ZM24.56 525.39 L21.36 525.39 L21.22 527.38 L24.68 527.38 L24.56 525.39 ZM20.06
							 522.17 L17.27 522.17 L16.75 524.17 L19.8 524.17 L20.06 522.17 ZM19.63 525.39 L16.43 525.39 L15.92 527.38
							 L19.37 527.38 L19.63 525.39 ZM37.19 528.65 L14.61 528.65 L14.02 530.64 L38.17 530.64 L37.19 528.65 ZM15.76
							 522.17 L12.97 522.17 L12.07 524.17 L15.11 524.17 L15.76 522.17 ZM14.71 525.39 L11.51 525.39 L10.61 527.38
							 L14.06 527.38 L14.71 525.39 ZM11.46 522.17 L8.66 522.17 L7.38 524.17 L10.43 524.17 L11.46 522.17 ZM9.79
							 525.39 L6.59 525.39 L5.31 527.38 L8.76 527.38 L9.79 525.39 ZM7.16 522.17 L4.36 522.17 L2.69 524.17 L5.74
							 524.17 L7.16 522.17 ZM4.87 525.39 L1.67 525.39 L0 527.38 L3.45 527.38 L4.87 525.39 Z" class="st31"/>
			</g>
		</g>
		<g id="group324-142" transform="translate(387.654,-15)" v:mID="324" v:groupContext="group">
			<title>Sheet.324</title>
			<g id="shape325-143" v:mID="325" v:groupContext="shape"
					transform="translate(75.8302,928.379) rotate(-0.195893) scale(1,-1)">
				<title>Sheet.325</title>
				<path d="M0 530.64 L81.33 530.64" class="st22"/>
			</g>
			<g id="shape326-146" v:mID="326" v:groupContext="shape" transform="translate(74.25,995.616) scale(1,-1)">
				<title>Sheet.326</title>
				<path d="M0 530.64 L81.09 530.64" class="st22"/>
			</g>
			<g id="shape327-149" v:mID="327" v:groupContext="shape"
					transform="translate(71.5061,1060.86) rotate(0.296274) scale(1,-1)">
				<title>Sheet.327</title>
				<path d="M0 530.64 L80.72 530.64" class="st22"/>
			</g>
			<g id="shape328-152" v:mID="328" v:groupContext="shape" transform="translate(0,995.703) scale(1,-1)">
				<title>Sheet.328</title>
				<path d="M10.2 530.64 L10.56 530.64 L75.6 530.64" class="st32"/>
			</g>
			<g id="shape329-158" v:mID="329" v:groupContext="shape" transform="translate(604.605,398.463) rotate(90)">
				<title>Sheet.329</title>
				<path d="M0 530.64 L131.85 530.64" class="st22"/>
			</g>
		</g>
		<g id="shape330-161" v:mID="330" v:groupContext="shape" v:layerMember="1" transform="translate(412.854,-252.244)">
			<title>Side to side 1.330</title>
			<v:userDefs>
				<v:ud v:nameU="TextPos" v:val="VT0(1):26"/>
				<v:ud v:nameU="visVersion" v:val="VT0(15):26"/>
			</v:userDefs>
			<path d="M0 530.64 L34.2 530.64 L68.4 530.64" class="st22"/>
		</g>
		<g id="shape331-164" v:mID="331" v:groupContext="shape" v:layerMember="1" transform="translate(579.894,-303)">
			<title>Bottom to top 1.331</title>
			<v:userDefs>
				<v:ud v:nameU="TextPos" v:val="VT0(1):26"/>
				<v:ud v:nameU="visVersion" v:val="VT0(15):26"/>
			</v:userDefs>
			<path d="M0 465.84 L0 498.24 L0 530.64" class="st22"/>
		</g>
		<g id="shape337-167" v:mID="337" v:groupContext="shape" transform="translate(61.5203,-400.2)">
			<title>Sheet.337</title>
			<desc>NetOccupy</desc>
			<v:textBlock v:margins="rect(4,4,4,4)"/>
			<v:textRect cx="28.8" cy="519.84" width="57.6" height="21.6"/>
			<rect x="0" y="509.04" width="57.6" height="21.6" class="st33"/>
			<text x="9.01" y="522.24" class="st35" v:langID="1033"><v:paragraph v:horizAlign="1"/><v:tabList/>NetOccupy</text>		</g>
		<g id="shape338-172" v:mID="338" v:groupContext="shape" transform="translate(140.987,-400.2)">
			<title>Sheet.338</title>
			<desc>NetIntegrity (Future)</desc>
			<v:textBlock v:margins="rect(4,4,4,4)"/>
			<v:textRect cx="28.8" cy="519.84" width="57.61" height="21.6"/>
			<rect x="0" y="509.04" width="57.6" height="21.6" class="st33"/>
			<text x="8.35" y="517.44" class="st35" v:langID="1033"><v:paragraph v:horizAlign="1"/><v:tabList/>NetIntegrity <tspan
						x="14.58" dy="1.2em" class="st36">(</tspan><tspan class="st36">Future</tspan><tspan class="st36">)</tspan></text>		</g>
		<g id="shape339-179" v:mID="339" v:groupContext="shape" transform="translate(84.4957,-432.6)">
			<title>Sheet.339</title>
			<desc>Admin Server</desc>
			<v:textBlock v:margins="rect(4,4,4,4)"/>
			<v:textRect cx="43.2" cy="523.44" width="86.4" height="14.4"/>
			<rect x="0" y="516.24" width="86.4" height="14.4" class="st33"/>
			<text x="10.69" y="526.44" class="st4" v:langID="1033"><v:paragraph v:horizAlign="1"/><v:tabList/>Admin Server</text>		</g>
		<g id="shape342-183" v:mID="342" v:groupContext="shape" v:layerMember="1" transform="translate(319.752,-123) scale(-1,1)">
			<title>Bottom to top 1.342</title>
			<v:userDefs>
				<v:ud v:nameU="TextPos" v:val="VT0(1):26"/>
				<v:ud v:nameU="visVersion" v:val="VT0(15):26"/>
			</v:userDefs>
			<path d="M0 401.69 L0 466.17 L0.5 466.17 L0.5 523.6" class="st29"/>
		</g>
		<g id="shape343-188" v:mID="343" v:groupContext="shape" transform="translate(531.654,-398.2)">
			<title>Sheet.343</title>
			<desc>Users</desc>
			<v:textBlock v:margins="rect(4,4,4,4)"/>
			<v:textRect cx="47" cy="520.64" width="94.01" height="20"/>
			<rect x="0" y="510.64" width="94" height="20" class="st33"/>
			<text x="31.33" y="524.24" class="st24" v:langID="1033"><v:paragraph v:horizAlign="1"/><v:tabList/>Users</text>		</g>
		<g id="shape348-192" v:mID="348" v:groupContext="shape" transform="translate(250.854,-369.991)">
			<title>Rectangle.348</title>
			<desc>Decode Agent</desc>
			<v:userDefs>
				<v:ud v:nameU="visVersion" v:val="VT0(15):26"/>
			</v:userDefs>
			<v:textBlock v:margins="rect(4,4,4,4)"/>
			<v:textRect cx="25.2" cy="519.84" width="50.41" height="21.6"/>
			<rect x="0" y="509.04" width="50.4" height="21.6" class="st25"/>
			<text x="9.69" y="517.14" class="st26" v:langID="1033"><v:paragraph v:horizAlign="1"/><v:tabList/>Decode <tspan
						x="13.44" dy="1.2em" class="st5">Agent</tspan></text>		</g>
		<g id="shape355-196" v:mID="355" v:groupContext="shape" v:layerMember="1" transform="translate(301.254,-380.791)">
			<title>Side to side fixed 2</title>
			<v:userDefs>
				<v:ud v:nameU="TextPos" v:val="VT0(1):26"/>
				<v:ud v:nameU="Offset" v:val="VT0(0.25):0"/>
				<v:ud v:nameU="Scale" v:val="VT0(1):26"/>
				<v:ud v:nameU="AntiScale" v:val="VT0(1):26"/>
				<v:ud v:nameU="visVersion" v:val="VT0(15):26"/>
			</v:userDefs>
			<path d="M6.68 530.64 L7.04 530.64 L18 530.64 L57.6 530.64" class="st37"/>
		</g>
		<g id="shape356-201" v:mID="356" v:groupContext="shape" transform="translate(104.694,-419.64)">
			<title>Sheet.356</title>
			<desc>SNMP</desc>
			<v:textBlock v:margins="rect(4,4,4,4)"/>
			<v:textRect cx="22.68" cy="524.16" width="45.37" height="12.96"/>
			<rect x="0" y="517.68" width="45.36" height="12.96" class="st2"/>
			<text x="8.23" y="527.16" class="st7" v:langID="1033"><v:paragraph v:horizAlign="1"/><v:tabList/>SNMP</text>		</g>
		<g id="shape358-204" v:mID="358" v:groupContext="shape" v:layerMember="1" transform="translate(334.963,-392.264)">
			<title>Bottom to top 1.358</title>
			<v:userDefs>
				<v:ud v:nameU="TextPos" v:val="VT0(1):26"/>
				<v:ud v:nameU="visVersion" v:val="VT0(15):26"/>
			</v:userDefs>
			<path d="M0 504.7 L0 517.67 L41.24 517.67 L41.24 523.6" class="st38"/>
		</g>
		<g id="shape359-210" v:mID="359" v:groupContext="shape" v:layerMember="1" transform="translate(276.054,-280.028)">
			<title>Bottom to top 1.359</title>
			<v:userDefs>
				<v:ud v:nameU="TextPos" v:val="VT0(1):26"/>
				<v:ud v:nameU="visVersion" v:val="VT0(15):26"/>
			</v:userDefs>
			<path d="M0 440.68 L0 485.66 L43.7 485.66 L43.7 523.6" class="st29"/>
		</g>
		<g id="shape360-215" v:mID="360" v:groupContext="shape" v:layerMember="1"
				transform="translate(200.454,628.407) scale(1,-1)">
			<title>Side to side 1.360</title>
			<v:userDefs>
				<v:ud v:nameU="TextPos" v:val="VT0(1):26"/>
				<v:ud v:nameU="visVersion" v:val="VT0(15):26"/>
			</v:userDefs>
			<path d="M0 530.64 L54.65 530.64 L54.65 530.37 L102.27 530.37" class="st38"/>
		</g>
		<g id="shape361-220" v:mID="361" v:groupContext="shape" v:layerMember="1"
				transform="translate(362.952,795.292) scale(1,-1)">
			<title>Side to top/bottom</title>
			<v:userDefs>
				<v:ud v:nameU="TextPos" v:val="VT0(0):5"/>
				<v:ud v:nameU="visVersion" v:val="VT0(15):26"/>
			</v:userDefs>
			<path d="M6.68 530.64 L7.04 530.64 L17.5 530.64 L17.5 503.8" class="st27"/>
		</g>
		<g id="shape366-227" v:mID="366" v:groupContext="shape" v:layerMember="1"
				transform="translate(56.4536,628.407) scale(1,-1)">
			<title>Sides</title>
			<v:userDefs>
				<v:ud v:nameU="TextPos" v:val="VT0(1):26"/>
				<v:ud v:nameU="Scale" v:val="VT0(1):26"/>
				<v:ud v:nameU="AntiScale" v:val="VT0(1):26"/>
				<v:ud v:nameU="visVersion" v:val="VT0(15):26"/>
			</v:userDefs>
			<path d="M0 530.64 L-36.45 530.64 L-36.45 154.54 L7.2 154.54" class="st22"/>
		</g>
		<g id="shape367-230" v:mID="367" v:groupContext="shape" v:layerMember="1" transform="translate(63.6536,-56.8712)">
			<title>Side to side 1.367</title>
			<v:userDefs>
				<v:ud v:nameU="TextPos" v:val="VT0(1):26"/>
				<v:ud v:nameU="visVersion" v:val="VT0(15):26"/>
			</v:userDefs>
			<path d="M0 530.64 L93.6 530.64 L180.16 530.64" class="st29"/>
		</g>
		<g id="shape368-235" v:mID="368" v:groupContext="shape" transform="translate(202.999,-432.6)">
			<title>Sheet.368</title>
			<desc>NDRs</desc>
			<v:textBlock v:margins="rect(4,4,4,4)"/>
			<v:textRect cx="20.3273" cy="520.64" width="40.66" height="20"/>
			<rect x="0" y="510.64" width="40.6545" height="20" class="st33"/>
			<text x="6.99" y="523.64" class="st7" v:langID="1033"><v:paragraph v:horizAlign="1"/><v:tabList/>NDRs</text>		</g>
		<g id="shape369-239" v:mID="369" v:groupContext="shape" v:layerMember="1" transform="translate(623.928,-81.687)">
			<title>Side to side 1.369</title>
			<v:userDefs>
				<v:ud v:nameU="TextPos" v:val="VT0(1):26"/>
				<v:ud v:nameU="visVersion" v:val="VT0(15):26"/>
			</v:userDefs>
			<path d="M0 530.64 L9.89 530.64 L9.89 530.56 L19.77 530.56" class="st22"/>
		</g>
	</g>
</svg>
