<?xml version="1.0" encoding="UTF-8" standalone="no"?>
<!DOCTYPE svg PUBLIC "-//W3C//DTD SVG 1.1//EN" "http://www.w3.org/Graphics/SVG/1.1/DTD/svg11.dtd">
<!-- Generated by Microsoft Visio, SVG Export SNMP_adminOccupancyMIB_Hierarchy-v2.png.svg Page-1 -->
<svg xmlns="http://www.w3.org/2000/svg" xmlns:xlink="http://www.w3.org/1999/xlink" xmlns:ev="http://www.w3.org/2001/xml-events"
		xmlns:v="http://schemas.microsoft.com/visio/2003/SVGExtensions/" width="8.3882in" height="7.64855in"
		viewBox="0 0 603.95 550.696" xml:space="preserve" color-interpolation-filters="sRGB" class="st10">
	<v:documentProperties v:langID="1033" v:viewMarkup="false">
		<v:userDefs>
			<v:ud v:nameU="msvConvertTheme"/>
			<v:ud v:nameU="DocShowPicture" v:prompt="" v:val="VT0(1):26"/>
		</v:userDefs>
	</v:documentProperties>

	<style type="text/css">
	<![CDATA[
		.st1 {fill:#fcebdd}
		.st2 {stroke:#000000;stroke-linecap:round;stroke-linejoin:round;stroke-width:0.72}
		.st3 {fill:#000000;font-family:Arial;font-size:1.00001em}
		.st4 {font-size:1em}
		.st5 {fill:none;stroke:none;stroke-linecap:round;stroke-linejoin:round;stroke-width:0.72}
		.st6 {marker-end:url(#mrkr5-87);stroke:#000000;stroke-linecap:round;stroke-linejoin:round;stroke-width:0.72}
		.st7 {fill:#000000;fill-opacity:1;stroke:#000000;stroke-opacity:1;stroke-width:0.22222222222222}
		.st8 {fill:#e5b9b5}
		.st9 {fill:#ccc2d9}
		.st10 {fill:none;fill-rule:evenodd;font-size:12px;overflow:visible;stroke-linecap:square;stroke-miterlimit:3}
	]]>
	</style>

	<defs id="Markers">
		<g id="lend5">
			<path d="M 2 1 L 0 0 L 1.98117 -0.993387 C 1.67173 -0.364515 1.67301 0.372641 1.98465 1.00043 " style="stroke:none"/>
		</g>
		<marker id="mrkr5-87" class="st7" v:arrowType="5" v:arrowSize="2" v:setback="7.875" refX="-7.875" orient="auto"
				markerUnits="strokeWidth" overflow="visible">
			<use xlink:href="#lend5" transform="scale(-4.5,-4.5) "/>
		</marker>
	</defs>
	<g v:mID="0" v:index="1" v:groupContext="foregroundPage">
		<title>Page-1</title>
		<v:pageProperties v:drawingScale="1" v:pageScale="1" v:drawingUnits="0" v:shadowOffsetX="9" v:shadowOffsetY="-9"/>
		<v:layer v:name="Connector" v:index="0"/>
		<g id="group1-1" transform="translate(36.3053,-374.586) rotate(0.2)" v:mID="1" v:groupContext="group">
			<v:custProps>
				<v:cp v:nameU="Department" v:lbl="Department" v:type="0" v:invis="false" v:ask="false" v:langID="1033" v:cal="0"
						v:val="VT4(Department)"/>
				<v:cp v:nameU="Telephone" v:lbl="Telephone" v:type="0" v:invis="false" v:ask="false" v:langID="1033" v:cal="0"
						v:val="VT4(Telephone)"/>
				<v:cp v:nameU="Name" v:lbl="Name" v:type="0" v:invis="false" v:ask="false" v:langID="1033" v:cal="0"
						v:val="VT4(Name)"/>
				<v:cp v:nameU="Title" v:lbl="Title" v:type="0" v:invis="false" v:ask="false" v:langID="1033" v:cal="0"
						v:val="VT4(Title)"/>
				<v:cp v:nameU="Email" v:lbl="E-mail" v:type="0" v:invis="false" v:ask="false" v:langID="1033" v:cal="0"
						v:val="VT4(E-mail)"/>
				<v:cp v:nameU="Name" v:lbl="" v:prompt="" v:type="0" v:format="" v:sortKey="" v:invis="false" v:ask="false"
						v:langID="0" v:cal="0" v:val="VT4(adminOccupancyMIB)"/>
				<v:cp v:nameU="Calendar" v:lbl="" v:prompt="" v:type="0" v:format="" v:sortKey="" v:invis="false" v:ask="false"
						v:langID="0" v:cal="0"/>
			</v:custProps>
			<v:userDefs>
				<v:ud v:nameU="Solsh" v:prompt="" v:val="VT15({0BF98B35-200C-41D5-8A23-20EF77CBC94A}):41"/>
				<v:ud v:nameU="ShapeType" v:prompt="" v:val="VT0(1):26"/>
				<v:ud v:nameU="ShowPicture" v:prompt="" v:val="VT0(0):26"/>
				<v:ud v:nameU="ShowSubordinates" v:prompt="" v:val="VT0(1):26"/>
				<v:ud v:nameU="DocShowPicture" v:prompt="" v:val="VT0(1):26"/>
				<v:ud v:nameU="Margin" v:prompt="" v:val="VT0(0.025):0"/>
				<v:ud v:nameU="HasSubordinates" v:prompt="" v:val="VT0(0):26"/>
				<v:ud v:nameU="IsHidingSubs" v:prompt="" v:val="VT0(0):5"/>
				<v:ud v:nameU="ShowDivider" v:prompt="" v:val="VT0(0):26"/>
				<v:ud v:nameU="ThisLayoutStyle" v:prompt="" v:val="VT0(0):26"/>
				<v:ud v:nameU="HasPicture" v:prompt="" v:val="VT0(0):26"/>
				<v:ud v:nameU="Width" v:prompt="" v:val="VT0(1):0"/>
				<v:ud v:nameU="Height" v:prompt="" v:val="VT0(0.5):0"/>
				<v:ud v:nameU="Prop" v:prompt=""/>
				<v:ud v:nameU="PictureAspectRatio" v:prompt="" v:val="VT0(1):26"/>
				<v:ud v:nameU="PictureID" v:prompt=""/>
				<v:ud v:nameU="SetWidth" v:prompt=""/>
				<v:ud v:nameU="SetHeight" v:prompt=""/>
				<v:ud v:nameU="PositionID" v:prompt="" v:val="VT0(0):26"/>
				<v:ud v:nameU="DeltaX" v:prompt="" v:val="VT0(0):26"/>
				<v:ud v:nameU="DeltaY" v:prompt="" v:val="VT0(0):26"/>
				<v:ud v:nameU="ParLocX" v:prompt="" v:val="VT0(0):26"/>
				<v:ud v:nameU="ParLocY" v:prompt="" v:val="VT0(0):26"/>
				<v:ud v:nameU="PageLoc" v:prompt="" v:val="VT0(0):26"/>
				<v:ud v:nameU="ParLoc" v:prompt="" v:val="VT0(0):26"/>
				<v:ud v:nameU="PictureAreaWidth" v:prompt="" v:val="VT0(0.26944444444444):0"/>
				<v:ud v:nameU="PictureAreaHeight" v:prompt="" v:val="VT0(0.43611111111111):0"/>
				<v:ud v:nameU="PictureAreaAspectRatio" v:prompt="" v:val="VT0(0.61783439490446):26"/>
				<v:ud v:nameU="PictureWidth" v:prompt="" v:val="VT0(0.26944444444444):0"/>
				<v:ud v:nameU="PictureHeight" v:prompt="" v:val="VT0(0.26944444444444):0"/>
				<v:ud v:nameU="DividerOffset" v:prompt="" v:val="VT0(0.2500244913737):0"/>
				<v:ud v:nameU="CalcTextLineHeight" v:prompt="" v:val="VT0(0.13333333333333):29"/>
				<v:ud v:nameU="ExpandedForPicture" v:prompt="" v:val="VT0(0):26"/>
				<v:ud v:nameU="Theme" v:prompt="" v:val="VT0(0):26"/>
				<v:ud v:nameU="visVersion" v:prompt="" v:val="VT0(12):26"/>
				<v:ud v:nameU="Width" v:prompt="" v:val="VT0(1.8082403863934):1"/>
				<v:ud v:nameU="Height" v:prompt="" v:val="VT0(0.8177258583946):1"/>
				<v:ud v:nameU="Prop" v:prompt="" v:val="VT4(Name)"/>
				<v:ud v:nameU="PositionID" v:prompt="" v:val="VT4({0FC56931-6646-47B9-A049-0FC6612B486C})"/>
				<v:ud v:nameU="PictureAreaWidth" v:prompt="" v:val="VT0(0.53885790657558):0"/>
				<v:ud v:nameU="PictureAreaHeight" v:prompt="" v:val="VT0(0.75383696950571):0"/>
				<v:ud v:nameU="PictureAreaAspectRatio" v:prompt="" v:val="VT0(0.71482021759813):26"/>
				<v:ud v:nameU="PictureWidth" v:prompt="" v:val="VT0(0.53885790657558):0"/>
				<v:ud v:nameU="PictureHeight" v:prompt="" v:val="VT0(0.53885790657558):0"/>
				<v:ud v:nameU="DividerOffset" v:prompt="" v:val="VT0(0.40888945507621):29"/>
				<v:ud v:nameU="CalcTextLineHeight" v:prompt="" v:val="VT0(0.2):29"/>
			</v:userDefs>
			<title>Manager.32</title>
			<desc>adminOccupancyMIB 3</desc>
			<g id="shape1-2" v:mID="1" v:groupContext="groupContent">
				<v:textBlock v:margins="rect(0,0,0,0)"/>
				<v:textRect cx="65.0967" cy="521.257" width="123.69" height="29.4381"/>
				<path d="M0 550.7 L0 491.82 L130.19 491.82 L130.19 550.7 L0 550.7 Z" class="st1"/>
				<path d="M0 550.7 L0 491.82 L130.19 491.82 L130.19 550.7 L0 550.7" class="st2"/>
				<path d="M1.8 548.9 L1.8 493.62 L128.39 493.62 L128.39 548.9 L1.8 548.9" class="st2"/>
				<text x="8.07" y="517.66" class="st3" v:langID="1033"><v:paragraph v:horizAlign="1"/><v:tabList/>adminOccupancyMIB<v:newlineChar/><tspan
							x="61.76" dy="1.2em" class="st4">3</tspan></text>			</g>
		</g>
		<g id="group11-8" transform="translate(234.001,-259.47) rotate(0.2)" v:mID="11" v:groupContext="group">
			<v:custProps>
				<v:cp v:nameU="Department" v:lbl="Department" v:type="0" v:invis="false" v:ask="false" v:langID="1033" v:cal="0"
						v:val="VT4(Department)"/>
				<v:cp v:nameU="Telephone" v:lbl="Telephone" v:type="0" v:invis="false" v:ask="false" v:langID="1033" v:cal="0"
						v:val="VT4(Telephone)"/>
				<v:cp v:nameU="Name" v:lbl="Name" v:type="0" v:invis="false" v:ask="false" v:langID="1033" v:cal="0"
						v:val="VT4(Name)"/>
				<v:cp v:nameU="Title" v:lbl="Title" v:type="0" v:invis="false" v:ask="false" v:langID="1033" v:cal="0"
						v:val="VT4(Title)"/>
				<v:cp v:nameU="Email" v:lbl="E-mail" v:type="0" v:invis="false" v:ask="false" v:langID="1033" v:cal="0"
						v:val="VT4(E-mail)"/>
				<v:cp v:nameU="Name" v:lbl="" v:prompt="" v:type="0" v:format="" v:sortKey="" v:invis="false" v:ask="false"
						v:langID="0" v:cal="0" v:val="VT4(teknoAdminEventList 1)"/>
				<v:cp v:nameU="Calendar" v:lbl="" v:prompt="" v:type="0" v:format="" v:sortKey="" v:invis="false" v:ask="false"
						v:langID="0" v:cal="0"/>
			</v:custProps>
			<v:userDefs>
				<v:ud v:nameU="Solsh" v:prompt="" v:val="VT15({0BF98B35-200C-41D5-8A23-20EF77CBC94A}):41"/>
				<v:ud v:nameU="ShapeType" v:prompt="" v:val="VT0(1):26"/>
				<v:ud v:nameU="ShowPicture" v:prompt="" v:val="VT0(0):26"/>
				<v:ud v:nameU="ShowSubordinates" v:prompt="" v:val="VT0(1):26"/>
				<v:ud v:nameU="DocShowPicture" v:prompt="" v:val="VT0(1):26"/>
				<v:ud v:nameU="Margin" v:prompt="" v:val="VT0(0.025):0"/>
				<v:ud v:nameU="HasSubordinates" v:prompt="" v:val="VT0(0):26"/>
				<v:ud v:nameU="IsHidingSubs" v:prompt="" v:val="VT0(0):5"/>
				<v:ud v:nameU="ShowDivider" v:prompt="" v:val="VT0(0):26"/>
				<v:ud v:nameU="ThisLayoutStyle" v:prompt="" v:val="VT0(0):26"/>
				<v:ud v:nameU="HasPicture" v:prompt="" v:val="VT0(0):26"/>
				<v:ud v:nameU="Width" v:prompt="" v:val="VT0(1):0"/>
				<v:ud v:nameU="Height" v:prompt="" v:val="VT0(0.5):0"/>
				<v:ud v:nameU="Prop" v:prompt=""/>
				<v:ud v:nameU="PictureAspectRatio" v:prompt="" v:val="VT0(1):26"/>
				<v:ud v:nameU="PictureID" v:prompt=""/>
				<v:ud v:nameU="SetWidth" v:prompt=""/>
				<v:ud v:nameU="SetHeight" v:prompt=""/>
				<v:ud v:nameU="PositionID" v:prompt="" v:val="VT0(0):26"/>
				<v:ud v:nameU="DeltaX" v:prompt="" v:val="VT0(0):26"/>
				<v:ud v:nameU="DeltaY" v:prompt="" v:val="VT0(0):26"/>
				<v:ud v:nameU="ParLocX" v:prompt="" v:val="VT0(0):26"/>
				<v:ud v:nameU="ParLocY" v:prompt="" v:val="VT0(0):26"/>
				<v:ud v:nameU="PageLoc" v:prompt="" v:val="VT0(0):26"/>
				<v:ud v:nameU="ParLoc" v:prompt="" v:val="VT0(0):26"/>
				<v:ud v:nameU="PictureAreaWidth" v:prompt="" v:val="VT0(0.26944444444444):0"/>
				<v:ud v:nameU="PictureAreaHeight" v:prompt="" v:val="VT0(0.43611111111111):0"/>
				<v:ud v:nameU="PictureAreaAspectRatio" v:prompt="" v:val="VT0(0.61783439490446):26"/>
				<v:ud v:nameU="PictureWidth" v:prompt="" v:val="VT0(0.26944444444444):0"/>
				<v:ud v:nameU="PictureHeight" v:prompt="" v:val="VT0(0.26944444444444):0"/>
				<v:ud v:nameU="DividerOffset" v:prompt="" v:val="VT0(0.2500244913737):0"/>
				<v:ud v:nameU="CalcTextLineHeight" v:prompt="" v:val="VT0(0.13333333333333):29"/>
				<v:ud v:nameU="ExpandedForPicture" v:prompt="" v:val="VT0(0):26"/>
				<v:ud v:nameU="Theme" v:prompt="" v:val="VT0(0):26"/>
				<v:ud v:nameU="visVersion" v:prompt="" v:val="VT0(12):26"/>
				<v:ud v:nameU="Width" v:prompt="" v:val="VT0(1.9933358590164):1"/>
				<v:ud v:nameU="Height" v:prompt="" v:val="VT0(0.90143008012003):1"/>
				<v:ud v:nameU="Prop" v:prompt="" v:val="VT4(Name)"/>
				<v:ud v:nameU="PositionID" v:prompt="" v:val="VT4({3A6DC411-E203-46E8-9FD1-0F11E0D4A113})"/>
				<v:ud v:nameU="PictureAreaWidth" v:prompt="" v:val="VT0(0.6005563974499):0"/>
				<v:ud v:nameU="PictureAreaHeight" v:prompt="" v:val="VT0(0.83754119123114):0"/>
				<v:ud v:nameU="PictureAreaAspectRatio" v:prompt="" v:val="VT0(0.71704699868804):26"/>
				<v:ud v:nameU="PictureWidth" v:prompt="" v:val="VT0(0.6005563974499):0"/>
				<v:ud v:nameU="PictureHeight" v:prompt="" v:val="VT0(0.6005563974499):0"/>
				<v:ud v:nameU="DividerOffset" v:prompt="" v:val="VT0(0.45074156593892):29"/>
				<v:ud v:nameU="CalcTextLineHeight" v:prompt="" v:val="VT0(0.2):29"/>
			</v:userDefs>
			<title>Manager.42</title>
			<desc>teknoAdminEventList 1</desc>
			<g id="shape11-9" v:mID="11" v:groupContext="groupContent">
				<v:textBlock v:margins="rect(0,0,0,0)"/>
				<v:textRect cx="71.7601" cy="518.244" width="136.35" height="32.4515"/>
				<path d="M0 550.7 L0 485.79 L143.52 485.79 L143.52 550.7 L0 550.7 Z" class="st1"/>
				<path d="M0 550.7 L0 485.79 L143.52 485.79 L143.52 550.7 L0 550.7" class="st2"/>
				<path d="M1.8 548.9 L1.8 487.59 L141.72 487.59 L141.72 548.9 L1.8 548.9" class="st2"/>
				<text x="15.39" y="514.64" class="st3" v:langID="1033"><v:paragraph v:horizAlign="1"/><v:tabList/>teknoAdminEventList<v:lf/><tspan
							x="68.42" dy="1.2em" class="st4">1</tspan></text>			</g>
		</g>
		<g id="group28-15" transform="translate(101.281,-128.997) rotate(0.2)" v:mID="28" v:groupContext="group">
			<v:custProps>
				<v:cp v:nameU="Department" v:lbl="Department" v:type="0" v:invis="false" v:ask="false" v:langID="1033" v:cal="0"
						v:val="VT4(Department)"/>
				<v:cp v:nameU="Telephone" v:lbl="Telephone" v:type="0" v:invis="false" v:ask="false" v:langID="1033" v:cal="0"
						v:val="VT4(Telephone)"/>
				<v:cp v:nameU="Name" v:lbl="Name" v:type="0" v:invis="false" v:ask="false" v:langID="1033" v:cal="0"
						v:val="VT4(Name)"/>
				<v:cp v:nameU="Title" v:lbl="Title" v:type="0" v:invis="false" v:ask="false" v:langID="1033" v:cal="0"
						v:val="VT4(Title)"/>
				<v:cp v:nameU="Email" v:lbl="E-mail" v:type="0" v:invis="false" v:ask="false" v:langID="1033" v:cal="0"
						v:val="VT4(E-mail)"/>
				<v:cp v:nameU="Name" v:lbl="" v:prompt="" v:type="0" v:format="" v:sortKey="" v:invis="false" v:ask="false"
						v:langID="0" v:cal="0" v:val="VT4(teknoLinkID)"/>
				<v:cp v:nameU="Calendar" v:lbl="" v:prompt="" v:type="0" v:format="" v:sortKey="" v:invis="false" v:ask="false"
						v:langID="0" v:cal="0"/>
			</v:custProps>
			<v:userDefs>
				<v:ud v:nameU="Solsh" v:prompt="" v:val="VT15({0BF98B35-200C-41D5-8A23-20EF77CBC94A}):41"/>
				<v:ud v:nameU="ShapeType" v:prompt="" v:val="VT0(1):26"/>
				<v:ud v:nameU="ShowPicture" v:prompt="" v:val="VT0(0):26"/>
				<v:ud v:nameU="ShowSubordinates" v:prompt="" v:val="VT0(1):26"/>
				<v:ud v:nameU="DocShowPicture" v:prompt="" v:val="VT0(1):26"/>
				<v:ud v:nameU="Margin" v:prompt="" v:val="VT0(0.025):0"/>
				<v:ud v:nameU="HasSubordinates" v:prompt="" v:val="VT0(0):26"/>
				<v:ud v:nameU="IsHidingSubs" v:prompt="" v:val="VT0(0):5"/>
				<v:ud v:nameU="ShowDivider" v:prompt="" v:val="VT0(0):26"/>
				<v:ud v:nameU="ThisLayoutStyle" v:prompt="" v:val="VT0(0):26"/>
				<v:ud v:nameU="HasPicture" v:prompt="" v:val="VT0(0):26"/>
				<v:ud v:nameU="Width" v:prompt="" v:val="VT0(1):0"/>
				<v:ud v:nameU="Height" v:prompt="" v:val="VT0(0.5):0"/>
				<v:ud v:nameU="Prop" v:prompt=""/>
				<v:ud v:nameU="PictureAspectRatio" v:prompt="" v:val="VT0(1):26"/>
				<v:ud v:nameU="PictureID" v:prompt=""/>
				<v:ud v:nameU="SetWidth" v:prompt=""/>
				<v:ud v:nameU="SetHeight" v:prompt=""/>
				<v:ud v:nameU="PositionID" v:prompt="" v:val="VT0(0):26"/>
				<v:ud v:nameU="DeltaX" v:prompt="" v:val="VT0(0):26"/>
				<v:ud v:nameU="DeltaY" v:prompt="" v:val="VT0(0):26"/>
				<v:ud v:nameU="ParLocX" v:prompt="" v:val="VT0(0):26"/>
				<v:ud v:nameU="ParLocY" v:prompt="" v:val="VT0(0):26"/>
				<v:ud v:nameU="PageLoc" v:prompt="" v:val="VT0(0):26"/>
				<v:ud v:nameU="ParLoc" v:prompt="" v:val="VT0(0):26"/>
				<v:ud v:nameU="PictureAreaWidth" v:prompt="" v:val="VT0(0.26944444444444):0"/>
				<v:ud v:nameU="PictureAreaHeight" v:prompt="" v:val="VT0(0.43611111111111):0"/>
				<v:ud v:nameU="PictureAreaAspectRatio" v:prompt="" v:val="VT0(0.61783439490446):26"/>
				<v:ud v:nameU="PictureWidth" v:prompt="" v:val="VT0(0.26944444444444):0"/>
				<v:ud v:nameU="PictureHeight" v:prompt="" v:val="VT0(0.26944444444444):0"/>
				<v:ud v:nameU="DividerOffset" v:prompt="" v:val="VT0(0.2500244913737):0"/>
				<v:ud v:nameU="CalcTextLineHeight" v:prompt="" v:val="VT0(0.13333333333333):29"/>
				<v:ud v:nameU="ExpandedForPicture" v:prompt="" v:val="VT0(0):26"/>
				<v:ud v:nameU="Theme" v:prompt="" v:val="VT0(0):26"/>
				<v:ud v:nameU="visVersion" v:prompt="" v:val="VT0(12):26"/>
				<v:ud v:nameU="Width" v:prompt="" v:val="VT0(1.3049920489148):1"/>
				<v:ud v:nameU="Height" v:prompt="" v:val="VT0(0.91682021596173):1"/>
				<v:ud v:nameU="Prop" v:prompt="" v:val="VT4(Name)"/>
				<v:ud v:nameU="PositionID" v:prompt="" v:val="VT4({1ACD322C-842C-4949-BCCC-DC6E1A43FE34})"/>
				<v:ud v:nameU="PictureAreaWidth" v:prompt="" v:val="VT0(0.37110846074938):0"/>
				<v:ud v:nameU="PictureAreaHeight" v:prompt="" v:val="VT0(0.85293132707284):0"/>
				<v:ud v:nameU="PictureAreaAspectRatio" v:prompt="" v:val="VT0(0.43509770244104):26"/>
				<v:ud v:nameU="PictureWidth" v:prompt="" v:val="VT0(0.37110846074938):0"/>
				<v:ud v:nameU="PictureHeight" v:prompt="" v:val="VT0(0.37110846074938):0"/>
				<v:ud v:nameU="DividerOffset" v:prompt="" v:val="VT0(0.45843663385977):29"/>
				<v:ud v:nameU="CalcTextLineHeight" v:prompt="" v:val="VT0(0.2):29"/>
			</v:userDefs>
			<title>Manager.28</title>
			<desc>teknoLinkID 2</desc>
			<g id="shape28-16" v:mID="28" v:groupContext="groupContent">
				<v:textBlock v:margins="rect(0,0,0,0)"/>
				<v:textRect cx="46.9797" cy="517.69" width="89.27" height="33.0055"/>
				<path d="M0 550.7 L0 484.68 L93.96 484.68 L93.96 550.7 L0 550.7 Z" class="st1"/>
				<path d="M0 550.7 L0 484.68 L93.96 484.68 L93.96 550.7 L0 550.7" class="st2"/>
				<path d="M1.8 548.9 L1.8 486.48 L92.16 486.48 L92.16 548.9 L1.8 548.9" class="st2"/>
				<text x="15.29" y="514.09" class="st3" v:langID="1033"><v:paragraph v:horizAlign="1"/><v:tabList/>teknoLinkID<v:newlineChar/><tspan
							x="43.64" dy="1.2em" class="st4">2</tspan></text>			</g>
		</g>
		<g id="group33-22" transform="translate(2.28229,-129.456) rotate(0.2)" v:mID="33" v:groupContext="group">
			<v:custProps>
				<v:cp v:nameU="Department" v:lbl="Department" v:type="0" v:invis="false" v:ask="false" v:langID="1033" v:cal="0"
						v:val="VT4(Department)"/>
				<v:cp v:nameU="Telephone" v:lbl="Telephone" v:type="0" v:invis="false" v:ask="false" v:langID="1033" v:cal="0"
						v:val="VT4(Telephone)"/>
				<v:cp v:nameU="Name" v:lbl="Name" v:type="0" v:invis="false" v:ask="false" v:langID="1033" v:cal="0"
						v:val="VT4(Name)"/>
				<v:cp v:nameU="Title" v:lbl="Title" v:type="0" v:invis="false" v:ask="false" v:langID="1033" v:cal="0"
						v:val="VT4(Title)"/>
				<v:cp v:nameU="Email" v:lbl="E-mail" v:type="0" v:invis="false" v:ask="false" v:langID="1033" v:cal="0"
						v:val="VT4(E-mail)"/>
				<v:cp v:nameU="Name" v:lbl="" v:prompt="" v:type="0" v:format="" v:sortKey="" v:invis="false" v:ask="false"
						v:langID="0" v:cal="0" v:val="VT4(eventType)"/>
				<v:cp v:nameU="Calendar" v:lbl="" v:prompt="" v:type="0" v:format="" v:sortKey="" v:invis="false" v:ask="false"
						v:langID="0" v:cal="0"/>
			</v:custProps>
			<v:userDefs>
				<v:ud v:nameU="Solsh" v:prompt="" v:val="VT15({0BF98B35-200C-41D5-8A23-20EF77CBC94A}):41"/>
				<v:ud v:nameU="ShapeType" v:prompt="" v:val="VT0(1):26"/>
				<v:ud v:nameU="ShowPicture" v:prompt="" v:val="VT0(0):26"/>
				<v:ud v:nameU="ShowSubordinates" v:prompt="" v:val="VT0(1):26"/>
				<v:ud v:nameU="DocShowPicture" v:prompt="" v:val="VT0(1):26"/>
				<v:ud v:nameU="Margin" v:prompt="" v:val="VT0(0.025):0"/>
				<v:ud v:nameU="HasSubordinates" v:prompt="" v:val="VT0(0):26"/>
				<v:ud v:nameU="IsHidingSubs" v:prompt="" v:val="VT0(0):5"/>
				<v:ud v:nameU="ShowDivider" v:prompt="" v:val="VT0(0):26"/>
				<v:ud v:nameU="ThisLayoutStyle" v:prompt="" v:val="VT0(0):26"/>
				<v:ud v:nameU="HasPicture" v:prompt="" v:val="VT0(0):26"/>
				<v:ud v:nameU="Width" v:prompt="" v:val="VT0(1):0"/>
				<v:ud v:nameU="Height" v:prompt="" v:val="VT0(0.5):0"/>
				<v:ud v:nameU="Prop" v:prompt=""/>
				<v:ud v:nameU="PictureAspectRatio" v:prompt="" v:val="VT0(1):26"/>
				<v:ud v:nameU="PictureID" v:prompt=""/>
				<v:ud v:nameU="SetWidth" v:prompt=""/>
				<v:ud v:nameU="SetHeight" v:prompt=""/>
				<v:ud v:nameU="PositionID" v:prompt="" v:val="VT0(0):26"/>
				<v:ud v:nameU="DeltaX" v:prompt="" v:val="VT0(0):26"/>
				<v:ud v:nameU="DeltaY" v:prompt="" v:val="VT0(0):26"/>
				<v:ud v:nameU="ParLocX" v:prompt="" v:val="VT0(0):26"/>
				<v:ud v:nameU="ParLocY" v:prompt="" v:val="VT0(0):26"/>
				<v:ud v:nameU="PageLoc" v:prompt="" v:val="VT0(0):26"/>
				<v:ud v:nameU="ParLoc" v:prompt="" v:val="VT0(0):26"/>
				<v:ud v:nameU="PictureAreaWidth" v:prompt="" v:val="VT0(0.26944444444444):0"/>
				<v:ud v:nameU="PictureAreaHeight" v:prompt="" v:val="VT0(0.43611111111111):0"/>
				<v:ud v:nameU="PictureAreaAspectRatio" v:prompt="" v:val="VT0(0.61783439490446):26"/>
				<v:ud v:nameU="PictureWidth" v:prompt="" v:val="VT0(0.26944444444444):0"/>
				<v:ud v:nameU="PictureHeight" v:prompt="" v:val="VT0(0.26944444444444):0"/>
				<v:ud v:nameU="DividerOffset" v:prompt="" v:val="VT0(0.2500244913737):0"/>
				<v:ud v:nameU="CalcTextLineHeight" v:prompt="" v:val="VT0(0.13333333333333):29"/>
				<v:ud v:nameU="ExpandedForPicture" v:prompt="" v:val="VT0(0):26"/>
				<v:ud v:nameU="Theme" v:prompt="" v:val="VT0(0):26"/>
				<v:ud v:nameU="visVersion" v:prompt="" v:val="VT0(12):26"/>
				<v:ud v:nameU="Width" v:prompt="" v:val="VT0(1.2499923844375):1"/>
				<v:ud v:nameU="Height" v:prompt="" v:val="VT0(0.91682021596173):1"/>
				<v:ud v:nameU="Prop" v:prompt="" v:val="VT4(Name)"/>
				<v:ud v:nameU="PositionID" v:prompt="" v:val="VT4({6BB3F10E-4DBA-45D2-80E0-9BDE81FEE0CD})"/>
				<v:ud v:nameU="PictureAreaWidth" v:prompt="" v:val="VT0(0.35277523925695):0"/>
				<v:ud v:nameU="PictureAreaHeight" v:prompt="" v:val="VT0(0.85293132707284):0"/>
				<v:ud v:nameU="PictureAreaAspectRatio" v:prompt="" v:val="VT0(0.41360333248356):26"/>
				<v:ud v:nameU="PictureWidth" v:prompt="" v:val="VT0(0.35277523925695):0"/>
				<v:ud v:nameU="PictureHeight" v:prompt="" v:val="VT0(0.35277523925695):0"/>
				<v:ud v:nameU="DividerOffset" v:prompt="" v:val="VT0(0.45843663385977):29"/>
				<v:ud v:nameU="CalcTextLineHeight" v:prompt="" v:val="VT0(0.2):29"/>
			</v:userDefs>
			<title>Manager.33</title>
			<desc>eventType 1</desc>
			<g id="shape33-23" v:mID="33" v:groupContext="groupContent">
				<v:textBlock v:margins="rect(0,0,0,0)"/>
				<v:textRect cx="44.9997" cy="517.69" width="85.5" height="33.0055"/>
				<path d="M0 550.7 L0 484.68 L90 484.68 L90 550.7 L0 550.7 Z" class="st1"/>
				<path d="M0 550.7 L0 484.68 L90 484.68 L90 550.7 L0 550.7" class="st2"/>
				<path d="M1.8 548.9 L1.8 486.48 L88.2 486.48 L88.2 548.9 L1.8 548.9" class="st2"/>
				<text x="16.98" y="514.09" class="st3" v:langID="1033"><v:paragraph v:horizAlign="1"/><v:tabList/>eventType<v:newlineChar/><tspan
							x="41.66" dy="1.2em" class="st4">1</tspan></text>			</g>
		</g>
		<g id="group38-29" transform="translate(205.319,-128.511) rotate(0.2)" v:mID="38" v:groupContext="group">
			<v:custProps>
				<v:cp v:nameU="Department" v:lbl="Department" v:type="0" v:invis="false" v:ask="false" v:langID="1033" v:cal="0"
						v:val="VT4(Department)"/>
				<v:cp v:nameU="Telephone" v:lbl="Telephone" v:type="0" v:invis="false" v:ask="false" v:langID="1033" v:cal="0"
						v:val="VT4(Telephone)"/>
				<v:cp v:nameU="Name" v:lbl="Name" v:type="0" v:invis="false" v:ask="false" v:langID="1033" v:cal="0"
						v:val="VT4(Name)"/>
				<v:cp v:nameU="Title" v:lbl="Title" v:type="0" v:invis="false" v:ask="false" v:langID="1033" v:cal="0"
						v:val="VT4(Title)"/>
				<v:cp v:nameU="Email" v:lbl="E-mail" v:type="0" v:invis="false" v:ask="false" v:langID="1033" v:cal="0"
						v:val="VT4(E-mail)"/>
				<v:cp v:nameU="Name" v:lbl="" v:prompt="" v:type="0" v:format="" v:sortKey="" v:invis="false" v:ask="false"
						v:langID="0" v:cal="0" v:val="VT4(unitID)"/>
				<v:cp v:nameU="Calendar" v:lbl="" v:prompt="" v:type="0" v:format="" v:sortKey="" v:invis="false" v:ask="false"
						v:langID="0" v:cal="0"/>
			</v:custProps>
			<v:userDefs>
				<v:ud v:nameU="Solsh" v:prompt="" v:val="VT15({0BF98B35-200C-41D5-8A23-20EF77CBC94A}):41"/>
				<v:ud v:nameU="ShapeType" v:prompt="" v:val="VT0(1):26"/>
				<v:ud v:nameU="ShowPicture" v:prompt="" v:val="VT0(0):26"/>
				<v:ud v:nameU="ShowSubordinates" v:prompt="" v:val="VT0(1):26"/>
				<v:ud v:nameU="DocShowPicture" v:prompt="" v:val="VT0(1):26"/>
				<v:ud v:nameU="Margin" v:prompt="" v:val="VT0(0.025):0"/>
				<v:ud v:nameU="HasSubordinates" v:prompt="" v:val="VT0(0):26"/>
				<v:ud v:nameU="IsHidingSubs" v:prompt="" v:val="VT0(0):5"/>
				<v:ud v:nameU="ShowDivider" v:prompt="" v:val="VT0(0):26"/>
				<v:ud v:nameU="ThisLayoutStyle" v:prompt="" v:val="VT0(0):26"/>
				<v:ud v:nameU="HasPicture" v:prompt="" v:val="VT0(0):26"/>
				<v:ud v:nameU="Width" v:prompt="" v:val="VT0(1):0"/>
				<v:ud v:nameU="Height" v:prompt="" v:val="VT0(0.5):0"/>
				<v:ud v:nameU="Prop" v:prompt=""/>
				<v:ud v:nameU="PictureAspectRatio" v:prompt="" v:val="VT0(1):26"/>
				<v:ud v:nameU="PictureID" v:prompt=""/>
				<v:ud v:nameU="SetWidth" v:prompt=""/>
				<v:ud v:nameU="SetHeight" v:prompt=""/>
				<v:ud v:nameU="PositionID" v:prompt="" v:val="VT0(0):26"/>
				<v:ud v:nameU="DeltaX" v:prompt="" v:val="VT0(0):26"/>
				<v:ud v:nameU="DeltaY" v:prompt="" v:val="VT0(0):26"/>
				<v:ud v:nameU="ParLocX" v:prompt="" v:val="VT0(0):26"/>
				<v:ud v:nameU="ParLocY" v:prompt="" v:val="VT0(0):26"/>
				<v:ud v:nameU="PageLoc" v:prompt="" v:val="VT0(0):26"/>
				<v:ud v:nameU="ParLoc" v:prompt="" v:val="VT0(0):26"/>
				<v:ud v:nameU="PictureAreaWidth" v:prompt="" v:val="VT0(0.26944444444444):0"/>
				<v:ud v:nameU="PictureAreaHeight" v:prompt="" v:val="VT0(0.43611111111111):0"/>
				<v:ud v:nameU="PictureAreaAspectRatio" v:prompt="" v:val="VT0(0.61783439490446):26"/>
				<v:ud v:nameU="PictureWidth" v:prompt="" v:val="VT0(0.26944444444444):0"/>
				<v:ud v:nameU="PictureHeight" v:prompt="" v:val="VT0(0.26944444444444):0"/>
				<v:ud v:nameU="DividerOffset" v:prompt="" v:val="VT0(0.2500244913737):0"/>
				<v:ud v:nameU="CalcTextLineHeight" v:prompt="" v:val="VT0(0.13333333333333):29"/>
				<v:ud v:nameU="ExpandedForPicture" v:prompt="" v:val="VT0(0):26"/>
				<v:ud v:nameU="Theme" v:prompt="" v:val="VT0(0):26"/>
				<v:ud v:nameU="visVersion" v:prompt="" v:val="VT0(12):26"/>
				<v:ud v:nameU="Width" v:prompt="" v:val="VT0(1.3049920496323):1"/>
				<v:ud v:nameU="Height" v:prompt="" v:val="VT0(0.91682021596173):1"/>
				<v:ud v:nameU="Prop" v:prompt="" v:val="VT4(Name)"/>
				<v:ud v:nameU="PositionID" v:prompt="" v:val="VT4({D9A7CE0E-A00D-4EF0-86D8-D14CF437BB1A})"/>
				<v:ud v:nameU="PictureAreaWidth" v:prompt="" v:val="VT0(0.37110846098854):0"/>
				<v:ud v:nameU="PictureAreaHeight" v:prompt="" v:val="VT0(0.85293132707284):0"/>
				<v:ud v:nameU="PictureAreaAspectRatio" v:prompt="" v:val="VT0(0.43509770272144):26"/>
				<v:ud v:nameU="PictureWidth" v:prompt="" v:val="VT0(0.37110846098854):0"/>
				<v:ud v:nameU="PictureHeight" v:prompt="" v:val="VT0(0.37110846098854):0"/>
				<v:ud v:nameU="DividerOffset" v:prompt="" v:val="VT0(0.45843663385977):29"/>
				<v:ud v:nameU="CalcTextLineHeight" v:prompt="" v:val="VT0(0.2):29"/>
			</v:userDefs>
			<title>Manager.38</title>
			<desc>unitID 3</desc>
			<g id="shape38-30" v:mID="38" v:groupContext="groupContent">
				<v:textBlock v:margins="rect(0,0,0,0)"/>
				<v:textRect cx="46.9797" cy="517.69" width="89.27" height="33.0055"/>
				<path d="M0 550.7 L0 484.68 L93.96 484.68 L93.96 550.7 L0 550.7 Z" class="st1"/>
				<path d="M0 550.7 L0 484.68 L93.96 484.68 L93.96 550.7 L0 550.7" class="st2"/>
				<path d="M1.8 548.9 L1.8 486.48 L92.16 486.48 L92.16 548.9 L1.8 548.9" class="st2"/>
				<text x="31.31" y="514.09" class="st3" v:langID="1033"><v:paragraph v:horizAlign="1"/><v:tabList/>unitID<v:newlineChar/><tspan
							x="43.64" dy="1.2em" class="st4">3</tspan></text>			</g>
		</g>
		<g id="group43-36" transform="translate(313.317,-127.976) rotate(0.2)" v:mID="43" v:groupContext="group">
			<v:custProps>
				<v:cp v:nameU="Department" v:lbl="Department" v:type="0" v:invis="false" v:ask="false" v:langID="1033" v:cal="0"
						v:val="VT4(Department)"/>
				<v:cp v:nameU="Telephone" v:lbl="Telephone" v:type="0" v:invis="false" v:ask="false" v:langID="1033" v:cal="0"
						v:val="VT4(Telephone)"/>
				<v:cp v:nameU="Name" v:lbl="Name" v:type="0" v:invis="false" v:ask="false" v:langID="1033" v:cal="0"
						v:val="VT4(Name)"/>
				<v:cp v:nameU="Title" v:lbl="Title" v:type="0" v:invis="false" v:ask="false" v:langID="1033" v:cal="0"
						v:val="VT4(Title)"/>
				<v:cp v:nameU="Email" v:lbl="E-mail" v:type="0" v:invis="false" v:ask="false" v:langID="1033" v:cal="0"
						v:val="VT4(E-mail)"/>
				<v:cp v:nameU="Name" v:lbl="" v:prompt="" v:type="0" v:format="" v:sortKey="" v:invis="false" v:ask="false"
						v:langID="0" v:cal="0" v:val="VT4(direction)"/>
				<v:cp v:nameU="Calendar" v:lbl="" v:prompt="" v:type="0" v:format="" v:sortKey="" v:invis="false" v:ask="false"
						v:langID="0" v:cal="0"/>
			</v:custProps>
			<v:userDefs>
				<v:ud v:nameU="Solsh" v:prompt="" v:val="VT15({0BF98B35-200C-41D5-8A23-20EF77CBC94A}):41"/>
				<v:ud v:nameU="ShapeType" v:prompt="" v:val="VT0(1):26"/>
				<v:ud v:nameU="ShowPicture" v:prompt="" v:val="VT0(0):26"/>
				<v:ud v:nameU="ShowSubordinates" v:prompt="" v:val="VT0(1):26"/>
				<v:ud v:nameU="DocShowPicture" v:prompt="" v:val="VT0(1):26"/>
				<v:ud v:nameU="Margin" v:prompt="" v:val="VT0(0.025):0"/>
				<v:ud v:nameU="HasSubordinates" v:prompt="" v:val="VT0(0):26"/>
				<v:ud v:nameU="IsHidingSubs" v:prompt="" v:val="VT0(0):5"/>
				<v:ud v:nameU="ShowDivider" v:prompt="" v:val="VT0(0):26"/>
				<v:ud v:nameU="ThisLayoutStyle" v:prompt="" v:val="VT0(0):26"/>
				<v:ud v:nameU="HasPicture" v:prompt="" v:val="VT0(0):26"/>
				<v:ud v:nameU="Width" v:prompt="" v:val="VT0(1):0"/>
				<v:ud v:nameU="Height" v:prompt="" v:val="VT0(0.5):0"/>
				<v:ud v:nameU="Prop" v:prompt=""/>
				<v:ud v:nameU="PictureAspectRatio" v:prompt="" v:val="VT0(1):26"/>
				<v:ud v:nameU="PictureID" v:prompt=""/>
				<v:ud v:nameU="SetWidth" v:prompt=""/>
				<v:ud v:nameU="SetHeight" v:prompt=""/>
				<v:ud v:nameU="PositionID" v:prompt="" v:val="VT0(0):26"/>
				<v:ud v:nameU="DeltaX" v:prompt="" v:val="VT0(0):26"/>
				<v:ud v:nameU="DeltaY" v:prompt="" v:val="VT0(0):26"/>
				<v:ud v:nameU="ParLocX" v:prompt="" v:val="VT0(0):26"/>
				<v:ud v:nameU="ParLocY" v:prompt="" v:val="VT0(0):26"/>
				<v:ud v:nameU="PageLoc" v:prompt="" v:val="VT0(0):26"/>
				<v:ud v:nameU="ParLoc" v:prompt="" v:val="VT0(0):26"/>
				<v:ud v:nameU="PictureAreaWidth" v:prompt="" v:val="VT0(0.26944444444444):0"/>
				<v:ud v:nameU="PictureAreaHeight" v:prompt="" v:val="VT0(0.43611111111111):0"/>
				<v:ud v:nameU="PictureAreaAspectRatio" v:prompt="" v:val="VT0(0.61783439490446):26"/>
				<v:ud v:nameU="PictureWidth" v:prompt="" v:val="VT0(0.26944444444444):0"/>
				<v:ud v:nameU="PictureHeight" v:prompt="" v:val="VT0(0.26944444444444):0"/>
				<v:ud v:nameU="DividerOffset" v:prompt="" v:val="VT0(0.2500244913737):0"/>
				<v:ud v:nameU="CalcTextLineHeight" v:prompt="" v:val="VT0(0.13333333333333):29"/>
				<v:ud v:nameU="ExpandedForPicture" v:prompt="" v:val="VT0(0):26"/>
				<v:ud v:nameU="Theme" v:prompt="" v:val="VT0(0):26"/>
				<v:ud v:nameU="visVersion" v:prompt="" v:val="VT0(12):26"/>
				<v:ud v:nameU="ThisLayoutStyle" v:prompt="" v:val="VT0(100):26"/>
				<v:ud v:nameU="Width" v:prompt="" v:val="VT0(1.3049920493669):1"/>
				<v:ud v:nameU="Height" v:prompt="" v:val="VT0(0.91682021596173):1"/>
				<v:ud v:nameU="Prop" v:prompt="" v:val="VT4(Name)"/>
				<v:ud v:nameU="PositionID" v:prompt="" v:val="VT4({DD620D62-3145-4EA9-B2A6-21353FDE99B2})"/>
				<v:ud v:nameU="PictureAreaWidth" v:prompt="" v:val="VT0(0.37110846090008):0"/>
				<v:ud v:nameU="PictureAreaHeight" v:prompt="" v:val="VT0(0.85293132707284):0"/>
				<v:ud v:nameU="PictureAreaAspectRatio" v:prompt="" v:val="VT0(0.43509770261772):26"/>
				<v:ud v:nameU="PictureWidth" v:prompt="" v:val="VT0(0.37110846090008):0"/>
				<v:ud v:nameU="PictureHeight" v:prompt="" v:val="VT0(0.37110846090008):0"/>
				<v:ud v:nameU="DividerOffset" v:prompt="" v:val="VT0(0.45843663385977):29"/>
				<v:ud v:nameU="CalcTextLineHeight" v:prompt="" v:val="VT0(0.2):29"/>
			</v:userDefs>
			<title>Manager.43</title>
			<desc>direction 4</desc>
			<g id="shape43-37" v:mID="43" v:groupContext="groupContent">
				<v:textBlock v:margins="rect(0,0,0,0)"/>
				<v:textRect cx="46.9797" cy="517.69" width="89.27" height="33.0055"/>
				<path d="M0 550.7 L0 484.68 L93.96 484.68 L93.96 550.7 L0 550.7 Z" class="st1"/>
				<path d="M0 550.7 L0 484.68 L93.96 484.68 L93.96 550.7 L0 550.7" class="st2"/>
				<path d="M1.8 548.9 L1.8 486.48 L92.16 486.48 L92.16 548.9 L1.8 548.9" class="st2"/>
				<text x="24.3" y="514.09" class="st3" v:langID="1033"><v:paragraph v:horizAlign="1"/><v:tabList/>direction<v:newlineChar/><tspan
							x="43.64" dy="1.2em" class="st4">4</tspan></text>			</g>
		</g>
		<g id="group48-43" transform="translate(425.275,-127.46) rotate(0.2)" v:mID="48" v:groupContext="group">
			<v:custProps>
				<v:cp v:nameU="Department" v:lbl="Department" v:type="0" v:invis="false" v:ask="false" v:langID="1033" v:cal="0"
						v:val="VT4(Department)"/>
				<v:cp v:nameU="Telephone" v:lbl="Telephone" v:type="0" v:invis="false" v:ask="false" v:langID="1033" v:cal="0"
						v:val="VT4(Telephone)"/>
				<v:cp v:nameU="Name" v:lbl="Name" v:type="0" v:invis="false" v:ask="false" v:langID="1033" v:cal="0"
						v:val="VT4(Name)"/>
				<v:cp v:nameU="Title" v:lbl="Title" v:type="0" v:invis="false" v:ask="false" v:langID="1033" v:cal="0"
						v:val="VT4(Title)"/>
				<v:cp v:nameU="Email" v:lbl="E-mail" v:type="0" v:invis="false" v:ask="false" v:langID="1033" v:cal="0"
						v:val="VT4(E-mail)"/>
				<v:cp v:nameU="Name" v:lbl="" v:prompt="" v:type="0" v:format="" v:sortKey="" v:invis="false" v:ask="false"
						v:langID="0" v:cal="0" v:val="VT4(linkSet)"/>
				<v:cp v:nameU="Calendar" v:lbl="" v:prompt="" v:type="0" v:format="" v:sortKey="" v:invis="false" v:ask="false"
						v:langID="0" v:cal="0"/>
			</v:custProps>
			<v:userDefs>
				<v:ud v:nameU="Solsh" v:prompt="" v:val="VT15({0BF98B35-200C-41D5-8A23-20EF77CBC94A}):41"/>
				<v:ud v:nameU="ShapeType" v:prompt="" v:val="VT0(1):26"/>
				<v:ud v:nameU="ShowPicture" v:prompt="" v:val="VT0(0):26"/>
				<v:ud v:nameU="ShowSubordinates" v:prompt="" v:val="VT0(1):26"/>
				<v:ud v:nameU="DocShowPicture" v:prompt="" v:val="VT0(1):26"/>
				<v:ud v:nameU="Margin" v:prompt="" v:val="VT0(0.025):0"/>
				<v:ud v:nameU="HasSubordinates" v:prompt="" v:val="VT0(0):26"/>
				<v:ud v:nameU="IsHidingSubs" v:prompt="" v:val="VT0(0):5"/>
				<v:ud v:nameU="ShowDivider" v:prompt="" v:val="VT0(0):26"/>
				<v:ud v:nameU="ThisLayoutStyle" v:prompt="" v:val="VT0(0):26"/>
				<v:ud v:nameU="HasPicture" v:prompt="" v:val="VT0(0):26"/>
				<v:ud v:nameU="Width" v:prompt="" v:val="VT0(1):0"/>
				<v:ud v:nameU="Height" v:prompt="" v:val="VT0(0.5):0"/>
				<v:ud v:nameU="Prop" v:prompt=""/>
				<v:ud v:nameU="PictureAspectRatio" v:prompt="" v:val="VT0(1):26"/>
				<v:ud v:nameU="PictureID" v:prompt=""/>
				<v:ud v:nameU="SetWidth" v:prompt=""/>
				<v:ud v:nameU="SetHeight" v:prompt=""/>
				<v:ud v:nameU="PositionID" v:prompt="" v:val="VT0(0):26"/>
				<v:ud v:nameU="DeltaX" v:prompt="" v:val="VT0(0):26"/>
				<v:ud v:nameU="DeltaY" v:prompt="" v:val="VT0(0):26"/>
				<v:ud v:nameU="ParLocX" v:prompt="" v:val="VT0(0):26"/>
				<v:ud v:nameU="ParLocY" v:prompt="" v:val="VT0(0):26"/>
				<v:ud v:nameU="PageLoc" v:prompt="" v:val="VT0(0):26"/>
				<v:ud v:nameU="ParLoc" v:prompt="" v:val="VT0(0):26"/>
				<v:ud v:nameU="PictureAreaWidth" v:prompt="" v:val="VT0(0.26944444444444):0"/>
				<v:ud v:nameU="PictureAreaHeight" v:prompt="" v:val="VT0(0.43611111111111):0"/>
				<v:ud v:nameU="PictureAreaAspectRatio" v:prompt="" v:val="VT0(0.61783439490446):26"/>
				<v:ud v:nameU="PictureWidth" v:prompt="" v:val="VT0(0.26944444444444):0"/>
				<v:ud v:nameU="PictureHeight" v:prompt="" v:val="VT0(0.26944444444444):0"/>
				<v:ud v:nameU="DividerOffset" v:prompt="" v:val="VT0(0.2500244913737):0"/>
				<v:ud v:nameU="CalcTextLineHeight" v:prompt="" v:val="VT0(0.13333333333333):29"/>
				<v:ud v:nameU="ExpandedForPicture" v:prompt="" v:val="VT0(0):26"/>
				<v:ud v:nameU="Theme" v:prompt="" v:val="VT0(0):26"/>
				<v:ud v:nameU="visVersion" v:prompt="" v:val="VT0(12):26"/>
				<v:ud v:nameU="Width" v:prompt="" v:val="VT0(1.2499923846941):1"/>
				<v:ud v:nameU="Height" v:prompt="" v:val="VT0(0.91682021596173):1"/>
				<v:ud v:nameU="Prop" v:prompt="" v:val="VT4(Name)"/>
				<v:ud v:nameU="PositionID" v:prompt="" v:val="VT4({C88A107F-52B1-433A-AA19-6B6FF411D26E})"/>
				<v:ud v:nameU="ParLocX" v:prompt="" v:val="VT0(0):26"/>
				<v:ud v:nameU="ParLocY" v:prompt="" v:val="VT0(0):26"/>
				<v:ud v:nameU="PageLoc" v:prompt="" v:val="VT7(PNT(0,0)):40"/>
				<v:ud v:nameU="PictureAreaWidth" v:prompt="" v:val="VT0(0.35277523934247):0"/>
				<v:ud v:nameU="PictureAreaHeight" v:prompt="" v:val="VT0(0.85293132707284):0"/>
				<v:ud v:nameU="PictureAreaAspectRatio" v:prompt="" v:val="VT0(0.41360333258382):26"/>
				<v:ud v:nameU="PictureWidth" v:prompt="" v:val="VT0(0.35277523934247):0"/>
				<v:ud v:nameU="PictureHeight" v:prompt="" v:val="VT0(0.35277523934247):0"/>
				<v:ud v:nameU="DividerOffset" v:prompt="" v:val="VT0(0.45843663385977):29"/>
				<v:ud v:nameU="CalcTextLineHeight" v:prompt="" v:val="VT0(0.2):29"/>
			</v:userDefs>
			<title>Manager.48</title>
			<desc>linkSet 5</desc>
			<g id="shape48-44" v:mID="48" v:groupContext="groupContent">
				<v:textBlock v:margins="rect(0,0,0,0)"/>
				<v:textRect cx="44.9997" cy="517.69" width="85.5" height="33.0055"/>
				<path d="M0 550.7 L0 484.68 L90 484.68 L90 550.7 L0 550.7 Z" class="st1"/>
				<path d="M0 550.7 L0 484.68 L90 484.68 L90 550.7 L0 550.7" class="st2"/>
				<path d="M1.8 548.9 L1.8 486.48 L88.2 486.48 L88.2 548.9 L1.8 548.9" class="st2"/>
				<text x="26.99" y="514.09" class="st3" v:langID="1033"><v:paragraph v:horizAlign="1"/><v:tabList/>linkSet<v:newlineChar/><tspan
							x="41.66" dy="1.2em" class="st4">5</tspan></text>			</g>
		</g>
		<g id="group88-50" transform="translate(124.378,-0.744782) rotate(0.2)" v:mID="88" v:groupContext="group">
			<v:custProps>
				<v:cp v:nameU="Department" v:lbl="Department" v:type="0" v:invis="false" v:ask="false" v:langID="1033" v:cal="0"
						v:val="VT4(Department)"/>
				<v:cp v:nameU="Telephone" v:lbl="Telephone" v:type="0" v:invis="false" v:ask="false" v:langID="1033" v:cal="0"
						v:val="VT4(Telephone)"/>
				<v:cp v:nameU="Name" v:lbl="Name" v:type="0" v:invis="false" v:ask="false" v:langID="1033" v:cal="0"
						v:val="VT4(Name)"/>
				<v:cp v:nameU="Title" v:lbl="Title" v:type="0" v:invis="false" v:ask="false" v:langID="1033" v:cal="0"
						v:val="VT4(Title)"/>
				<v:cp v:nameU="Email" v:lbl="E-mail" v:type="0" v:invis="false" v:ask="false" v:langID="1033" v:cal="0"
						v:val="VT4(E-mail)"/>
				<v:cp v:nameU="Name" v:lbl="" v:prompt="" v:type="0" v:format="" v:sortKey="" v:invis="false" v:ask="false"
						v:langID="0" v:cal="0" v:val="VT4(originatingCLLI)"/>
				<v:cp v:nameU="Calendar" v:lbl="" v:prompt="" v:type="0" v:format="" v:sortKey="" v:invis="false" v:ask="false"
						v:langID="0" v:cal="0"/>
			</v:custProps>
			<v:userDefs>
				<v:ud v:nameU="Solsh" v:prompt="" v:val="VT15({0BF98B35-200C-41D5-8A23-20EF77CBC94A}):41"/>
				<v:ud v:nameU="ShapeType" v:prompt="" v:val="VT0(1):26"/>
				<v:ud v:nameU="ShowPicture" v:prompt="" v:val="VT0(0):26"/>
				<v:ud v:nameU="ShowSubordinates" v:prompt="" v:val="VT0(1):26"/>
				<v:ud v:nameU="DocShowPicture" v:prompt="" v:val="VT0(1):26"/>
				<v:ud v:nameU="Margin" v:prompt="" v:val="VT0(0.025):0"/>
				<v:ud v:nameU="HasSubordinates" v:prompt="" v:val="VT0(0):26"/>
				<v:ud v:nameU="IsHidingSubs" v:prompt="" v:val="VT0(0):5"/>
				<v:ud v:nameU="ShowDivider" v:prompt="" v:val="VT0(0):26"/>
				<v:ud v:nameU="ThisLayoutStyle" v:prompt="" v:val="VT0(0):26"/>
				<v:ud v:nameU="HasPicture" v:prompt="" v:val="VT0(0):26"/>
				<v:ud v:nameU="Width" v:prompt="" v:val="VT0(1):0"/>
				<v:ud v:nameU="Height" v:prompt="" v:val="VT0(0.5):0"/>
				<v:ud v:nameU="Prop" v:prompt=""/>
				<v:ud v:nameU="PictureAspectRatio" v:prompt="" v:val="VT0(1):26"/>
				<v:ud v:nameU="PictureID" v:prompt=""/>
				<v:ud v:nameU="SetWidth" v:prompt=""/>
				<v:ud v:nameU="SetHeight" v:prompt=""/>
				<v:ud v:nameU="PositionID" v:prompt="" v:val="VT0(0):26"/>
				<v:ud v:nameU="DeltaX" v:prompt="" v:val="VT0(0):26"/>
				<v:ud v:nameU="DeltaY" v:prompt="" v:val="VT0(0):26"/>
				<v:ud v:nameU="ParLocX" v:prompt="" v:val="VT0(0):26"/>
				<v:ud v:nameU="ParLocY" v:prompt="" v:val="VT0(0):26"/>
				<v:ud v:nameU="PageLoc" v:prompt="" v:val="VT0(0):26"/>
				<v:ud v:nameU="ParLoc" v:prompt="" v:val="VT0(0):26"/>
				<v:ud v:nameU="PictureAreaWidth" v:prompt="" v:val="VT0(0.26944444444444):0"/>
				<v:ud v:nameU="PictureAreaHeight" v:prompt="" v:val="VT0(0.43611111111111):0"/>
				<v:ud v:nameU="PictureAreaAspectRatio" v:prompt="" v:val="VT0(0.61783439490446):26"/>
				<v:ud v:nameU="PictureWidth" v:prompt="" v:val="VT0(0.26944444444444):0"/>
				<v:ud v:nameU="PictureHeight" v:prompt="" v:val="VT0(0.26944444444444):0"/>
				<v:ud v:nameU="DividerOffset" v:prompt="" v:val="VT0(0.2500244913737):0"/>
				<v:ud v:nameU="CalcTextLineHeight" v:prompt="" v:val="VT0(0.13333333333333):29"/>
				<v:ud v:nameU="ExpandedForPicture" v:prompt="" v:val="VT0(0):26"/>
				<v:ud v:nameU="Theme" v:prompt="" v:val="VT0(0):26"/>
				<v:ud v:nameU="visVersion" v:prompt="" v:val="VT0(12):26"/>
				<v:ud v:nameU="Width" v:prompt="" v:val="VT0(1.3383826481967):1"/>
				<v:ud v:nameU="Height" v:prompt="" v:val="VT0(0.90143008012003):1"/>
				<v:ud v:nameU="Prop" v:prompt="" v:val="VT4(Name)"/>
				<v:ud v:nameU="PositionID" v:prompt="" v:val="VT4({0F03E292-6E62-410E-9CDA-DCF59E28D15E})"/>
				<v:ud v:nameU="PictureAreaWidth" v:prompt="" v:val="VT0(0.38223866051001):0"/>
				<v:ud v:nameU="PictureAreaHeight" v:prompt="" v:val="VT0(0.83754119123114):0"/>
				<v:ud v:nameU="PictureAreaAspectRatio" v:prompt="" v:val="VT0(0.45638192427066):26"/>
				<v:ud v:nameU="PictureWidth" v:prompt="" v:val="VT0(0.38223866051001):0"/>
				<v:ud v:nameU="PictureHeight" v:prompt="" v:val="VT0(0.38223866051001):0"/>
				<v:ud v:nameU="DividerOffset" v:prompt="" v:val="VT0(0.45074156593892):29"/>
				<v:ud v:nameU="CalcTextLineHeight" v:prompt="" v:val="VT0(0.2):29"/>
			</v:userDefs>
			<title>Manager.88</title>
			<desc>originatingCLLI 8</desc>
			<g id="shape88-51" v:mID="88" v:groupContext="groupContent">
				<v:textBlock v:margins="rect(0,0,0,0)"/>
				<v:textRect cx="48.1818" cy="518.244" width="91.55" height="32.4515"/>
				<path d="M0 550.7 L0 485.79 L96.36 485.79 L96.36 550.7 L0 550.7 Z" class="st1"/>
				<path d="M0 550.7 L0 485.79 L96.36 485.79 L96.36 550.7 L0 550.7" class="st2"/>
				<path d="M1.8 548.9 L1.8 487.59 L94.56 487.59 L94.56 548.9 L1.8 548.9" class="st2"/>
				<text x="7.82" y="514.64" class="st3" v:langID="1033"><v:paragraph v:horizAlign="1"/><v:tabList/>originatingCLLI<v:newlineChar/><tspan
							x="44.84" dy="1.2em" class="st4">8</tspan></text>			</g>
		</g>
		<g id="group93-57" transform="translate(20.2854,-0.741707) rotate(0.2)" v:mID="93" v:groupContext="group">
			<v:custProps>
				<v:cp v:nameU="Department" v:lbl="Department" v:type="0" v:invis="false" v:ask="false" v:langID="1033" v:cal="0"
						v:val="VT4(Department)"/>
				<v:cp v:nameU="Telephone" v:lbl="Telephone" v:type="0" v:invis="false" v:ask="false" v:langID="1033" v:cal="0"
						v:val="VT4(Telephone)"/>
				<v:cp v:nameU="Name" v:lbl="Name" v:type="0" v:invis="false" v:ask="false" v:langID="1033" v:cal="0"
						v:val="VT4(Name)"/>
				<v:cp v:nameU="Title" v:lbl="Title" v:type="0" v:invis="false" v:ask="false" v:langID="1033" v:cal="0"
						v:val="VT4(Title)"/>
				<v:cp v:nameU="Email" v:lbl="E-mail" v:type="0" v:invis="false" v:ask="false" v:langID="1033" v:cal="0"
						v:val="VT4(E-mail)"/>
				<v:cp v:nameU="Name" v:lbl="" v:prompt="" v:type="0" v:format="" v:sortKey="" v:invis="false" v:ask="false"
						v:langID="0" v:cal="0" v:val="VT4( corrSet 7)"/>
				<v:cp v:nameU="Calendar" v:lbl="" v:prompt="" v:type="0" v:format="" v:sortKey="" v:invis="false" v:ask="false"
						v:langID="0" v:cal="0"/>
			</v:custProps>
			<v:userDefs>
				<v:ud v:nameU="Solsh" v:prompt="" v:val="VT15({0BF98B35-200C-41D5-8A23-20EF77CBC94A}):41"/>
				<v:ud v:nameU="ShapeType" v:prompt="" v:val="VT0(1):26"/>
				<v:ud v:nameU="ShowPicture" v:prompt="" v:val="VT0(0):26"/>
				<v:ud v:nameU="ShowSubordinates" v:prompt="" v:val="VT0(1):26"/>
				<v:ud v:nameU="DocShowPicture" v:prompt="" v:val="VT0(1):26"/>
				<v:ud v:nameU="Margin" v:prompt="" v:val="VT0(0.025):0"/>
				<v:ud v:nameU="HasSubordinates" v:prompt="" v:val="VT0(0):26"/>
				<v:ud v:nameU="IsHidingSubs" v:prompt="" v:val="VT0(0):5"/>
				<v:ud v:nameU="ShowDivider" v:prompt="" v:val="VT0(0):26"/>
				<v:ud v:nameU="ThisLayoutStyle" v:prompt="" v:val="VT0(0):26"/>
				<v:ud v:nameU="HasPicture" v:prompt="" v:val="VT0(0):26"/>
				<v:ud v:nameU="Width" v:prompt="" v:val="VT0(1):0"/>
				<v:ud v:nameU="Height" v:prompt="" v:val="VT0(0.5):0"/>
				<v:ud v:nameU="Prop" v:prompt=""/>
				<v:ud v:nameU="PictureAspectRatio" v:prompt="" v:val="VT0(1):26"/>
				<v:ud v:nameU="PictureID" v:prompt=""/>
				<v:ud v:nameU="SetWidth" v:prompt=""/>
				<v:ud v:nameU="SetHeight" v:prompt=""/>
				<v:ud v:nameU="PositionID" v:prompt="" v:val="VT0(0):26"/>
				<v:ud v:nameU="DeltaX" v:prompt="" v:val="VT0(0):26"/>
				<v:ud v:nameU="DeltaY" v:prompt="" v:val="VT0(0):26"/>
				<v:ud v:nameU="ParLocX" v:prompt="" v:val="VT0(0):26"/>
				<v:ud v:nameU="ParLocY" v:prompt="" v:val="VT0(0):26"/>
				<v:ud v:nameU="PageLoc" v:prompt="" v:val="VT0(0):26"/>
				<v:ud v:nameU="ParLoc" v:prompt="" v:val="VT0(0):26"/>
				<v:ud v:nameU="PictureAreaWidth" v:prompt="" v:val="VT0(0.26944444444444):0"/>
				<v:ud v:nameU="PictureAreaHeight" v:prompt="" v:val="VT0(0.43611111111111):0"/>
				<v:ud v:nameU="PictureAreaAspectRatio" v:prompt="" v:val="VT0(0.61783439490446):26"/>
				<v:ud v:nameU="PictureWidth" v:prompt="" v:val="VT0(0.26944444444444):0"/>
				<v:ud v:nameU="PictureHeight" v:prompt="" v:val="VT0(0.26944444444444):0"/>
				<v:ud v:nameU="DividerOffset" v:prompt="" v:val="VT0(0.2500244913737):0"/>
				<v:ud v:nameU="CalcTextLineHeight" v:prompt="" v:val="VT0(0.13333333333333):29"/>
				<v:ud v:nameU="ExpandedForPicture" v:prompt="" v:val="VT0(0):26"/>
				<v:ud v:nameU="Theme" v:prompt="" v:val="VT0(0):26"/>
				<v:ud v:nameU="visVersion" v:prompt="" v:val="VT0(12):26"/>
				<v:ud v:nameU="Width" v:prompt="" v:val="VT0(1.3261471470009):1"/>
				<v:ud v:nameU="Height" v:prompt="" v:val="VT0(0.90143008012003):1"/>
				<v:ud v:nameU="Prop" v:prompt="" v:val="VT4(Name)"/>
				<v:ud v:nameU="PositionID" v:prompt="" v:val="VT4({EEC3E9B6-E39E-4A6E-B909-571881CC9816})"/>
				<v:ud v:nameU="PictureAreaWidth" v:prompt="" v:val="VT0(0.3781601601114):0"/>
				<v:ud v:nameU="PictureAreaHeight" v:prompt="" v:val="VT0(0.83754119123114):0"/>
				<v:ud v:nameU="PictureAreaAspectRatio" v:prompt="" v:val="VT0(0.45151231255327):26"/>
				<v:ud v:nameU="PictureWidth" v:prompt="" v:val="VT0(0.3781601601114):0"/>
				<v:ud v:nameU="PictureHeight" v:prompt="" v:val="VT0(0.3781601601114):0"/>
				<v:ud v:nameU="DividerOffset" v:prompt="" v:val="VT0(0.45074156593892):29"/>
				<v:ud v:nameU="CalcTextLineHeight" v:prompt="" v:val="VT0(0.2):29"/>
			</v:userDefs>
			<title>Manager.93</title>
			<desc>corrSet 7</desc>
			<g id="shape93-58" v:mID="93" v:groupContext="groupContent">
				<v:textBlock v:margins="rect(0,0,0,0)"/>
				<v:textRect cx="47.7413" cy="518.244" width="90.71" height="32.4515"/>
				<path d="M0 550.7 L0 485.79 L95.48 485.79 L95.48 550.7 L0 550.7 Z" class="st1"/>
				<path d="M0 550.7 L0 485.79 L95.48 485.79 L95.48 550.7 L0 550.7" class="st2"/>
				<path d="M1.8 548.9 L1.8 487.59 L93.68 487.59 L93.68 548.9 L1.8 548.9" class="st2"/>
				<text x="30.07" y="514.64" class="st3" v:langID="1033"><v:paragraph v:horizAlign="1"/><v:tabList/>corrSet<v:lf/><tspan
							x="44.4" dy="1.2em" class="st4">7</tspan></text>			</g>
		</g>
		<g id="group98-64" transform="translate(229.352,-0.744782) rotate(0.2)" v:mID="98" v:groupContext="group">
			<v:custProps>
				<v:cp v:nameU="Department" v:lbl="Department" v:type="0" v:invis="false" v:ask="false" v:langID="1033" v:cal="0"
						v:val="VT4(Department)"/>
				<v:cp v:nameU="Telephone" v:lbl="Telephone" v:type="0" v:invis="false" v:ask="false" v:langID="1033" v:cal="0"
						v:val="VT4(Telephone)"/>
				<v:cp v:nameU="Name" v:lbl="Name" v:type="0" v:invis="false" v:ask="false" v:langID="1033" v:cal="0"
						v:val="VT4(Name)"/>
				<v:cp v:nameU="Title" v:lbl="Title" v:type="0" v:invis="false" v:ask="false" v:langID="1033" v:cal="0"
						v:val="VT4(Title)"/>
				<v:cp v:nameU="Email" v:lbl="E-mail" v:type="0" v:invis="false" v:ask="false" v:langID="1033" v:cal="0"
						v:val="VT4(E-mail)"/>
				<v:cp v:nameU="Name" v:lbl="" v:prompt="" v:type="0" v:format="" v:sortKey="" v:invis="false" v:ask="false"
						v:langID="0" v:cal="0" v:val="VT4(destinationCLLI)"/>
				<v:cp v:nameU="Calendar" v:lbl="" v:prompt="" v:type="0" v:format="" v:sortKey="" v:invis="false" v:ask="false"
						v:langID="0" v:cal="0"/>
			</v:custProps>
			<v:userDefs>
				<v:ud v:nameU="Solsh" v:prompt="" v:val="VT15({0BF98B35-200C-41D5-8A23-20EF77CBC94A}):41"/>
				<v:ud v:nameU="ShapeType" v:prompt="" v:val="VT0(1):26"/>
				<v:ud v:nameU="ShowPicture" v:prompt="" v:val="VT0(0):26"/>
				<v:ud v:nameU="ShowSubordinates" v:prompt="" v:val="VT0(1):26"/>
				<v:ud v:nameU="DocShowPicture" v:prompt="" v:val="VT0(1):26"/>
				<v:ud v:nameU="Margin" v:prompt="" v:val="VT0(0.025):0"/>
				<v:ud v:nameU="HasSubordinates" v:prompt="" v:val="VT0(0):26"/>
				<v:ud v:nameU="IsHidingSubs" v:prompt="" v:val="VT0(0):5"/>
				<v:ud v:nameU="ShowDivider" v:prompt="" v:val="VT0(0):26"/>
				<v:ud v:nameU="ThisLayoutStyle" v:prompt="" v:val="VT0(0):26"/>
				<v:ud v:nameU="HasPicture" v:prompt="" v:val="VT0(0):26"/>
				<v:ud v:nameU="Width" v:prompt="" v:val="VT0(1):0"/>
				<v:ud v:nameU="Height" v:prompt="" v:val="VT0(0.5):0"/>
				<v:ud v:nameU="Prop" v:prompt=""/>
				<v:ud v:nameU="PictureAspectRatio" v:prompt="" v:val="VT0(1):26"/>
				<v:ud v:nameU="PictureID" v:prompt=""/>
				<v:ud v:nameU="SetWidth" v:prompt=""/>
				<v:ud v:nameU="SetHeight" v:prompt=""/>
				<v:ud v:nameU="PositionID" v:prompt="" v:val="VT0(0):26"/>
				<v:ud v:nameU="DeltaX" v:prompt="" v:val="VT0(0):26"/>
				<v:ud v:nameU="DeltaY" v:prompt="" v:val="VT0(0):26"/>
				<v:ud v:nameU="ParLocX" v:prompt="" v:val="VT0(0):26"/>
				<v:ud v:nameU="ParLocY" v:prompt="" v:val="VT0(0):26"/>
				<v:ud v:nameU="PageLoc" v:prompt="" v:val="VT0(0):26"/>
				<v:ud v:nameU="ParLoc" v:prompt="" v:val="VT0(0):26"/>
				<v:ud v:nameU="PictureAreaWidth" v:prompt="" v:val="VT0(0.26944444444444):0"/>
				<v:ud v:nameU="PictureAreaHeight" v:prompt="" v:val="VT0(0.43611111111111):0"/>
				<v:ud v:nameU="PictureAreaAspectRatio" v:prompt="" v:val="VT0(0.61783439490446):26"/>
				<v:ud v:nameU="PictureWidth" v:prompt="" v:val="VT0(0.26944444444444):0"/>
				<v:ud v:nameU="PictureHeight" v:prompt="" v:val="VT0(0.26944444444444):0"/>
				<v:ud v:nameU="DividerOffset" v:prompt="" v:val="VT0(0.2500244913737):0"/>
				<v:ud v:nameU="CalcTextLineHeight" v:prompt="" v:val="VT0(0.13333333333333):29"/>
				<v:ud v:nameU="ExpandedForPicture" v:prompt="" v:val="VT0(0):26"/>
				<v:ud v:nameU="Theme" v:prompt="" v:val="VT0(0):26"/>
				<v:ud v:nameU="visVersion" v:prompt="" v:val="VT0(12):26"/>
				<v:ud v:nameU="Width" v:prompt="" v:val="VT0(1.3383826481967):1"/>
				<v:ud v:nameU="Height" v:prompt="" v:val="VT0(0.90143008012003):1"/>
				<v:ud v:nameU="Prop" v:prompt="" v:val="VT4(Name)"/>
				<v:ud v:nameU="PositionID" v:prompt="" v:val="VT4({58F04A90-B324-45F5-B5EC-CD33072B393B})"/>
				<v:ud v:nameU="PictureAreaWidth" v:prompt="" v:val="VT0(0.38223866051001):0"/>
				<v:ud v:nameU="PictureAreaHeight" v:prompt="" v:val="VT0(0.83754119123114):0"/>
				<v:ud v:nameU="PictureAreaAspectRatio" v:prompt="" v:val="VT0(0.45638192427066):26"/>
				<v:ud v:nameU="PictureWidth" v:prompt="" v:val="VT0(0.38223866051001):0"/>
				<v:ud v:nameU="PictureHeight" v:prompt="" v:val="VT0(0.38223866051001):0"/>
				<v:ud v:nameU="DividerOffset" v:prompt="" v:val="VT0(0.45074156593892):29"/>
				<v:ud v:nameU="CalcTextLineHeight" v:prompt="" v:val="VT0(0.2):29"/>
			</v:userDefs>
			<title>Manager.98</title>
			<desc>destinationCLLI 9</desc>
			<g id="shape98-65" v:mID="98" v:groupContext="groupContent">
				<v:textBlock v:margins="rect(0,0,0,0)"/>
				<v:textRect cx="48.1818" cy="518.244" width="91.55" height="32.4515"/>
				<path d="M0 550.7 L0 485.79 L96.36 485.79 L96.36 550.7 L0 550.7 Z" class="st1"/>
				<path d="M0 550.7 L0 485.79 L96.36 485.79 L96.36 550.7 L0 550.7" class="st2"/>
				<path d="M1.8 548.9 L1.8 487.59 L94.56 487.59 L94.56 548.9 L1.8 548.9" class="st2"/>
				<text x="6.49" y="514.64" class="st3" v:langID="1033"><v:paragraph v:horizAlign="1"/><v:tabList/>destinationCLLI<v:newlineChar/><tspan
							x="44.84" dy="1.2em" class="st4">9</tspan></text>			</g>
		</g>
		<g id="group103-71" transform="translate(334.326,-0.744782) rotate(0.2)" v:mID="103" v:groupContext="group">
			<v:custProps>
				<v:cp v:nameU="Department" v:lbl="Department" v:type="0" v:invis="false" v:ask="false" v:langID="1033" v:cal="0"
						v:val="VT4(Department)"/>
				<v:cp v:nameU="Telephone" v:lbl="Telephone" v:type="0" v:invis="false" v:ask="false" v:langID="1033" v:cal="0"
						v:val="VT4(Telephone)"/>
				<v:cp v:nameU="Name" v:lbl="Name" v:type="0" v:invis="false" v:ask="false" v:langID="1033" v:cal="0"
						v:val="VT4(Name)"/>
				<v:cp v:nameU="Title" v:lbl="Title" v:type="0" v:invis="false" v:ask="false" v:langID="1033" v:cal="0"
						v:val="VT4(Title)"/>
				<v:cp v:nameU="Email" v:lbl="E-mail" v:type="0" v:invis="false" v:ask="false" v:langID="1033" v:cal="0"
						v:val="VT4(E-mail)"/>
				<v:cp v:nameU="Name" v:lbl="" v:prompt="" v:type="0" v:format="" v:sortKey="" v:invis="false" v:ask="false"
						v:langID="0" v:cal="0" v:val="VT4(thresholdForAlarm)"/>
				<v:cp v:nameU="Calendar" v:lbl="" v:prompt="" v:type="0" v:format="" v:sortKey="" v:invis="false" v:ask="false"
						v:langID="0" v:cal="0"/>
			</v:custProps>
			<v:userDefs>
				<v:ud v:nameU="Solsh" v:prompt="" v:val="VT15({0BF98B35-200C-41D5-8A23-20EF77CBC94A}):41"/>
				<v:ud v:nameU="ShapeType" v:prompt="" v:val="VT0(1):26"/>
				<v:ud v:nameU="ShowPicture" v:prompt="" v:val="VT0(0):26"/>
				<v:ud v:nameU="ShowSubordinates" v:prompt="" v:val="VT0(1):26"/>
				<v:ud v:nameU="DocShowPicture" v:prompt="" v:val="VT0(1):26"/>
				<v:ud v:nameU="Margin" v:prompt="" v:val="VT0(0.025):0"/>
				<v:ud v:nameU="HasSubordinates" v:prompt="" v:val="VT0(0):26"/>
				<v:ud v:nameU="IsHidingSubs" v:prompt="" v:val="VT0(0):5"/>
				<v:ud v:nameU="ShowDivider" v:prompt="" v:val="VT0(0):26"/>
				<v:ud v:nameU="ThisLayoutStyle" v:prompt="" v:val="VT0(0):26"/>
				<v:ud v:nameU="HasPicture" v:prompt="" v:val="VT0(0):26"/>
				<v:ud v:nameU="Width" v:prompt="" v:val="VT0(1):0"/>
				<v:ud v:nameU="Height" v:prompt="" v:val="VT0(0.5):0"/>
				<v:ud v:nameU="Prop" v:prompt=""/>
				<v:ud v:nameU="PictureAspectRatio" v:prompt="" v:val="VT0(1):26"/>
				<v:ud v:nameU="PictureID" v:prompt=""/>
				<v:ud v:nameU="SetWidth" v:prompt=""/>
				<v:ud v:nameU="SetHeight" v:prompt=""/>
				<v:ud v:nameU="PositionID" v:prompt="" v:val="VT0(0):26"/>
				<v:ud v:nameU="DeltaX" v:prompt="" v:val="VT0(0):26"/>
				<v:ud v:nameU="DeltaY" v:prompt="" v:val="VT0(0):26"/>
				<v:ud v:nameU="ParLocX" v:prompt="" v:val="VT0(0):26"/>
				<v:ud v:nameU="ParLocY" v:prompt="" v:val="VT0(0):26"/>
				<v:ud v:nameU="PageLoc" v:prompt="" v:val="VT0(0):26"/>
				<v:ud v:nameU="ParLoc" v:prompt="" v:val="VT0(0):26"/>
				<v:ud v:nameU="PictureAreaWidth" v:prompt="" v:val="VT0(0.26944444444444):0"/>
				<v:ud v:nameU="PictureAreaHeight" v:prompt="" v:val="VT0(0.43611111111111):0"/>
				<v:ud v:nameU="PictureAreaAspectRatio" v:prompt="" v:val="VT0(0.61783439490446):26"/>
				<v:ud v:nameU="PictureWidth" v:prompt="" v:val="VT0(0.26944444444444):0"/>
				<v:ud v:nameU="PictureHeight" v:prompt="" v:val="VT0(0.26944444444444):0"/>
				<v:ud v:nameU="DividerOffset" v:prompt="" v:val="VT0(0.2500244913737):0"/>
				<v:ud v:nameU="CalcTextLineHeight" v:prompt="" v:val="VT0(0.13333333333333):29"/>
				<v:ud v:nameU="ExpandedForPicture" v:prompt="" v:val="VT0(0):26"/>
				<v:ud v:nameU="Theme" v:prompt="" v:val="VT0(0):26"/>
				<v:ud v:nameU="visVersion" v:prompt="" v:val="VT0(12):26"/>
				<v:ud v:nameU="ThisLayoutStyle" v:prompt="" v:val="VT0(100):26"/>
				<v:ud v:nameU="Width" v:prompt="" v:val="VT0(1.5443498856001):1"/>
				<v:ud v:nameU="Height" v:prompt="" v:val="VT0(0.90143008012003):1"/>
				<v:ud v:nameU="Prop" v:prompt="" v:val="VT4(Name)"/>
				<v:ud v:nameU="PositionID" v:prompt="" v:val="VT4({5F8BA5DD-ACCF-4056-9E0A-688375B71BDD})"/>
				<v:ud v:nameU="PictureAreaWidth" v:prompt="" v:val="VT0(0.45089440631115):0"/>
				<v:ud v:nameU="PictureAreaHeight" v:prompt="" v:val="VT0(0.83754119123114):0"/>
				<v:ud v:nameU="PictureAreaAspectRatio" v:prompt="" v:val="VT0(0.53835490245962):26"/>
				<v:ud v:nameU="PictureWidth" v:prompt="" v:val="VT0(0.45089440631115):0"/>
				<v:ud v:nameU="PictureHeight" v:prompt="" v:val="VT0(0.45089440631115):0"/>
				<v:ud v:nameU="DividerOffset" v:prompt="" v:val="VT0(0.45074156593892):29"/>
				<v:ud v:nameU="CalcTextLineHeight" v:prompt="" v:val="VT0(0.2):29"/>
			</v:userDefs>
			<title>Manager.103</title>
			<desc>thresholdForAlarm 10</desc>
			<g id="shape103-72" v:mID="103" v:groupContext="groupContent">
				<v:textBlock v:margins="rect(0,0,0,0)"/>
				<v:textRect cx="55.5966" cy="518.244" width="105.64" height="32.4515"/>
				<path d="M0 550.7 L0 485.79 L111.19 485.79 L111.19 550.7 L0 550.7 Z" class="st1"/>
				<path d="M0 550.7 L0 485.79 L111.19 485.79 L111.19 550.7 L0 550.7" class="st2"/>
				<path d="M1.8 548.9 L1.8 487.59 L109.39 487.59 L109.39 548.9 L1.8 548.9" class="st2"/>
				<text x="6.25" y="514.64" class="st3" v:langID="1033"><v:paragraph v:horizAlign="1"/><v:tabList/>thresholdForAlarm<v:newlineChar/><tspan
							x="48.92" dy="1.2em" class="st4">10</tspan></text>			</g>
		</g>
		<g id="shape114-78" v:mID="114" v:groupContext="shape" transform="translate(199.401,-404.077) rotate(0.2)">
			<title>Sheet.114</title>
			<desc>OID: 1.3.6.1.4.1.36872.2.1.3</desc>
			<v:textBlock v:margins="rect(0,0,0,0)"/>
			<v:textRect cx="65.6092" cy="543.696" width="131.22" height="13.9987"/>
			<rect x="0" y="536.697" width="131.218" height="13.9987" class="st5"/>
			<text x="53.28" y="540.1" class="st3" v:langID="1033"><v:paragraph v:horizAlign="1"/><v:tabList/>OID: <tspan x="3.89"
						dy="1.2em" class="st4">1</tspan>.3.6.1.4.1.36872.2.1.3</text>		</g>
		<g id="shape115-82" v:mID="115" v:groupContext="shape" transform="translate(194.949,697.444) rotate(-179.736)">
			<title>Sheet.115</title>
			<path d="M0 550.7 L27.13 550.7" class="st6"/>
		</g>
		<g id="group116-88" transform="translate(454.129,-0.744782) rotate(0.2)" v:mID="116" v:groupContext="group">
			<v:custProps>
				<v:cp v:nameU="Department" v:lbl="Department" v:type="0" v:invis="false" v:ask="false" v:langID="1033" v:cal="0"
						v:val="VT4(Department)"/>
				<v:cp v:nameU="Telephone" v:lbl="Telephone" v:type="0" v:invis="false" v:ask="false" v:langID="1033" v:cal="0"
						v:val="VT4(Telephone)"/>
				<v:cp v:nameU="Name" v:lbl="Name" v:type="0" v:invis="false" v:ask="false" v:langID="1033" v:cal="0"
						v:val="VT4(Name)"/>
				<v:cp v:nameU="Title" v:lbl="Title" v:type="0" v:invis="false" v:ask="false" v:langID="1033" v:cal="0"
						v:val="VT4(Title)"/>
				<v:cp v:nameU="Email" v:lbl="E-mail" v:type="0" v:invis="false" v:ask="false" v:langID="1033" v:cal="0"
						v:val="VT4(E-mail)"/>
				<v:cp v:nameU="Name" v:lbl="" v:prompt="" v:type="0" v:format="" v:sortKey="" v:invis="false" v:ask="false"
						v:langID="0" v:cal="0" v:val="VT4(occupancyPercent)"/>
				<v:cp v:nameU="Calendar" v:lbl="" v:prompt="" v:type="0" v:format="" v:sortKey="" v:invis="false" v:ask="false"
						v:langID="0" v:cal="0"/>
			</v:custProps>
			<v:userDefs>
				<v:ud v:nameU="Solsh" v:prompt="" v:val="VT15({0BF98B35-200C-41D5-8A23-20EF77CBC94A}):41"/>
				<v:ud v:nameU="ShapeType" v:prompt="" v:val="VT0(1):26"/>
				<v:ud v:nameU="ShowPicture" v:prompt="" v:val="VT0(0):26"/>
				<v:ud v:nameU="ShowSubordinates" v:prompt="" v:val="VT0(1):26"/>
				<v:ud v:nameU="DocShowPicture" v:prompt="" v:val="VT0(1):26"/>
				<v:ud v:nameU="Margin" v:prompt="" v:val="VT0(0.025):0"/>
				<v:ud v:nameU="HasSubordinates" v:prompt="" v:val="VT0(0):26"/>
				<v:ud v:nameU="IsHidingSubs" v:prompt="" v:val="VT0(0):5"/>
				<v:ud v:nameU="ShowDivider" v:prompt="" v:val="VT0(0):26"/>
				<v:ud v:nameU="ThisLayoutStyle" v:prompt="" v:val="VT0(0):26"/>
				<v:ud v:nameU="HasPicture" v:prompt="" v:val="VT0(0):26"/>
				<v:ud v:nameU="Width" v:prompt="" v:val="VT0(1):0"/>
				<v:ud v:nameU="Height" v:prompt="" v:val="VT0(0.5):0"/>
				<v:ud v:nameU="Prop" v:prompt=""/>
				<v:ud v:nameU="PictureAspectRatio" v:prompt="" v:val="VT0(1):26"/>
				<v:ud v:nameU="PictureID" v:prompt=""/>
				<v:ud v:nameU="SetWidth" v:prompt=""/>
				<v:ud v:nameU="SetHeight" v:prompt=""/>
				<v:ud v:nameU="PositionID" v:prompt="" v:val="VT0(0):26"/>
				<v:ud v:nameU="DeltaX" v:prompt="" v:val="VT0(0):26"/>
				<v:ud v:nameU="DeltaY" v:prompt="" v:val="VT0(0):26"/>
				<v:ud v:nameU="ParLocX" v:prompt="" v:val="VT0(0):26"/>
				<v:ud v:nameU="ParLocY" v:prompt="" v:val="VT0(0):26"/>
				<v:ud v:nameU="PageLoc" v:prompt="" v:val="VT0(0):26"/>
				<v:ud v:nameU="ParLoc" v:prompt="" v:val="VT0(0):26"/>
				<v:ud v:nameU="PictureAreaWidth" v:prompt="" v:val="VT0(0.26944444444444):0"/>
				<v:ud v:nameU="PictureAreaHeight" v:prompt="" v:val="VT0(0.43611111111111):0"/>
				<v:ud v:nameU="PictureAreaAspectRatio" v:prompt="" v:val="VT0(0.61783439490446):26"/>
				<v:ud v:nameU="PictureWidth" v:prompt="" v:val="VT0(0.26944444444444):0"/>
				<v:ud v:nameU="PictureHeight" v:prompt="" v:val="VT0(0.26944444444444):0"/>
				<v:ud v:nameU="DividerOffset" v:prompt="" v:val="VT0(0.2500244913737):0"/>
				<v:ud v:nameU="CalcTextLineHeight" v:prompt="" v:val="VT0(0.13333333333333):29"/>
				<v:ud v:nameU="ExpandedForPicture" v:prompt="" v:val="VT0(0):26"/>
				<v:ud v:nameU="Theme" v:prompt="" v:val="VT0(0):26"/>
				<v:ud v:nameU="visVersion" v:prompt="" v:val="VT0(12):26"/>
				<v:ud v:nameU="ThisLayoutStyle" v:prompt="" v:val="VT0(100):26"/>
				<v:ud v:nameU="Width" v:prompt="" v:val="VT0(1.4744176993029):1"/>
				<v:ud v:nameU="Height" v:prompt="" v:val="VT0(0.90143008012003):1"/>
				<v:ud v:nameU="Prop" v:prompt="" v:val="VT4(Name)"/>
				<v:ud v:nameU="PositionID" v:prompt="" v:val="VT4({D5948869-E931-4ACD-8DFF-37EAC254CD13})"/>
				<v:ud v:nameU="PictureAreaWidth" v:prompt="" v:val="VT0(0.42758367754541):0"/>
				<v:ud v:nameU="PictureAreaHeight" v:prompt="" v:val="VT0(0.83754119123114):0"/>
				<v:ud v:nameU="PictureAreaAspectRatio" v:prompt="" v:val="VT0(0.51052256536409):26"/>
				<v:ud v:nameU="PictureWidth" v:prompt="" v:val="VT0(0.42758367754541):0"/>
				<v:ud v:nameU="PictureHeight" v:prompt="" v:val="VT0(0.42758367754541):0"/>
				<v:ud v:nameU="DividerOffset" v:prompt="" v:val="VT0(0.45074156593892):29"/>
				<v:ud v:nameU="CalcTextLineHeight" v:prompt="" v:val="VT0(0.2):29"/>
			</v:userDefs>
			<title>Manager.116</title>
			<desc>occupancyPercent 11</desc>
			<g id="shape116-89" v:mID="116" v:groupContext="groupContent">
				<v:textBlock v:margins="rect(0,0,0,0)"/>
				<v:textRect cx="53.079" cy="518.244" width="100.86" height="32.4515"/>
				<path d="M0 550.7 L0 485.79 L106.16 485.79 L106.16 550.7 L0 550.7 Z" class="st1"/>
				<path d="M0 550.7 L0 485.79 L106.16 485.79 L106.16 550.7 L0 550.7" class="st2"/>
				<path d="M1.8 548.9 L1.8 487.59 L104.36 487.59 L104.36 548.9 L1.8 548.9" class="st2"/>
				<text x="3.72" y="514.64" class="st3" v:langID="1033"><v:paragraph v:horizAlign="1"/><v:tabList/>occupancyPercent<v:newlineChar/><tspan
							x="46.41" dy="1.2em" class="st4">11</tspan></text>			</g>
		</g>
		<g id="group129-95" transform="translate(524.289,-129.226) rotate(0.2)" v:mID="129" v:groupContext="group">
			<v:custProps>
				<v:cp v:nameU="Department" v:lbl="Department" v:type="0" v:invis="false" v:ask="false" v:langID="1033" v:cal="0"
						v:val="VT4(Department)"/>
				<v:cp v:nameU="Telephone" v:lbl="Telephone" v:type="0" v:invis="false" v:ask="false" v:langID="1033" v:cal="0"
						v:val="VT4(Telephone)"/>
				<v:cp v:nameU="Name" v:lbl="Name" v:type="0" v:invis="false" v:ask="false" v:langID="1033" v:cal="0"
						v:val="VT4(Name)"/>
				<v:cp v:nameU="Title" v:lbl="Title" v:type="0" v:invis="false" v:ask="false" v:langID="1033" v:cal="0"
						v:val="VT4(Title)"/>
				<v:cp v:nameU="Email" v:lbl="E-mail" v:type="0" v:invis="false" v:ask="false" v:langID="1033" v:cal="0"
						v:val="VT4(E-mail)"/>
				<v:cp v:nameU="Name" v:lbl="" v:prompt="" v:type="0" v:format="" v:sortKey="" v:invis="false" v:ask="false"
						v:langID="0" v:cal="0" v:val="VT4(linkQual)"/>
				<v:cp v:nameU="Calendar" v:lbl="" v:prompt="" v:type="0" v:format="" v:sortKey="" v:invis="false" v:ask="false"
						v:langID="0" v:cal="0"/>
			</v:custProps>
			<v:userDefs>
				<v:ud v:nameU="Solsh" v:prompt="" v:val="VT15({0BF98B35-200C-41D5-8A23-20EF77CBC94A}):41"/>
				<v:ud v:nameU="ShapeType" v:prompt="" v:val="VT0(1):26"/>
				<v:ud v:nameU="ShowPicture" v:prompt="" v:val="VT0(0):26"/>
				<v:ud v:nameU="ShowSubordinates" v:prompt="" v:val="VT0(1):26"/>
				<v:ud v:nameU="DocShowPicture" v:prompt="" v:val="VT0(1):26"/>
				<v:ud v:nameU="Margin" v:prompt="" v:val="VT0(0.025):0"/>
				<v:ud v:nameU="HasSubordinates" v:prompt="" v:val="VT0(0):26"/>
				<v:ud v:nameU="IsHidingSubs" v:prompt="" v:val="VT0(0):5"/>
				<v:ud v:nameU="ShowDivider" v:prompt="" v:val="VT0(0):26"/>
				<v:ud v:nameU="ThisLayoutStyle" v:prompt="" v:val="VT0(0):26"/>
				<v:ud v:nameU="HasPicture" v:prompt="" v:val="VT0(0):26"/>
				<v:ud v:nameU="Width" v:prompt="" v:val="VT0(1):0"/>
				<v:ud v:nameU="Height" v:prompt="" v:val="VT0(0.5):0"/>
				<v:ud v:nameU="Prop" v:prompt=""/>
				<v:ud v:nameU="PictureAspectRatio" v:prompt="" v:val="VT0(1):26"/>
				<v:ud v:nameU="PictureID" v:prompt=""/>
				<v:ud v:nameU="SetWidth" v:prompt=""/>
				<v:ud v:nameU="SetHeight" v:prompt=""/>
				<v:ud v:nameU="PositionID" v:prompt="" v:val="VT0(0):26"/>
				<v:ud v:nameU="DeltaX" v:prompt="" v:val="VT0(0):26"/>
				<v:ud v:nameU="DeltaY" v:prompt="" v:val="VT0(0):26"/>
				<v:ud v:nameU="ParLocX" v:prompt="" v:val="VT0(0):26"/>
				<v:ud v:nameU="ParLocY" v:prompt="" v:val="VT0(0):26"/>
				<v:ud v:nameU="PageLoc" v:prompt="" v:val="VT0(0):26"/>
				<v:ud v:nameU="ParLoc" v:prompt="" v:val="VT0(0):26"/>
				<v:ud v:nameU="PictureAreaWidth" v:prompt="" v:val="VT0(0.26944444444444):0"/>
				<v:ud v:nameU="PictureAreaHeight" v:prompt="" v:val="VT0(0.43611111111111):0"/>
				<v:ud v:nameU="PictureAreaAspectRatio" v:prompt="" v:val="VT0(0.61783439490446):26"/>
				<v:ud v:nameU="PictureWidth" v:prompt="" v:val="VT0(0.26944444444444):0"/>
				<v:ud v:nameU="PictureHeight" v:prompt="" v:val="VT0(0.26944444444444):0"/>
				<v:ud v:nameU="DividerOffset" v:prompt="" v:val="VT0(0.2500244913737):0"/>
				<v:ud v:nameU="CalcTextLineHeight" v:prompt="" v:val="VT0(0.13333333333333):29"/>
				<v:ud v:nameU="ExpandedForPicture" v:prompt="" v:val="VT0(0):26"/>
				<v:ud v:nameU="Theme" v:prompt="" v:val="VT0(0):26"/>
				<v:ud v:nameU="visVersion" v:prompt="" v:val="VT0(12):26"/>
				<v:ud v:nameU="Width" v:prompt="" v:val="VT0(1.1250629594424):1"/>
				<v:ud v:nameU="Height" v:prompt="" v:val="VT0(0.87353571814124):1"/>
				<v:ud v:nameU="Prop" v:prompt="" v:val="VT4(Name)"/>
				<v:ud v:nameU="PositionID" v:prompt="" v:val="VT4({815BFAA6-FB13-46D2-B805-4C82F2F231EC})"/>
				<v:ud v:nameU="ParLocX" v:prompt="" v:val="VT0(0):26"/>
				<v:ud v:nameU="ParLocY" v:prompt="" v:val="VT0(0):26"/>
				<v:ud v:nameU="PageLoc" v:prompt="" v:val="VT7(PNT(0,0)):40"/>
				<v:ud v:nameU="PictureAreaWidth" v:prompt="" v:val="VT0(0.31113209759191):0"/>
				<v:ud v:nameU="PictureAreaHeight" v:prompt="" v:val="VT0(0.80964682925236):0"/>
				<v:ud v:nameU="PictureAreaAspectRatio" v:prompt="" v:val="VT0(0.38428125245574):26"/>
				<v:ud v:nameU="PictureWidth" v:prompt="" v:val="VT0(0.31113209759191):0"/>
				<v:ud v:nameU="PictureHeight" v:prompt="" v:val="VT0(0.31113209759191):0"/>
				<v:ud v:nameU="DividerOffset" v:prompt="" v:val="VT0(0.43679438494953):29"/>
				<v:ud v:nameU="CalcTextLineHeight" v:prompt="" v:val="VT0(0.2):29"/>
			</v:userDefs>
			<title>Manager.129</title>
			<desc>linkQual 6</desc>
			<g id="shape129-96" v:mID="129" v:groupContext="groupContent">
				<v:textBlock v:margins="rect(0,0,0,0)"/>
				<v:textRect cx="40.5023" cy="519.248" width="76.96" height="31.4473"/>
				<path d="M0 550.7 L0 487.8 L81 487.8 L81 550.7 L0 550.7 Z" class="st1"/>
				<path d="M0 550.7 L0 487.8 L81 487.8 L81 550.7 L0 550.7" class="st2"/>
				<path d="M1.8 548.9 L1.8 489.6 L79.2 489.6 L79.2 548.9 L1.8 548.9" class="st2"/>
				<text x="18.83" y="515.65" class="st3" v:langID="1033"><v:paragraph v:horizAlign="1"/><v:tabList/>linkQual<v:newlineChar/><v:paragraph
							v:horizAlign="1"/><tspan x="37.17" dy="1.2em" class="st4">6 </tspan> </text>			</g>
		</g>
		<g id="shape141-102" v:mID="141" v:groupContext="shape" v:layerMember="0" transform="translate(854.534,291.473) rotate(90)">
			<title>Multi-tree square.141</title>
			<v:userDefs>
				<v:ud v:nameU="Scale" v:val="VT0(1):26"/>
				<v:ud v:nameU="AntiScale" v:val="VT0(1):26"/>
				<v:ud v:nameU="visVersion" v:val="VT0(15):26"/>
			</v:userDefs>
			<path d="M0 550.7 L32.76 550.7" class="st2"/>
			<path d="M32.76 550.7 L32.76 808.94 L63.91 808.94" class="st2"/>
			<path d="M32.76 550.7 L32.76 291.45 L67.24 291.45" class="st2"/>
			<path d="M32.76 550.7 L32.76 707.97 L64.38 707.97" class="st2"/>
			<path d="M32.76 550.7 L32.76 603.93 L64.86 603.93" class="st2"/>
			<path d="M32.76 550.7 L32.76 495.93 L65.4 495.93" class="st2"/>
			<path d="M32.76 550.7 L32.76 385.95 L65.91 385.95" class="st2"/>
		</g>
		<g id="shape143-111" v:mID="143" v:groupContext="shape" v:layerMember="0" transform="translate(854.534,316.336) rotate(90)">
			<title>Multi-tree square.143</title>
			<v:userDefs>
				<v:ud v:nameU="Scale" v:val="VT0(1):26"/>
				<v:ud v:nameU="AntiScale" v:val="VT0(1):26"/>
				<v:ud v:nameU="visVersion" v:val="VT0(15):26"/>
			</v:userDefs>
			<path d="M0 550.7 L135 550.7" class="st2"/>
			<path d="M135 550.7 L135 788.2 L168.88 788.2" class="st2"/>
			<path d="M135 550.7 L135 349.02 L168.89 349.02" class="st2"/>
			<path d="M135 550.7 L135 683.67 L168.88 683.67" class="st2"/>
			<path d="M135 550.7 L135 578.7 L168.88 578.7" class="st2"/>
			<path d="M135 550.7 L135 466.31 L168.9 466.31" class="st2"/>
			<path d="M135 550.7 L120.82 550.7" class="st2"/>
		</g>
		<g id="group144-120" transform="translate(18.76,-445.867)" v:mID="144" v:groupContext="group">
			<v:custProps>
				<v:cp v:nameU="Department" v:lbl="Department" v:type="0" v:invis="false" v:ask="false" v:langID="1033" v:cal="0"
						v:val="VT4(Department)"/>
				<v:cp v:nameU="Telephone" v:lbl="Telephone" v:type="0" v:invis="false" v:ask="false" v:langID="1033" v:cal="0"
						v:val="VT4(Telephone)"/>
				<v:cp v:nameU="Name" v:lbl="Name" v:type="0" v:invis="false" v:ask="false" v:langID="1033" v:cal="0"
						v:val="VT4(Name)"/>
				<v:cp v:nameU="Title" v:lbl="Title" v:type="0" v:invis="false" v:ask="false" v:langID="1033" v:cal="0"
						v:val="VT4(Title)"/>
				<v:cp v:nameU="Email" v:lbl="E-mail" v:type="0" v:invis="false" v:ask="false" v:langID="1033" v:cal="0"
						v:val="VT4(E-mail)"/>
				<v:cp v:nameU="Name" v:lbl="" v:prompt="" v:type="0" v:format="" v:sortKey="" v:invis="false" v:ask="false"
						v:langID="0" v:cal="0" v:val="VT4(netAnalyzer3000Production)"/>
				<v:cp v:nameU="Calendar" v:lbl="" v:prompt="" v:type="0" v:format="" v:sortKey="" v:invis="false" v:ask="false"
						v:langID="0" v:cal="0"/>
			</v:custProps>
			<v:userDefs>
				<v:ud v:nameU="Solsh" v:prompt="" v:val="VT15({0BF98B35-200C-41D5-8A23-20EF77CBC94A}):41"/>
				<v:ud v:nameU="ShapeType" v:prompt="" v:val="VT0(1):26"/>
				<v:ud v:nameU="ShowPicture" v:prompt="" v:val="VT0(0):26"/>
				<v:ud v:nameU="ShowSubordinates" v:prompt="" v:val="VT0(1):26"/>
				<v:ud v:nameU="DocShowPicture" v:prompt="" v:val="VT0(1):26"/>
				<v:ud v:nameU="Margin" v:prompt="" v:val="VT0(0.025):0"/>
				<v:ud v:nameU="HasSubordinates" v:prompt="" v:val="VT0(0):26"/>
				<v:ud v:nameU="IsHidingSubs" v:prompt="" v:val="VT0(0):5"/>
				<v:ud v:nameU="ShowDivider" v:prompt="" v:val="VT0(0):26"/>
				<v:ud v:nameU="ThisLayoutStyle" v:prompt="" v:val="VT0(0):26"/>
				<v:ud v:nameU="HasPicture" v:prompt="" v:val="VT0(0):26"/>
				<v:ud v:nameU="Width" v:prompt="" v:val="VT0(1):0"/>
				<v:ud v:nameU="Height" v:prompt="" v:val="VT0(0.5):0"/>
				<v:ud v:nameU="Prop" v:prompt=""/>
				<v:ud v:nameU="PictureAspectRatio" v:prompt="" v:val="VT0(1):26"/>
				<v:ud v:nameU="PictureID" v:prompt=""/>
				<v:ud v:nameU="SetWidth" v:prompt=""/>
				<v:ud v:nameU="SetHeight" v:prompt=""/>
				<v:ud v:nameU="PositionID" v:prompt="" v:val="VT0(0):26"/>
				<v:ud v:nameU="DeltaX" v:prompt="" v:val="VT0(0):26"/>
				<v:ud v:nameU="DeltaY" v:prompt="" v:val="VT0(0):26"/>
				<v:ud v:nameU="ParLocX" v:prompt="" v:val="VT0(0):26"/>
				<v:ud v:nameU="ParLocY" v:prompt="" v:val="VT0(0):26"/>
				<v:ud v:nameU="PageLoc" v:prompt="" v:val="VT0(0):26"/>
				<v:ud v:nameU="ParLoc" v:prompt="" v:val="VT0(0):26"/>
				<v:ud v:nameU="PictureAreaWidth" v:prompt="" v:val="VT0(0.26944444444444):0"/>
				<v:ud v:nameU="PictureAreaHeight" v:prompt="" v:val="VT0(0.43611111111111):0"/>
				<v:ud v:nameU="PictureAreaAspectRatio" v:prompt="" v:val="VT0(0.61783439490446):26"/>
				<v:ud v:nameU="PictureWidth" v:prompt="" v:val="VT0(0.26944444444444):0"/>
				<v:ud v:nameU="PictureHeight" v:prompt="" v:val="VT0(0.26944444444444):0"/>
				<v:ud v:nameU="DividerOffset" v:prompt="" v:val="VT0(0.2500244913737):0"/>
				<v:ud v:nameU="CalcTextLineHeight" v:prompt="" v:val="VT0(0.13333333333333):29"/>
				<v:ud v:nameU="ExpandedForPicture" v:prompt="" v:val="VT0(0):26"/>
				<v:ud v:nameU="Theme" v:prompt="" v:val="VT0(0):26"/>
				<v:ud v:nameU="visVersion" v:prompt="" v:val="VT0(12):26"/>
				<v:ud v:nameU="Width" v:prompt="" v:val="VT0(2.25):1"/>
				<v:ud v:nameU="Height" v:prompt="" v:val="VT0(0.62500000005926):1"/>
				<v:ud v:nameU="Prop" v:prompt="" v:val="VT4(Name)"/>
				<v:ud v:nameU="PositionID" v:prompt="" v:val="VT4({FBA5D3E5-659B-48D7-8367-7357441C24C7})"/>
				<v:ud v:nameU="ParLocX" v:prompt="" v:val="VT0(0):26"/>
				<v:ud v:nameU="ParLocY" v:prompt="" v:val="VT0(0):26"/>
				<v:ud v:nameU="PageLoc" v:prompt="" v:val="VT7(PNT(0,0)):40"/>
				<v:ud v:nameU="PictureAreaWidth" v:prompt="" v:val="VT0(0.68611111111111):0"/>
				<v:ud v:nameU="PictureAreaHeight" v:prompt="" v:val="VT0(0.56111111117037):0"/>
				<v:ud v:nameU="PictureAreaAspectRatio" v:prompt="" v:val="VT0(1.2227722770986):26"/>
				<v:ud v:nameU="PictureWidth" v:prompt="" v:val="VT0(0.56111111117037):0"/>
				<v:ud v:nameU="PictureHeight" v:prompt="" v:val="VT0(0.56111111117037):0"/>
				<v:ud v:nameU="DividerOffset" v:prompt="" v:val="VT0(0.31252652590854):29"/>
				<v:ud v:nameU="CalcTextLineHeight" v:prompt="" v:val="VT0(0.2):29"/>
			</v:userDefs>
			<title>Manager.22</title>
			<desc>netAnalyzer3000Production 1</desc>
			<g id="shape144-121" v:mID="144" v:groupContext="groupContent">
				<v:textBlock v:margins="rect(0,0,0,0)"/>
				<v:textRect cx="81" cy="528.196" width="153.9" height="22.5"/>
				<path d="M0 550.7 L0 505.7 L162 505.7 L162 550.7 L0 550.7 Z" class="st8"/>
				<path d="M0 550.7 L0 505.7 L162 505.7 L162 550.7 L0 550.7" class="st2"/>
				<path d="M1.8 548.9 L1.8 507.5 L160.2 507.5 L160.2 548.9 L1.8 548.9" class="st2"/>
				<text x="7.28" y="524.6" class="st3" v:langID="1033"><v:paragraph v:horizAlign="1"/><v:tabList/>netAnalyzer3000Production<v:newlineChar/><tspan
							x="77.66" dy="1.2em" class="st4">1</tspan></text>			</g>
		</g>
		<g id="shape149-127" v:mID="149" v:groupContext="shape" v:layerMember="0" transform="translate(99.76,-432.36) scale(-1,1)">
			<title>Bottom to top 1.98</title>
			<v:userDefs>
				<v:ud v:nameU="TextPos" v:val="VT0(1):26"/>
				<v:ud v:nameU="visVersion" v:val="VT0(15):26"/>
			</v:userDefs>
			<path d="M0 537.19 L0 543.94 L0.09 543.94 L0.09 550.7" class="st2"/>
		</g>
		<g id="group150-130" transform="translate(18.2975,-508.867)" v:mID="150" v:groupContext="group">
			<v:custProps>
				<v:cp v:nameU="Department" v:lbl="Department" v:type="0" v:invis="false" v:ask="false" v:langID="1033" v:cal="0"
						v:val="VT4(Department)"/>
				<v:cp v:nameU="Telephone" v:lbl="Telephone" v:type="0" v:invis="false" v:ask="false" v:langID="1033" v:cal="0"
						v:val="VT4(Telephone)"/>
				<v:cp v:nameU="Name" v:lbl="Name" v:type="0" v:invis="false" v:ask="false" v:langID="1033" v:cal="0"
						v:val="VT4(Name)"/>
				<v:cp v:nameU="Title" v:lbl="Title" v:type="0" v:invis="false" v:ask="false" v:langID="1033" v:cal="0"
						v:val="VT4(Title)"/>
				<v:cp v:nameU="Email" v:lbl="E-mail" v:type="0" v:invis="false" v:ask="false" v:langID="1033" v:cal="0"
						v:val="VT4(E-mail)"/>
				<v:cp v:nameU="Name" v:lbl="" v:prompt="" v:type="0" v:format="" v:sortKey="" v:invis="false" v:ask="false"
						v:langID="0" v:cal="0" v:val="VT4(teknoProduction)"/>
				<v:cp v:nameU="Calendar" v:lbl="" v:prompt="" v:type="0" v:format="" v:sortKey="" v:invis="false" v:ask="false"
						v:langID="0" v:cal="0"/>
			</v:custProps>
			<v:userDefs>
				<v:ud v:nameU="Solsh" v:prompt="" v:val="VT15({0BF98B35-200C-41D5-8A23-20EF77CBC94A}):41"/>
				<v:ud v:nameU="ShapeType" v:prompt="" v:val="VT0(1):26"/>
				<v:ud v:nameU="ShowPicture" v:prompt="" v:val="VT0(0):26"/>
				<v:ud v:nameU="ShowSubordinates" v:prompt="" v:val="VT0(1):26"/>
				<v:ud v:nameU="DocShowPicture" v:prompt="" v:val="VT0(1):26"/>
				<v:ud v:nameU="Margin" v:prompt="" v:val="VT0(0.025):0"/>
				<v:ud v:nameU="HasSubordinates" v:prompt="" v:val="VT0(0):26"/>
				<v:ud v:nameU="IsHidingSubs" v:prompt="" v:val="VT0(0):5"/>
				<v:ud v:nameU="ShowDivider" v:prompt="" v:val="VT0(0):26"/>
				<v:ud v:nameU="ThisLayoutStyle" v:prompt="" v:val="VT0(0):26"/>
				<v:ud v:nameU="HasPicture" v:prompt="" v:val="VT0(0):26"/>
				<v:ud v:nameU="Width" v:prompt="" v:val="VT0(1):0"/>
				<v:ud v:nameU="Height" v:prompt="" v:val="VT0(0.5):0"/>
				<v:ud v:nameU="Prop" v:prompt=""/>
				<v:ud v:nameU="PictureAspectRatio" v:prompt="" v:val="VT0(1):26"/>
				<v:ud v:nameU="PictureID" v:prompt=""/>
				<v:ud v:nameU="SetWidth" v:prompt=""/>
				<v:ud v:nameU="SetHeight" v:prompt=""/>
				<v:ud v:nameU="PositionID" v:prompt="" v:val="VT0(0):26"/>
				<v:ud v:nameU="DeltaX" v:prompt="" v:val="VT0(0):26"/>
				<v:ud v:nameU="DeltaY" v:prompt="" v:val="VT0(0):26"/>
				<v:ud v:nameU="ParLocX" v:prompt="" v:val="VT0(0):26"/>
				<v:ud v:nameU="ParLocY" v:prompt="" v:val="VT0(0):26"/>
				<v:ud v:nameU="PageLoc" v:prompt="" v:val="VT0(0):26"/>
				<v:ud v:nameU="ParLoc" v:prompt="" v:val="VT0(0):26"/>
				<v:ud v:nameU="PictureAreaWidth" v:prompt="" v:val="VT0(0.26944444444444):0"/>
				<v:ud v:nameU="PictureAreaHeight" v:prompt="" v:val="VT0(0.43611111111111):0"/>
				<v:ud v:nameU="PictureAreaAspectRatio" v:prompt="" v:val="VT0(0.61783439490446):26"/>
				<v:ud v:nameU="PictureWidth" v:prompt="" v:val="VT0(0.26944444444444):0"/>
				<v:ud v:nameU="PictureHeight" v:prompt="" v:val="VT0(0.26944444444444):0"/>
				<v:ud v:nameU="DividerOffset" v:prompt="" v:val="VT0(0.2500244913737):0"/>
				<v:ud v:nameU="CalcTextLineHeight" v:prompt="" v:val="VT0(0.13333333333333):29"/>
				<v:ud v:nameU="ExpandedForPicture" v:prompt="" v:val="VT0(0):26"/>
				<v:ud v:nameU="Theme" v:prompt="" v:val="VT0(0):26"/>
				<v:ud v:nameU="visVersion" v:prompt="" v:val="VT0(12):26"/>
				<v:ud v:nameU="Width" v:prompt="" v:val="VT0(2.25):1"/>
				<v:ud v:nameU="Height" v:prompt="" v:val="VT0(0.57595744817757):1"/>
				<v:ud v:nameU="Prop" v:prompt="" v:val="VT4(Name)"/>
				<v:ud v:nameU="PositionID" v:prompt="" v:val="VT4({44C76832-AB8D-476A-84D9-DF7C7ABE513C})"/>
				<v:ud v:nameU="PictureAreaWidth" v:prompt="" v:val="VT0(0.68611111111111):0"/>
				<v:ud v:nameU="PictureAreaHeight" v:prompt="" v:val="VT0(0.51206855928868):0"/>
				<v:ud v:nameU="PictureAreaAspectRatio" v:prompt="" v:val="VT0(1.3398813472637):26"/>
				<v:ud v:nameU="PictureWidth" v:prompt="" v:val="VT0(0.51206855928868):0"/>
				<v:ud v:nameU="PictureHeight" v:prompt="" v:val="VT0(0.51206855928868):0"/>
				<v:ud v:nameU="DividerOffset" v:prompt="" v:val="VT0(0.28800524996769):29"/>
				<v:ud v:nameU="CalcTextLineHeight" v:prompt="" v:val="VT0(0.2):29"/>
			</v:userDefs>
			<title>Manager.182</title>
			<desc>teknoProduction 2</desc>
			<g id="shape150-131" v:mID="150" v:groupContext="groupContent">
				<v:textBlock v:margins="rect(0,0,0,0)"/>
				<v:textRect cx="81" cy="529.961" width="153.9" height="20.7345"/>
				<path d="M0 550.7 L0 509.23 L162 509.23 L162 550.7 L0 550.7 Z" class="st9"/>
				<path d="M0 550.7 L0 509.23 L162 509.23 L162 550.7 L0 550.7" class="st2"/>
				<path d="M1.8 548.9 L1.8 511.03 L160.2 511.03 L160.2 548.9 L1.8 548.9" class="st2"/>
				<text x="37.64" y="526.36" class="st3" v:langID="1033"><v:paragraph v:horizAlign="1"/><v:tabList/>teknoProduction<v:newlineChar/><tspan
							x="77.66" dy="1.2em" class="st4">2</tspan></text>			</g>
		</g>
		<g id="shape155-137" v:mID="155" v:groupContext="shape" v:layerMember="0" transform="translate(99.2975,-490.867)">
			<title>Bottom to top 1.104</title>
			<v:userDefs>
				<v:ud v:nameU="TextPos" v:val="VT0(1):26"/>
				<v:ud v:nameU="visVersion" v:val="VT0(15):26"/>
			</v:userDefs>
			<path d="M0 532.7 L0 541.7 L0.46 541.7 L0.46 550.7" class="st2"/>
		</g>
		<g id="shape156-140" v:mID="156" v:groupContext="shape" v:layerMember="0" transform="translate(99.4793,-324.125)">
			<title>Bottom to top 1</title>
			<v:userDefs>
				<v:ud v:nameU="TextPos" v:val="VT0(1):26"/>
				<v:ud v:nameU="visVersion" v:val="VT0(15):26"/>
			</v:userDefs>
			<path d="M0 500.46 L0 525.58 L204.59 525.58 L204.59 550.7" class="st2"/>
		</g>
	</g>
</svg>
