<?xml version="1.0" encoding="UTF-8" standalone="no"?>
<!DOCTYPE svg PUBLIC "-//W3C//DTD SVG 1.1//EN" "http://www.w3.org/Graphics/SVG/1.1/DTD/svg11.dtd">
<!-- Generated by Microsoft Visio, SVG Export Sprint_SNMP_OID_ILM_MIB.svg Page-1 -->
<svg xmlns="http://www.w3.org/2000/svg" xmlns:xlink="http://www.w3.org/1999/xlink" xmlns:ev="http://www.w3.org/2001/xml-events"
		xmlns:v="http://schemas.microsoft.com/visio/2003/SVGExtensions/" width="6.53344in" height="9.885in"
		viewBox="0 0 470.407 711.72" xml:space="preserve" color-interpolation-filters="sRGB" class="st7">
	<v:documentProperties v:langID="1033" v:viewMarkup="false">
		<v:userDefs>
			<v:ud v:nameU="msvConvertTheme"/>
			<v:ud v:nameU="DocShowPicture" v:prompt="" v:val="VT0(1):26"/>
		</v:userDefs>
	</v:documentProperties>

	<style type="text/css">
	<![CDATA[
		.st1 {fill:#b5cb85}
		.st2 {stroke:#000000;stroke-linecap:round;stroke-linejoin:round;stroke-width:0.72}
		.st3 {fill:#000000;font-family:Arial;font-size:1.00001em}
		.st4 {font-family:Bookman Old Style;font-size:1.08334em}
		.st5 {font-size:1em}
		.st6 {fill:#bfb1cf}
		.st7 {fill:none;fill-rule:evenodd;font-size:12px;overflow:visible;stroke-linecap:square;stroke-miterlimit:3}
	]]>
	</style>

	<g v:mID="0" v:index="1" v:groupContext="foregroundPage">
		<title>Page-1</title>
		<v:pageProperties v:drawingScale="1" v:pageScale="1" v:drawingUnits="0" v:shadowOffsetX="9" v:shadowOffsetY="-9"/>
		<v:layer v:name="Connector" v:index="0"/>
		<g id="group1-1" transform="translate(126.36,-648.36)" v:mID="1" v:groupContext="group">
			<v:custProps>
				<v:cp v:nameU="Department" v:lbl="Department" v:type="0" v:invis="false" v:ask="false" v:langID="1033" v:cal="0"
						v:val="VT4(Department)"/>
				<v:cp v:nameU="Telephone" v:lbl="Telephone" v:type="0" v:invis="false" v:ask="false" v:langID="1033" v:cal="0"
						v:val="VT4(Telephone)"/>
				<v:cp v:nameU="Name" v:lbl="Name" v:type="0" v:invis="false" v:ask="false" v:langID="1033" v:cal="0"
						v:val="VT4(Name)"/>
				<v:cp v:nameU="Title" v:lbl="Title" v:type="0" v:invis="false" v:ask="false" v:langID="1033" v:cal="0"
						v:val="VT4(Title)"/>
				<v:cp v:nameU="Email" v:lbl="E-mail" v:type="0" v:invis="false" v:ask="false" v:langID="1033" v:cal="0"
						v:val="VT4(E-mail)"/>
				<v:cp v:nameU="Name" v:lbl="" v:prompt="" v:type="0" v:format="" v:sortKey="" v:invis="false" v:ask="false"
						v:langID="0" v:cal="0" v:val="VT4(adminILMMIB)"/>
				<v:cp v:nameU="Calendar" v:lbl="" v:prompt="" v:type="0" v:format="" v:sortKey="" v:invis="false" v:ask="false"
						v:langID="0" v:cal="0"/>
			</v:custProps>
			<v:userDefs>
				<v:ud v:nameU="Solsh" v:prompt="" v:val="VT15({0BF98B35-200C-41D5-8A23-20EF77CBC94A}):41"/>
				<v:ud v:nameU="ShapeType" v:prompt="" v:val="VT0(1):26"/>
				<v:ud v:nameU="ShowPicture" v:prompt="" v:val="VT0(0):26"/>
				<v:ud v:nameU="ShowSubordinates" v:prompt="" v:val="VT0(1):26"/>
				<v:ud v:nameU="DocShowPicture" v:prompt="" v:val="VT0(1):26"/>
				<v:ud v:nameU="Margin" v:prompt="" v:val="VT0(0.025):0"/>
				<v:ud v:nameU="HasSubordinates" v:prompt="" v:val="VT0(0):26"/>
				<v:ud v:nameU="IsHidingSubs" v:prompt="" v:val="VT0(0):5"/>
				<v:ud v:nameU="ShowDivider" v:prompt="" v:val="VT0(0):26"/>
				<v:ud v:nameU="ThisLayoutStyle" v:prompt="" v:val="VT0(0):26"/>
				<v:ud v:nameU="HasPicture" v:prompt="" v:val="VT0(0):26"/>
				<v:ud v:nameU="Width" v:prompt="" v:val="VT0(1):0"/>
				<v:ud v:nameU="Height" v:prompt="" v:val="VT0(0.5):0"/>
				<v:ud v:nameU="Prop" v:prompt=""/>
				<v:ud v:nameU="PictureAspectRatio" v:prompt="" v:val="VT0(1):26"/>
				<v:ud v:nameU="PictureID" v:prompt=""/>
				<v:ud v:nameU="SetWidth" v:prompt=""/>
				<v:ud v:nameU="SetHeight" v:prompt=""/>
				<v:ud v:nameU="PositionID" v:prompt="" v:val="VT0(0):26"/>
				<v:ud v:nameU="DeltaX" v:prompt="" v:val="VT0(0):26"/>
				<v:ud v:nameU="DeltaY" v:prompt="" v:val="VT0(0):26"/>
				<v:ud v:nameU="ParLocX" v:prompt="" v:val="VT0(0):26"/>
				<v:ud v:nameU="ParLocY" v:prompt="" v:val="VT0(0):26"/>
				<v:ud v:nameU="PageLoc" v:prompt="" v:val="VT0(0):26"/>
				<v:ud v:nameU="ParLoc" v:prompt="" v:val="VT0(0):26"/>
				<v:ud v:nameU="PictureAreaWidth" v:prompt="" v:val="VT0(0.26944444444444):0"/>
				<v:ud v:nameU="PictureAreaHeight" v:prompt="" v:val="VT0(0.43611111111111):0"/>
				<v:ud v:nameU="PictureAreaAspectRatio" v:prompt="" v:val="VT0(0.61783439490446):26"/>
				<v:ud v:nameU="PictureWidth" v:prompt="" v:val="VT0(0.26944444444444):0"/>
				<v:ud v:nameU="PictureHeight" v:prompt="" v:val="VT0(0.26944444444444):0"/>
				<v:ud v:nameU="DividerOffset" v:prompt="" v:val="VT0(0.2500244913737):0"/>
				<v:ud v:nameU="CalcTextLineHeight" v:prompt="" v:val="VT0(0.13333333333333):29"/>
				<v:ud v:nameU="ExpandedForPicture" v:prompt="" v:val="VT0(0):26"/>
				<v:ud v:nameU="Theme" v:prompt="" v:val="VT0(0):26"/>
				<v:ud v:nameU="visVersion" v:prompt="" v:val="VT0(12):26"/>
				<v:ud v:nameU="Width" v:prompt="" v:val="VT0(1.6250000006494):1"/>
				<v:ud v:nameU="Height" v:prompt="" v:val="VT0(0.87500000016438):1"/>
				<v:ud v:nameU="Prop" v:prompt="" v:val="VT4(Name)"/>
				<v:ud v:nameU="PositionID" v:prompt="" v:val="VT4({2C2FFB0B-3D34-4650-938B-80BE140E875F})"/>
				<v:ud v:nameU="PictureAreaWidth" v:prompt="" v:val="VT0(0.47777777799424):0"/>
				<v:ud v:nameU="PictureAreaHeight" v:prompt="" v:val="VT0(0.81111111127549):0"/>
				<v:ud v:nameU="PictureAreaAspectRatio" v:prompt="" v:val="VT0(0.58904109603791):26"/>
				<v:ud v:nameU="PictureWidth" v:prompt="" v:val="VT0(0.47777777799424):0"/>
				<v:ud v:nameU="PictureHeight" v:prompt="" v:val="VT0(0.47777777799424):0"/>
				<v:ud v:nameU="DividerOffset" v:prompt="" v:val="VT0(0.44586011360758):29"/>
				<v:ud v:nameU="CalcTextLineHeight" v:prompt="" v:val="VT0(0.2):29"/>
			</v:userDefs>
			<title>Manager</title>
			<desc>adminILMMIB 3</desc>
			<g id="shape1-2" v:mID="1" v:groupContext="groupContent">
				<v:textBlock v:margins="rect(0,0,0,0)"/>
				<v:textRect cx="58.5" cy="680.22" width="111.16" height="31.5"/>
				<path d="M0 711.72 L0 648.72 L117 648.72 L117 711.72 L0 711.72 Z" class="st1"/>
				<path d="M0 711.72 L0 648.72 L117 648.72 L117 711.72 L0 711.72" class="st2"/>
				<path d="M1.8 709.92 L1.8 650.52 L115.2 650.52 L115.2 709.92 L1.8 709.92" class="st2"/>
				<text x="20.4" y="676.92" class="st3" v:langID="1033"><v:paragraph v:horizAlign="1"/><v:tabList/>admin<tspan
							class="st4">I</tspan>LMM<tspan class="st4">I</tspan>B<v:newlineChar/><tspan x="55.16" dy="1.225em"
							class="st5">3</tspan></text>			</g>
		</g>
		<g id="group6-10" transform="translate(0.36,-566.844)" v:mID="6" v:groupContext="group">
			<v:custProps>
				<v:cp v:nameU="Department" v:lbl="Department" v:type="0" v:invis="false" v:ask="false" v:langID="1033" v:cal="0"
						v:val="VT4(Department)"/>
				<v:cp v:nameU="Telephone" v:lbl="Telephone" v:type="0" v:invis="false" v:ask="false" v:langID="1033" v:cal="0"
						v:val="VT4(Telephone)"/>
				<v:cp v:nameU="Name" v:lbl="Name" v:type="0" v:invis="false" v:ask="false" v:langID="1033" v:cal="0"
						v:val="VT4(Name)"/>
				<v:cp v:nameU="Title" v:lbl="Title" v:type="0" v:invis="false" v:ask="false" v:langID="1033" v:cal="0"
						v:val="VT4(Title)"/>
				<v:cp v:nameU="Email" v:lbl="E-mail" v:type="0" v:invis="false" v:ask="false" v:langID="1033" v:cal="0"
						v:val="VT4(E-mail)"/>
				<v:cp v:nameU="Name" v:lbl="" v:prompt="" v:type="0" v:format="" v:sortKey="" v:invis="false" v:ask="false"
						v:langID="0" v:cal="0" v:val="VT4(adminILMMIBPrefix)"/>
				<v:cp v:nameU="Calendar" v:lbl="" v:prompt="" v:type="0" v:format="" v:sortKey="" v:invis="false" v:ask="false"
						v:langID="0" v:cal="0"/>
			</v:custProps>
			<v:userDefs>
				<v:ud v:nameU="Solsh" v:prompt="" v:val="VT15({0BF98B35-200C-41D5-8A23-20EF77CBC94A}):41"/>
				<v:ud v:nameU="ShapeType" v:prompt="" v:val="VT0(1):26"/>
				<v:ud v:nameU="ShowPicture" v:prompt="" v:val="VT0(0):26"/>
				<v:ud v:nameU="ShowSubordinates" v:prompt="" v:val="VT0(1):26"/>
				<v:ud v:nameU="DocShowPicture" v:prompt="" v:val="VT0(1):26"/>
				<v:ud v:nameU="Margin" v:prompt="" v:val="VT0(0.025):0"/>
				<v:ud v:nameU="HasSubordinates" v:prompt="" v:val="VT0(0):26"/>
				<v:ud v:nameU="IsHidingSubs" v:prompt="" v:val="VT0(0):5"/>
				<v:ud v:nameU="ShowDivider" v:prompt="" v:val="VT0(0):26"/>
				<v:ud v:nameU="ThisLayoutStyle" v:prompt="" v:val="VT0(0):26"/>
				<v:ud v:nameU="HasPicture" v:prompt="" v:val="VT0(0):26"/>
				<v:ud v:nameU="Width" v:prompt="" v:val="VT0(1):0"/>
				<v:ud v:nameU="Height" v:prompt="" v:val="VT0(0.5):0"/>
				<v:ud v:nameU="Prop" v:prompt=""/>
				<v:ud v:nameU="PictureAspectRatio" v:prompt="" v:val="VT0(1):26"/>
				<v:ud v:nameU="PictureID" v:prompt=""/>
				<v:ud v:nameU="SetWidth" v:prompt=""/>
				<v:ud v:nameU="SetHeight" v:prompt=""/>
				<v:ud v:nameU="PositionID" v:prompt="" v:val="VT0(0):26"/>
				<v:ud v:nameU="DeltaX" v:prompt="" v:val="VT0(0):26"/>
				<v:ud v:nameU="DeltaY" v:prompt="" v:val="VT0(0):26"/>
				<v:ud v:nameU="ParLocX" v:prompt="" v:val="VT0(0):26"/>
				<v:ud v:nameU="ParLocY" v:prompt="" v:val="VT0(0):26"/>
				<v:ud v:nameU="PageLoc" v:prompt="" v:val="VT0(0):26"/>
				<v:ud v:nameU="ParLoc" v:prompt="" v:val="VT0(0):26"/>
				<v:ud v:nameU="PictureAreaWidth" v:prompt="" v:val="VT0(0.26944444444444):0"/>
				<v:ud v:nameU="PictureAreaHeight" v:prompt="" v:val="VT0(0.43611111111111):0"/>
				<v:ud v:nameU="PictureAreaAspectRatio" v:prompt="" v:val="VT0(0.61783439490446):26"/>
				<v:ud v:nameU="PictureWidth" v:prompt="" v:val="VT0(0.26944444444444):0"/>
				<v:ud v:nameU="PictureHeight" v:prompt="" v:val="VT0(0.26944444444444):0"/>
				<v:ud v:nameU="DividerOffset" v:prompt="" v:val="VT0(0.2500244913737):0"/>
				<v:ud v:nameU="CalcTextLineHeight" v:prompt="" v:val="VT0(0.13333333333333):29"/>
				<v:ud v:nameU="ExpandedForPicture" v:prompt="" v:val="VT0(0):26"/>
				<v:ud v:nameU="Theme" v:prompt="" v:val="VT0(0):26"/>
				<v:ud v:nameU="visVersion" v:prompt="" v:val="VT0(12):26"/>
				<v:ud v:nameU="Width" v:prompt="" v:val="VT0(1.6209859056124):1"/>
				<v:ud v:nameU="Height" v:prompt="" v:val="VT0(0.87500000016438):1"/>
				<v:ud v:nameU="Prop" v:prompt="" v:val="VT4(Name)"/>
				<v:ud v:nameU="PositionID" v:prompt="" v:val="VT4({FF8F7A5C-302C-4A23-932C-6B5D361C373D})"/>
				<v:ud v:nameU="PictureAreaWidth" v:prompt="" v:val="VT0(0.47643974631523):0"/>
				<v:ud v:nameU="PictureAreaHeight" v:prompt="" v:val="VT0(0.81111111127549):0"/>
				<v:ud v:nameU="PictureAreaAspectRatio" v:prompt="" v:val="VT0(0.58739146794083):26"/>
				<v:ud v:nameU="PictureWidth" v:prompt="" v:val="VT0(0.47643974631523):0"/>
				<v:ud v:nameU="PictureHeight" v:prompt="" v:val="VT0(0.47643974631523):0"/>
				<v:ud v:nameU="DividerOffset" v:prompt="" v:val="VT0(0.44586011360758):29"/>
				<v:ud v:nameU="CalcTextLineHeight" v:prompt="" v:val="VT0(0.2):29"/>
			</v:userDefs>
			<title>Manager.31</title>
			<desc>adminILMMIBPrefix 0</desc>
			<g id="shape6-11" v:mID="6" v:groupContext="groupContent">
				<v:textBlock v:margins="rect(0,0,0,0)"/>
				<v:textRect cx="58.3555" cy="680.22" width="110.88" height="31.5"/>
				<path d="M0 711.72 L0 648.72 L116.71 648.72 L116.71 711.72 L0 711.72 Z" class="st6"/>
				<path d="M0 711.72 L0 648.72 L116.71 648.72 L116.71 711.72 L0 711.72" class="st2"/>
				<path d="M1.8 709.92 L1.8 650.52 L114.91 650.52 L114.91 709.92 L1.8 709.92" class="st2"/>
				<text x="4.92" y="676.92" class="st3" v:langID="1033"><v:paragraph v:horizAlign="1"/><v:tabList/>admin<tspan
							class="st4">I</tspan>LMM<tspan class="st4">I</tspan>BPrefix<v:newlineChar/><tspan x="55.02"
							dy="1.225em" class="st5">0</tspan></text>			</g>
		</g>
		<g id="group11-19" transform="translate(252.36,-567.36)" v:mID="11" v:groupContext="group">
			<v:custProps>
				<v:cp v:nameU="Department" v:lbl="Department" v:type="0" v:invis="false" v:ask="false" v:langID="1033" v:cal="0"
						v:val="VT4(Department)"/>
				<v:cp v:nameU="Telephone" v:lbl="Telephone" v:type="0" v:invis="false" v:ask="false" v:langID="1033" v:cal="0"
						v:val="VT4(Telephone)"/>
				<v:cp v:nameU="Name" v:lbl="Name" v:type="0" v:invis="false" v:ask="false" v:langID="1033" v:cal="0"
						v:val="VT4(Name)"/>
				<v:cp v:nameU="Title" v:lbl="Title" v:type="0" v:invis="false" v:ask="false" v:langID="1033" v:cal="0"
						v:val="VT4(Title)"/>
				<v:cp v:nameU="Email" v:lbl="E-mail" v:type="0" v:invis="false" v:ask="false" v:langID="1033" v:cal="0"
						v:val="VT4(E-mail)"/>
				<v:cp v:nameU="Name" v:lbl="" v:prompt="" v:type="0" v:format="" v:sortKey="" v:invis="false" v:ask="false"
						v:langID="0" v:cal="0" v:val="VT4(teknoIlmEventList)"/>
				<v:cp v:nameU="Calendar" v:lbl="" v:prompt="" v:type="0" v:format="" v:sortKey="" v:invis="false" v:ask="false"
						v:langID="0" v:cal="0"/>
			</v:custProps>
			<v:userDefs>
				<v:ud v:nameU="Solsh" v:prompt="" v:val="VT15({0BF98B35-200C-41D5-8A23-20EF77CBC94A}):41"/>
				<v:ud v:nameU="ShapeType" v:prompt="" v:val="VT0(1):26"/>
				<v:ud v:nameU="ShowPicture" v:prompt="" v:val="VT0(0):26"/>
				<v:ud v:nameU="ShowSubordinates" v:prompt="" v:val="VT0(1):26"/>
				<v:ud v:nameU="DocShowPicture" v:prompt="" v:val="VT0(1):26"/>
				<v:ud v:nameU="Margin" v:prompt="" v:val="VT0(0.025):0"/>
				<v:ud v:nameU="HasSubordinates" v:prompt="" v:val="VT0(0):26"/>
				<v:ud v:nameU="IsHidingSubs" v:prompt="" v:val="VT0(0):5"/>
				<v:ud v:nameU="ShowDivider" v:prompt="" v:val="VT0(0):26"/>
				<v:ud v:nameU="ThisLayoutStyle" v:prompt="" v:val="VT0(0):26"/>
				<v:ud v:nameU="HasPicture" v:prompt="" v:val="VT0(0):26"/>
				<v:ud v:nameU="Width" v:prompt="" v:val="VT0(1):0"/>
				<v:ud v:nameU="Height" v:prompt="" v:val="VT0(0.5):0"/>
				<v:ud v:nameU="Prop" v:prompt=""/>
				<v:ud v:nameU="PictureAspectRatio" v:prompt="" v:val="VT0(1):26"/>
				<v:ud v:nameU="PictureID" v:prompt=""/>
				<v:ud v:nameU="SetWidth" v:prompt=""/>
				<v:ud v:nameU="SetHeight" v:prompt=""/>
				<v:ud v:nameU="PositionID" v:prompt="" v:val="VT0(0):26"/>
				<v:ud v:nameU="DeltaX" v:prompt="" v:val="VT0(0):26"/>
				<v:ud v:nameU="DeltaY" v:prompt="" v:val="VT0(0):26"/>
				<v:ud v:nameU="ParLocX" v:prompt="" v:val="VT0(0):26"/>
				<v:ud v:nameU="ParLocY" v:prompt="" v:val="VT0(0):26"/>
				<v:ud v:nameU="PageLoc" v:prompt="" v:val="VT0(0):26"/>
				<v:ud v:nameU="ParLoc" v:prompt="" v:val="VT0(0):26"/>
				<v:ud v:nameU="PictureAreaWidth" v:prompt="" v:val="VT0(0.26944444444444):0"/>
				<v:ud v:nameU="PictureAreaHeight" v:prompt="" v:val="VT0(0.43611111111111):0"/>
				<v:ud v:nameU="PictureAreaAspectRatio" v:prompt="" v:val="VT0(0.61783439490446):26"/>
				<v:ud v:nameU="PictureWidth" v:prompt="" v:val="VT0(0.26944444444444):0"/>
				<v:ud v:nameU="PictureHeight" v:prompt="" v:val="VT0(0.26944444444444):0"/>
				<v:ud v:nameU="DividerOffset" v:prompt="" v:val="VT0(0.2500244913737):0"/>
				<v:ud v:nameU="CalcTextLineHeight" v:prompt="" v:val="VT0(0.13333333333333):29"/>
				<v:ud v:nameU="ExpandedForPicture" v:prompt="" v:val="VT0(0):26"/>
				<v:ud v:nameU="Theme" v:prompt="" v:val="VT0(0):26"/>
				<v:ud v:nameU="visVersion" v:prompt="" v:val="VT0(12):26"/>
				<v:ud v:nameU="Width" v:prompt="" v:val="VT0(1.6250000006494):1"/>
				<v:ud v:nameU="Height" v:prompt="" v:val="VT0(0.87500000016438):1"/>
				<v:ud v:nameU="Prop" v:prompt="" v:val="VT4(Name)"/>
				<v:ud v:nameU="PositionID" v:prompt="" v:val="VT4({11E4C8FF-5F5B-4CEB-A4C2-A23DB62AE535})"/>
				<v:ud v:nameU="PictureAreaWidth" v:prompt="" v:val="VT0(0.47777777799424):0"/>
				<v:ud v:nameU="PictureAreaHeight" v:prompt="" v:val="VT0(0.81111111127549):0"/>
				<v:ud v:nameU="PictureAreaAspectRatio" v:prompt="" v:val="VT0(0.58904109603791):26"/>
				<v:ud v:nameU="PictureWidth" v:prompt="" v:val="VT0(0.47777777799424):0"/>
				<v:ud v:nameU="PictureHeight" v:prompt="" v:val="VT0(0.47777777799424):0"/>
				<v:ud v:nameU="DividerOffset" v:prompt="" v:val="VT0(0.44586011360758):29"/>
				<v:ud v:nameU="CalcTextLineHeight" v:prompt="" v:val="VT0(0.2):29"/>
			</v:userDefs>
			<title>Manager.36</title>
			<desc>teknoIlmEventList 1</desc>
			<g id="shape11-20" v:mID="11" v:groupContext="groupContent">
				<v:textBlock v:margins="rect(0,0,0,0)"/>
				<v:textRect cx="58.5" cy="680.22" width="111.16" height="31.5"/>
				<path d="M0 711.72 L0 648.72 L117 648.72 L117 711.72 L0 711.72 Z" class="st6"/>
				<path d="M0 711.72 L0 648.72 L117 648.72 L117 711.72 L0 711.72" class="st2"/>
				<path d="M1.8 709.92 L1.8 650.52 L115.2 650.52 L115.2 709.92 L1.8 709.92" class="st2"/>
				<text x="10.6" y="676.92" class="st3" v:langID="1033"><v:paragraph v:horizAlign="1"/><v:tabList/>tekno<tspan
							class="st4">I</tspan>lmEventList<v:newlineChar/><tspan x="55.16" dy="1.225em" class="st5">1</tspan></text>			</g>
		</g>
		<g id="group17-27" transform="translate(0.36,-486.36)" v:mID="17" v:groupContext="group">
			<v:custProps>
				<v:cp v:nameU="Department" v:lbl="Department" v:type="0" v:invis="false" v:ask="false" v:langID="1033" v:cal="0"
						v:val="VT4(Department)"/>
				<v:cp v:nameU="Telephone" v:lbl="Telephone" v:type="0" v:invis="false" v:ask="false" v:langID="1033" v:cal="0"
						v:val="VT4(Telephone)"/>
				<v:cp v:nameU="Name" v:lbl="Name" v:type="0" v:invis="false" v:ask="false" v:langID="1033" v:cal="0"
						v:val="VT4(Name)"/>
				<v:cp v:nameU="Title" v:lbl="Title" v:type="0" v:invis="false" v:ask="false" v:langID="1033" v:cal="0"
						v:val="VT4(Title)"/>
				<v:cp v:nameU="Email" v:lbl="E-mail" v:type="0" v:invis="false" v:ask="false" v:langID="1033" v:cal="0"
						v:val="VT4(E-mail)"/>
				<v:cp v:nameU="Name" v:lbl="" v:prompt="" v:type="0" v:format="" v:sortKey="" v:invis="false" v:ask="false"
						v:langID="0" v:cal="0" v:val="VT4(ilmNotification)"/>
				<v:cp v:nameU="Calendar" v:lbl="" v:prompt="" v:type="0" v:format="" v:sortKey="" v:invis="false" v:ask="false"
						v:langID="0" v:cal="0"/>
			</v:custProps>
			<v:userDefs>
				<v:ud v:nameU="Solsh" v:prompt="" v:val="VT15({0BF98B35-200C-41D5-8A23-20EF77CBC94A}):41"/>
				<v:ud v:nameU="ShapeType" v:prompt="" v:val="VT0(1):26"/>
				<v:ud v:nameU="ShowPicture" v:prompt="" v:val="VT0(0):26"/>
				<v:ud v:nameU="ShowSubordinates" v:prompt="" v:val="VT0(1):26"/>
				<v:ud v:nameU="DocShowPicture" v:prompt="" v:val="VT0(1):26"/>
				<v:ud v:nameU="Margin" v:prompt="" v:val="VT0(0.025):0"/>
				<v:ud v:nameU="HasSubordinates" v:prompt="" v:val="VT0(0):26"/>
				<v:ud v:nameU="IsHidingSubs" v:prompt="" v:val="VT0(0):5"/>
				<v:ud v:nameU="ShowDivider" v:prompt="" v:val="VT0(0):26"/>
				<v:ud v:nameU="ThisLayoutStyle" v:prompt="" v:val="VT0(0):26"/>
				<v:ud v:nameU="HasPicture" v:prompt="" v:val="VT0(0):26"/>
				<v:ud v:nameU="Width" v:prompt="" v:val="VT0(1):0"/>
				<v:ud v:nameU="Height" v:prompt="" v:val="VT0(0.5):0"/>
				<v:ud v:nameU="Prop" v:prompt=""/>
				<v:ud v:nameU="PictureAspectRatio" v:prompt="" v:val="VT0(1):26"/>
				<v:ud v:nameU="PictureID" v:prompt=""/>
				<v:ud v:nameU="SetWidth" v:prompt=""/>
				<v:ud v:nameU="SetHeight" v:prompt=""/>
				<v:ud v:nameU="PositionID" v:prompt="" v:val="VT0(0):26"/>
				<v:ud v:nameU="DeltaX" v:prompt="" v:val="VT0(0):26"/>
				<v:ud v:nameU="DeltaY" v:prompt="" v:val="VT0(0):26"/>
				<v:ud v:nameU="ParLocX" v:prompt="" v:val="VT0(0):26"/>
				<v:ud v:nameU="ParLocY" v:prompt="" v:val="VT0(0):26"/>
				<v:ud v:nameU="PageLoc" v:prompt="" v:val="VT0(0):26"/>
				<v:ud v:nameU="ParLoc" v:prompt="" v:val="VT0(0):26"/>
				<v:ud v:nameU="PictureAreaWidth" v:prompt="" v:val="VT0(0.26944444444444):0"/>
				<v:ud v:nameU="PictureAreaHeight" v:prompt="" v:val="VT0(0.43611111111111):0"/>
				<v:ud v:nameU="PictureAreaAspectRatio" v:prompt="" v:val="VT0(0.61783439490446):26"/>
				<v:ud v:nameU="PictureWidth" v:prompt="" v:val="VT0(0.26944444444444):0"/>
				<v:ud v:nameU="PictureHeight" v:prompt="" v:val="VT0(0.26944444444444):0"/>
				<v:ud v:nameU="DividerOffset" v:prompt="" v:val="VT0(0.2500244913737):0"/>
				<v:ud v:nameU="CalcTextLineHeight" v:prompt="" v:val="VT0(0.13333333333333):29"/>
				<v:ud v:nameU="ExpandedForPicture" v:prompt="" v:val="VT0(0):26"/>
				<v:ud v:nameU="Theme" v:prompt="" v:val="VT0(0):26"/>
				<v:ud v:nameU="visVersion" v:prompt="" v:val="VT0(12):26"/>
				<v:ud v:nameU="Width" v:prompt="" v:val="VT0(1.6209859056124):1"/>
				<v:ud v:nameU="Height" v:prompt="" v:val="VT0(0.87500000016438):1"/>
				<v:ud v:nameU="Prop" v:prompt="" v:val="VT4(Name)"/>
				<v:ud v:nameU="PositionID" v:prompt="" v:val="VT4({1DB025A7-9B83-44B4-83A9-9FB838A9CE74})"/>
				<v:ud v:nameU="PictureAreaWidth" v:prompt="" v:val="VT0(0.47643974631523):0"/>
				<v:ud v:nameU="PictureAreaHeight" v:prompt="" v:val="VT0(0.81111111127549):0"/>
				<v:ud v:nameU="PictureAreaAspectRatio" v:prompt="" v:val="VT0(0.58739146794083):26"/>
				<v:ud v:nameU="PictureWidth" v:prompt="" v:val="VT0(0.47643974631523):0"/>
				<v:ud v:nameU="PictureHeight" v:prompt="" v:val="VT0(0.47643974631523):0"/>
				<v:ud v:nameU="DividerOffset" v:prompt="" v:val="VT0(0.4375265259611):29"/>
				<v:ud v:nameU="CalcTextLineHeight" v:prompt="" v:val="VT0(0.2):29"/>
			</v:userDefs>
			<title>Manager.17</title>
			<desc>ilmNotification 1</desc>
			<g id="shape17-28" v:mID="17" v:groupContext="groupContent">
				<v:textBlock v:margins="rect(0,0,0,0)"/>
				<v:textRect cx="58.3555" cy="680.22" width="110.88" height="31.5"/>
				<path d="M0 711.72 L0 648.72 L116.71 648.72 L116.71 711.72 L0 711.72 Z" class="st6"/>
				<path d="M0 711.72 L0 648.72 L116.71 648.72 L116.71 711.72 L0 711.72" class="st2"/>
				<path d="M1.8 709.92 L1.8 650.52 L114.91 650.52 L114.91 709.92 L1.8 709.92" class="st2"/>
				<text x="21.01" y="676.62" class="st3" v:langID="1033"><v:paragraph v:horizAlign="1"/><v:tabList/>ilmNotification<v:newlineChar/><tspan
							x="55.02" dy="1.2em" class="st5">1</tspan></text>			</g>
		</g>
		<g id="group23-34" transform="translate(180.36,-486.36)" v:mID="23" v:groupContext="group">
			<v:custProps>
				<v:cp v:nameU="Department" v:lbl="Department" v:type="0" v:invis="false" v:ask="false" v:langID="1033" v:cal="0"
						v:val="VT4(Department)"/>
				<v:cp v:nameU="Telephone" v:lbl="Telephone" v:type="0" v:invis="false" v:ask="false" v:langID="1033" v:cal="0"
						v:val="VT4(Telephone)"/>
				<v:cp v:nameU="Name" v:lbl="Name" v:type="0" v:invis="false" v:ask="false" v:langID="1033" v:cal="0"
						v:val="VT4(Name)"/>
				<v:cp v:nameU="Title" v:lbl="Title" v:type="0" v:invis="false" v:ask="false" v:langID="1033" v:cal="0"
						v:val="VT4(Title)"/>
				<v:cp v:nameU="Email" v:lbl="E-mail" v:type="0" v:invis="false" v:ask="false" v:langID="1033" v:cal="0"
						v:val="VT4(E-mail)"/>
				<v:cp v:nameU="Name" v:lbl="" v:prompt="" v:type="0" v:format="" v:sortKey="" v:invis="false" v:ask="false"
						v:langID="0" v:cal="0" v:val="VT4(time)"/>
				<v:cp v:nameU="Calendar" v:lbl="" v:prompt="" v:type="0" v:format="" v:sortKey="" v:invis="false" v:ask="false"
						v:langID="0" v:cal="0"/>
			</v:custProps>
			<v:userDefs>
				<v:ud v:nameU="Solsh" v:prompt="" v:val="VT15({0BF98B35-200C-41D5-8A23-20EF77CBC94A}):41"/>
				<v:ud v:nameU="ShapeType" v:prompt="" v:val="VT0(1):26"/>
				<v:ud v:nameU="ShowPicture" v:prompt="" v:val="VT0(0):26"/>
				<v:ud v:nameU="ShowSubordinates" v:prompt="" v:val="VT0(1):26"/>
				<v:ud v:nameU="DocShowPicture" v:prompt="" v:val="VT0(1):26"/>
				<v:ud v:nameU="Margin" v:prompt="" v:val="VT0(0.025):0"/>
				<v:ud v:nameU="HasSubordinates" v:prompt="" v:val="VT0(0):26"/>
				<v:ud v:nameU="IsHidingSubs" v:prompt="" v:val="VT0(0):5"/>
				<v:ud v:nameU="ShowDivider" v:prompt="" v:val="VT0(0):26"/>
				<v:ud v:nameU="ThisLayoutStyle" v:prompt="" v:val="VT0(0):26"/>
				<v:ud v:nameU="HasPicture" v:prompt="" v:val="VT0(0):26"/>
				<v:ud v:nameU="Width" v:prompt="" v:val="VT0(1):0"/>
				<v:ud v:nameU="Height" v:prompt="" v:val="VT0(0.5):0"/>
				<v:ud v:nameU="Prop" v:prompt=""/>
				<v:ud v:nameU="PictureAspectRatio" v:prompt="" v:val="VT0(1):26"/>
				<v:ud v:nameU="PictureID" v:prompt=""/>
				<v:ud v:nameU="SetWidth" v:prompt=""/>
				<v:ud v:nameU="SetHeight" v:prompt=""/>
				<v:ud v:nameU="PositionID" v:prompt="" v:val="VT0(0):26"/>
				<v:ud v:nameU="DeltaX" v:prompt="" v:val="VT0(0):26"/>
				<v:ud v:nameU="DeltaY" v:prompt="" v:val="VT0(0):26"/>
				<v:ud v:nameU="ParLocX" v:prompt="" v:val="VT0(0):26"/>
				<v:ud v:nameU="ParLocY" v:prompt="" v:val="VT0(0):26"/>
				<v:ud v:nameU="PageLoc" v:prompt="" v:val="VT0(0):26"/>
				<v:ud v:nameU="ParLoc" v:prompt="" v:val="VT0(0):26"/>
				<v:ud v:nameU="PictureAreaWidth" v:prompt="" v:val="VT0(0.26944444444444):0"/>
				<v:ud v:nameU="PictureAreaHeight" v:prompt="" v:val="VT0(0.43611111111111):0"/>
				<v:ud v:nameU="PictureAreaAspectRatio" v:prompt="" v:val="VT0(0.61783439490446):26"/>
				<v:ud v:nameU="PictureWidth" v:prompt="" v:val="VT0(0.26944444444444):0"/>
				<v:ud v:nameU="PictureHeight" v:prompt="" v:val="VT0(0.26944444444444):0"/>
				<v:ud v:nameU="DividerOffset" v:prompt="" v:val="VT0(0.2500244913737):0"/>
				<v:ud v:nameU="CalcTextLineHeight" v:prompt="" v:val="VT0(0.13333333333333):29"/>
				<v:ud v:nameU="ExpandedForPicture" v:prompt="" v:val="VT0(0):26"/>
				<v:ud v:nameU="Theme" v:prompt="" v:val="VT0(0):26"/>
				<v:ud v:nameU="visVersion" v:prompt="" v:val="VT0(12):26"/>
				<v:ud v:nameU="Width" v:prompt="" v:val="VT0(1.6250000006494):1"/>
				<v:ud v:nameU="Height" v:prompt="" v:val="VT0(0.87500000016438):1"/>
				<v:ud v:nameU="Prop" v:prompt="" v:val="VT4(Name)"/>
				<v:ud v:nameU="PositionID" v:prompt="" v:val="VT4({577BA7A3-1E0E-472E-A945-A4AB120ED65E})"/>
				<v:ud v:nameU="ParLocX" v:prompt="" v:val="VT0(0):26"/>
				<v:ud v:nameU="ParLocY" v:prompt="" v:val="VT0(0):26"/>
				<v:ud v:nameU="PageLoc" v:prompt="" v:val="VT7(PNT(0,0)):40"/>
				<v:ud v:nameU="PictureAreaWidth" v:prompt="" v:val="VT0(0.47777777799424):0"/>
				<v:ud v:nameU="PictureAreaHeight" v:prompt="" v:val="VT0(0.81111111127549):0"/>
				<v:ud v:nameU="PictureAreaAspectRatio" v:prompt="" v:val="VT0(0.58904109603791):26"/>
				<v:ud v:nameU="PictureWidth" v:prompt="" v:val="VT0(0.47777777799424):0"/>
				<v:ud v:nameU="PictureHeight" v:prompt="" v:val="VT0(0.47777777799424):0"/>
				<v:ud v:nameU="DividerOffset" v:prompt="" v:val="VT0(0.43752652596109):29"/>
				<v:ud v:nameU="CalcTextLineHeight" v:prompt="" v:val="VT0(0.2):29"/>
			</v:userDefs>
			<title>Manager.22</title>
			<desc>time 1</desc>
			<g id="shape23-35" v:mID="23" v:groupContext="groupContent">
				<v:textBlock v:margins="rect(0,0,0,0)"/>
				<v:textRect cx="58.5" cy="680.22" width="111.16" height="31.5"/>
				<path d="M0 711.72 L0 648.72 L117 648.72 L117 711.72 L0 711.72 Z" class="st6"/>
				<path d="M0 711.72 L0 648.72 L117 648.72 L117 711.72 L0 711.72" class="st2"/>
				<path d="M1.8 709.92 L1.8 650.52 L115.2 650.52 L115.2 709.92 L1.8 709.92" class="st2"/>
				<text x="47.16" y="676.62" class="st3" v:langID="1033"><v:paragraph v:horizAlign="1"/><v:tabList/>time<v:newlineChar/><tspan
							x="55.16" dy="1.2em" class="st5">1</tspan></text>			</g>
		</g>
		<g id="group28-41" transform="translate(324.36,-486.36)" v:mID="28" v:groupContext="group">
			<v:custProps>
				<v:cp v:nameU="Department" v:lbl="Department" v:type="0" v:invis="false" v:ask="false" v:langID="1033" v:cal="0"
						v:val="VT4(Department)"/>
				<v:cp v:nameU="Telephone" v:lbl="Telephone" v:type="0" v:invis="false" v:ask="false" v:langID="1033" v:cal="0"
						v:val="VT4(Telephone)"/>
				<v:cp v:nameU="Name" v:lbl="Name" v:type="0" v:invis="false" v:ask="false" v:langID="1033" v:cal="0"
						v:val="VT4(Name)"/>
				<v:cp v:nameU="Title" v:lbl="Title" v:type="0" v:invis="false" v:ask="false" v:langID="1033" v:cal="0"
						v:val="VT4(Title)"/>
				<v:cp v:nameU="Email" v:lbl="E-mail" v:type="0" v:invis="false" v:ask="false" v:langID="1033" v:cal="0"
						v:val="VT4(E-mail)"/>
				<v:cp v:nameU="Name" v:lbl="" v:prompt="" v:type="0" v:format="" v:sortKey="" v:invis="false" v:ask="false"
						v:langID="0" v:cal="0" v:val="VT4(event 2)"/>
				<v:cp v:nameU="Calendar" v:lbl="" v:prompt="" v:type="0" v:format="" v:sortKey="" v:invis="false" v:ask="false"
						v:langID="0" v:cal="0"/>
			</v:custProps>
			<v:userDefs>
				<v:ud v:nameU="Solsh" v:prompt="" v:val="VT15({0BF98B35-200C-41D5-8A23-20EF77CBC94A}):41"/>
				<v:ud v:nameU="ShapeType" v:prompt="" v:val="VT0(1):26"/>
				<v:ud v:nameU="ShowPicture" v:prompt="" v:val="VT0(0):26"/>
				<v:ud v:nameU="ShowSubordinates" v:prompt="" v:val="VT0(1):26"/>
				<v:ud v:nameU="DocShowPicture" v:prompt="" v:val="VT0(1):26"/>
				<v:ud v:nameU="Margin" v:prompt="" v:val="VT0(0.025):0"/>
				<v:ud v:nameU="HasSubordinates" v:prompt="" v:val="VT0(0):26"/>
				<v:ud v:nameU="IsHidingSubs" v:prompt="" v:val="VT0(0):5"/>
				<v:ud v:nameU="ShowDivider" v:prompt="" v:val="VT0(0):26"/>
				<v:ud v:nameU="ThisLayoutStyle" v:prompt="" v:val="VT0(0):26"/>
				<v:ud v:nameU="HasPicture" v:prompt="" v:val="VT0(0):26"/>
				<v:ud v:nameU="Width" v:prompt="" v:val="VT0(1):0"/>
				<v:ud v:nameU="Height" v:prompt="" v:val="VT0(0.5):0"/>
				<v:ud v:nameU="Prop" v:prompt=""/>
				<v:ud v:nameU="PictureAspectRatio" v:prompt="" v:val="VT0(1):26"/>
				<v:ud v:nameU="PictureID" v:prompt=""/>
				<v:ud v:nameU="SetWidth" v:prompt=""/>
				<v:ud v:nameU="SetHeight" v:prompt=""/>
				<v:ud v:nameU="PositionID" v:prompt="" v:val="VT0(0):26"/>
				<v:ud v:nameU="DeltaX" v:prompt="" v:val="VT0(0):26"/>
				<v:ud v:nameU="DeltaY" v:prompt="" v:val="VT0(0):26"/>
				<v:ud v:nameU="ParLocX" v:prompt="" v:val="VT0(0):26"/>
				<v:ud v:nameU="ParLocY" v:prompt="" v:val="VT0(0):26"/>
				<v:ud v:nameU="PageLoc" v:prompt="" v:val="VT0(0):26"/>
				<v:ud v:nameU="ParLoc" v:prompt="" v:val="VT0(0):26"/>
				<v:ud v:nameU="PictureAreaWidth" v:prompt="" v:val="VT0(0.26944444444444):0"/>
				<v:ud v:nameU="PictureAreaHeight" v:prompt="" v:val="VT0(0.43611111111111):0"/>
				<v:ud v:nameU="PictureAreaAspectRatio" v:prompt="" v:val="VT0(0.61783439490446):26"/>
				<v:ud v:nameU="PictureWidth" v:prompt="" v:val="VT0(0.26944444444444):0"/>
				<v:ud v:nameU="PictureHeight" v:prompt="" v:val="VT0(0.26944444444444):0"/>
				<v:ud v:nameU="DividerOffset" v:prompt="" v:val="VT0(0.2500244913737):0"/>
				<v:ud v:nameU="CalcTextLineHeight" v:prompt="" v:val="VT0(0.13333333333333):29"/>
				<v:ud v:nameU="ExpandedForPicture" v:prompt="" v:val="VT0(0):26"/>
				<v:ud v:nameU="Theme" v:prompt="" v:val="VT0(0):26"/>
				<v:ud v:nameU="visVersion" v:prompt="" v:val="VT0(12):26"/>
				<v:ud v:nameU="Width" v:prompt="" v:val="VT0(1.6250000006494):1"/>
				<v:ud v:nameU="Height" v:prompt="" v:val="VT0(0.87500000024656):1"/>
				<v:ud v:nameU="Prop" v:prompt="" v:val="VT4(Name)"/>
				<v:ud v:nameU="PositionID" v:prompt="" v:val="VT4({BEF391BC-915F-4A45-8E3E-11AD31FBEA43})"/>
				<v:ud v:nameU="PictureAreaWidth" v:prompt="" v:val="VT0(0.47777777799424):0"/>
				<v:ud v:nameU="PictureAreaHeight" v:prompt="" v:val="VT0(0.81111111135768):0"/>
				<v:ud v:nameU="PictureAreaAspectRatio" v:prompt="" v:val="VT0(0.58904109597823):26"/>
				<v:ud v:nameU="PictureWidth" v:prompt="" v:val="VT0(0.47777777799424):0"/>
				<v:ud v:nameU="PictureHeight" v:prompt="" v:val="VT0(0.47777777799424):0"/>
				<v:ud v:nameU="DividerOffset" v:prompt="" v:val="VT0(0.43752652600219):29"/>
				<v:ud v:nameU="CalcTextLineHeight" v:prompt="" v:val="VT0(0.2):29"/>
			</v:userDefs>
			<title>Manager.27</title>
			<desc>event 2</desc>
			<g id="shape28-42" v:mID="28" v:groupContext="groupContent">
				<v:textBlock v:margins="rect(0,0,0,0)"/>
				<v:textRect cx="58.5" cy="680.22" width="111.16" height="31.5"/>
				<path d="M0 711.72 L0 648.72 L117 648.72 L117 711.72 L0 711.72 Z" class="st6"/>
				<path d="M0 711.72 L0 648.72 L117 648.72 L117 711.72 L0 711.72" class="st2"/>
				<path d="M1.8 709.92 L1.8 650.52 L115.2 650.52 L115.2 709.92 L1.8 709.92" class="st2"/>
				<text x="43.82" y="676.62" class="st3" v:langID="1033"><v:paragraph v:horizAlign="1"/><v:tabList/>event<v:lf/><tspan
							x="55.16" dy="1.2em" class="st5">2</tspan></text>			</g>
		</g>
		<g id="group33-48" transform="translate(324.36,-324.36)" v:mID="33" v:groupContext="group">
			<v:custProps>
				<v:cp v:nameU="Department" v:lbl="Department" v:type="0" v:invis="false" v:ask="false" v:langID="1033" v:cal="0"
						v:val="VT4(Department)"/>
				<v:cp v:nameU="Telephone" v:lbl="Telephone" v:type="0" v:invis="false" v:ask="false" v:langID="1033" v:cal="0"
						v:val="VT4(Telephone)"/>
				<v:cp v:nameU="Name" v:lbl="Name" v:type="0" v:invis="false" v:ask="false" v:langID="1033" v:cal="0"
						v:val="VT4(Name)"/>
				<v:cp v:nameU="Title" v:lbl="Title" v:type="0" v:invis="false" v:ask="false" v:langID="1033" v:cal="0"
						v:val="VT4(Title)"/>
				<v:cp v:nameU="Email" v:lbl="E-mail" v:type="0" v:invis="false" v:ask="false" v:langID="1033" v:cal="0"
						v:val="VT4(E-mail)"/>
				<v:cp v:nameU="Name" v:lbl="" v:prompt="" v:type="0" v:format="" v:sortKey="" v:invis="false" v:ask="false"
						v:langID="0" v:cal="0" v:val="VT4(ssgClass 6)"/>
				<v:cp v:nameU="Calendar" v:lbl="" v:prompt="" v:type="0" v:format="" v:sortKey="" v:invis="false" v:ask="false"
						v:langID="0" v:cal="0"/>
			</v:custProps>
			<v:userDefs>
				<v:ud v:nameU="Solsh" v:prompt="" v:val="VT15({0BF98B35-200C-41D5-8A23-20EF77CBC94A}):41"/>
				<v:ud v:nameU="ShapeType" v:prompt="" v:val="VT0(1):26"/>
				<v:ud v:nameU="ShowPicture" v:prompt="" v:val="VT0(0):26"/>
				<v:ud v:nameU="ShowSubordinates" v:prompt="" v:val="VT0(1):26"/>
				<v:ud v:nameU="DocShowPicture" v:prompt="" v:val="VT0(1):26"/>
				<v:ud v:nameU="Margin" v:prompt="" v:val="VT0(0.025):0"/>
				<v:ud v:nameU="HasSubordinates" v:prompt="" v:val="VT0(0):26"/>
				<v:ud v:nameU="IsHidingSubs" v:prompt="" v:val="VT0(0):5"/>
				<v:ud v:nameU="ShowDivider" v:prompt="" v:val="VT0(0):26"/>
				<v:ud v:nameU="ThisLayoutStyle" v:prompt="" v:val="VT0(0):26"/>
				<v:ud v:nameU="HasPicture" v:prompt="" v:val="VT0(0):26"/>
				<v:ud v:nameU="Width" v:prompt="" v:val="VT0(1):0"/>
				<v:ud v:nameU="Height" v:prompt="" v:val="VT0(0.5):0"/>
				<v:ud v:nameU="Prop" v:prompt=""/>
				<v:ud v:nameU="PictureAspectRatio" v:prompt="" v:val="VT0(1):26"/>
				<v:ud v:nameU="PictureID" v:prompt=""/>
				<v:ud v:nameU="SetWidth" v:prompt=""/>
				<v:ud v:nameU="SetHeight" v:prompt=""/>
				<v:ud v:nameU="PositionID" v:prompt="" v:val="VT0(0):26"/>
				<v:ud v:nameU="DeltaX" v:prompt="" v:val="VT0(0):26"/>
				<v:ud v:nameU="DeltaY" v:prompt="" v:val="VT0(0):26"/>
				<v:ud v:nameU="ParLocX" v:prompt="" v:val="VT0(0):26"/>
				<v:ud v:nameU="ParLocY" v:prompt="" v:val="VT0(0):26"/>
				<v:ud v:nameU="PageLoc" v:prompt="" v:val="VT0(0):26"/>
				<v:ud v:nameU="ParLoc" v:prompt="" v:val="VT0(0):26"/>
				<v:ud v:nameU="PictureAreaWidth" v:prompt="" v:val="VT0(0.26944444444444):0"/>
				<v:ud v:nameU="PictureAreaHeight" v:prompt="" v:val="VT0(0.43611111111111):0"/>
				<v:ud v:nameU="PictureAreaAspectRatio" v:prompt="" v:val="VT0(0.61783439490446):26"/>
				<v:ud v:nameU="PictureWidth" v:prompt="" v:val="VT0(0.26944444444444):0"/>
				<v:ud v:nameU="PictureHeight" v:prompt="" v:val="VT0(0.26944444444444):0"/>
				<v:ud v:nameU="DividerOffset" v:prompt="" v:val="VT0(0.2500244913737):0"/>
				<v:ud v:nameU="CalcTextLineHeight" v:prompt="" v:val="VT0(0.13333333333333):29"/>
				<v:ud v:nameU="ExpandedForPicture" v:prompt="" v:val="VT0(0):26"/>
				<v:ud v:nameU="Theme" v:prompt="" v:val="VT0(0):26"/>
				<v:ud v:nameU="visVersion" v:prompt="" v:val="VT0(12):26"/>
				<v:ud v:nameU="Width" v:prompt="" v:val="VT0(1.6250000006494):1"/>
				<v:ud v:nameU="Height" v:prompt="" v:val="VT0(0.87500000028766):1"/>
				<v:ud v:nameU="Prop" v:prompt="" v:val="VT4(Name)"/>
				<v:ud v:nameU="PositionID" v:prompt="" v:val="VT4({D5C2A38E-FFB2-40A5-8384-FBF4864B5D61})"/>
				<v:ud v:nameU="PictureAreaWidth" v:prompt="" v:val="VT0(0.47777777799424):0"/>
				<v:ud v:nameU="PictureAreaHeight" v:prompt="" v:val="VT0(0.81111111139877):0"/>
				<v:ud v:nameU="PictureAreaAspectRatio" v:prompt="" v:val="VT0(0.58904109594839):26"/>
				<v:ud v:nameU="PictureWidth" v:prompt="" v:val="VT0(0.47777777799424):0"/>
				<v:ud v:nameU="PictureHeight" v:prompt="" v:val="VT0(0.47777777799424):0"/>
				<v:ud v:nameU="DividerOffset" v:prompt="" v:val="VT0(0.43752652602273):29"/>
				<v:ud v:nameU="CalcTextLineHeight" v:prompt="" v:val="VT0(0.2):29"/>
			</v:userDefs>
			<title>Manager.32</title>
			<desc>ssgClass 6</desc>
			<g id="shape33-49" v:mID="33" v:groupContext="groupContent">
				<v:textBlock v:margins="rect(0,0,0,0)"/>
				<v:textRect cx="58.5" cy="680.22" width="111.16" height="31.5"/>
				<path d="M0 711.72 L0 648.72 L117 648.72 L117 711.72 L0 711.72 Z" class="st6"/>
				<path d="M0 711.72 L0 648.72 L117 648.72 L117 711.72 L0 711.72" class="st2"/>
				<path d="M1.8 709.92 L1.8 650.52 L115.2 650.52 L115.2 709.92 L1.8 709.92" class="st2"/>
				<text x="34.16" y="676.62" class="st3" v:langID="1033"><v:paragraph v:horizAlign="1"/><v:tabList/>ssgClass<v:lf/><tspan
							x="55.16" dy="1.2em" class="st5">6</tspan></text>			</g>
		</g>
		<g id="group38-55" transform="translate(180.36,-324.36)" v:mID="38" v:groupContext="group">
			<v:custProps>
				<v:cp v:nameU="Department" v:lbl="Department" v:type="0" v:invis="false" v:ask="false" v:langID="1033" v:cal="0"
						v:val="VT4(Department)"/>
				<v:cp v:nameU="Telephone" v:lbl="Telephone" v:type="0" v:invis="false" v:ask="false" v:langID="1033" v:cal="0"
						v:val="VT4(Telephone)"/>
				<v:cp v:nameU="Name" v:lbl="Name" v:type="0" v:invis="false" v:ask="false" v:langID="1033" v:cal="0"
						v:val="VT4(Name)"/>
				<v:cp v:nameU="Title" v:lbl="Title" v:type="0" v:invis="false" v:ask="false" v:langID="1033" v:cal="0"
						v:val="VT4(Title)"/>
				<v:cp v:nameU="Email" v:lbl="E-mail" v:type="0" v:invis="false" v:ask="false" v:langID="1033" v:cal="0"
						v:val="VT4(E-mail)"/>
				<v:cp v:nameU="Name" v:lbl="" v:prompt="" v:type="0" v:format="" v:sortKey="" v:invis="false" v:ask="false"
						v:langID="0" v:cal="0" v:val="VT4(version 5)"/>
				<v:cp v:nameU="Calendar" v:lbl="" v:prompt="" v:type="0" v:format="" v:sortKey="" v:invis="false" v:ask="false"
						v:langID="0" v:cal="0"/>
			</v:custProps>
			<v:userDefs>
				<v:ud v:nameU="Solsh" v:prompt="" v:val="VT15({0BF98B35-200C-41D5-8A23-20EF77CBC94A}):41"/>
				<v:ud v:nameU="ShapeType" v:prompt="" v:val="VT0(1):26"/>
				<v:ud v:nameU="ShowPicture" v:prompt="" v:val="VT0(0):26"/>
				<v:ud v:nameU="ShowSubordinates" v:prompt="" v:val="VT0(1):26"/>
				<v:ud v:nameU="DocShowPicture" v:prompt="" v:val="VT0(1):26"/>
				<v:ud v:nameU="Margin" v:prompt="" v:val="VT0(0.025):0"/>
				<v:ud v:nameU="HasSubordinates" v:prompt="" v:val="VT0(0):26"/>
				<v:ud v:nameU="IsHidingSubs" v:prompt="" v:val="VT0(0):5"/>
				<v:ud v:nameU="ShowDivider" v:prompt="" v:val="VT0(0):26"/>
				<v:ud v:nameU="ThisLayoutStyle" v:prompt="" v:val="VT0(0):26"/>
				<v:ud v:nameU="HasPicture" v:prompt="" v:val="VT0(0):26"/>
				<v:ud v:nameU="Width" v:prompt="" v:val="VT0(1):0"/>
				<v:ud v:nameU="Height" v:prompt="" v:val="VT0(0.5):0"/>
				<v:ud v:nameU="Prop" v:prompt=""/>
				<v:ud v:nameU="PictureAspectRatio" v:prompt="" v:val="VT0(1):26"/>
				<v:ud v:nameU="PictureID" v:prompt=""/>
				<v:ud v:nameU="SetWidth" v:prompt=""/>
				<v:ud v:nameU="SetHeight" v:prompt=""/>
				<v:ud v:nameU="PositionID" v:prompt="" v:val="VT0(0):26"/>
				<v:ud v:nameU="DeltaX" v:prompt="" v:val="VT0(0):26"/>
				<v:ud v:nameU="DeltaY" v:prompt="" v:val="VT0(0):26"/>
				<v:ud v:nameU="ParLocX" v:prompt="" v:val="VT0(0):26"/>
				<v:ud v:nameU="ParLocY" v:prompt="" v:val="VT0(0):26"/>
				<v:ud v:nameU="PageLoc" v:prompt="" v:val="VT0(0):26"/>
				<v:ud v:nameU="ParLoc" v:prompt="" v:val="VT0(0):26"/>
				<v:ud v:nameU="PictureAreaWidth" v:prompt="" v:val="VT0(0.26944444444444):0"/>
				<v:ud v:nameU="PictureAreaHeight" v:prompt="" v:val="VT0(0.43611111111111):0"/>
				<v:ud v:nameU="PictureAreaAspectRatio" v:prompt="" v:val="VT0(0.61783439490446):26"/>
				<v:ud v:nameU="PictureWidth" v:prompt="" v:val="VT0(0.26944444444444):0"/>
				<v:ud v:nameU="PictureHeight" v:prompt="" v:val="VT0(0.26944444444444):0"/>
				<v:ud v:nameU="DividerOffset" v:prompt="" v:val="VT0(0.2500244913737):0"/>
				<v:ud v:nameU="CalcTextLineHeight" v:prompt="" v:val="VT0(0.13333333333333):29"/>
				<v:ud v:nameU="ExpandedForPicture" v:prompt="" v:val="VT0(0):26"/>
				<v:ud v:nameU="Theme" v:prompt="" v:val="VT0(0):26"/>
				<v:ud v:nameU="visVersion" v:prompt="" v:val="VT0(12):26"/>
				<v:ud v:nameU="Width" v:prompt="" v:val="VT0(1.6250000006494):1"/>
				<v:ud v:nameU="Height" v:prompt="" v:val="VT0(0.87500000024656):1"/>
				<v:ud v:nameU="Prop" v:prompt="" v:val="VT4(Name)"/>
				<v:ud v:nameU="PositionID" v:prompt="" v:val="VT4({9B7A123E-A427-4DA3-8E78-BE1E7BB1B860})"/>
				<v:ud v:nameU="PictureAreaWidth" v:prompt="" v:val="VT0(0.47777777799424):0"/>
				<v:ud v:nameU="PictureAreaHeight" v:prompt="" v:val="VT0(0.81111111135767):0"/>
				<v:ud v:nameU="PictureAreaAspectRatio" v:prompt="" v:val="VT0(0.58904109597823):26"/>
				<v:ud v:nameU="PictureWidth" v:prompt="" v:val="VT0(0.47777777799424):0"/>
				<v:ud v:nameU="PictureHeight" v:prompt="" v:val="VT0(0.47777777799424):0"/>
				<v:ud v:nameU="DividerOffset" v:prompt="" v:val="VT0(0.43752652600219):29"/>
				<v:ud v:nameU="CalcTextLineHeight" v:prompt="" v:val="VT0(0.2):29"/>
			</v:userDefs>
			<title>Manager.37</title>
			<desc>version 5</desc>
			<g id="shape38-56" v:mID="38" v:groupContext="groupContent">
				<v:textBlock v:margins="rect(0,0,0,0)"/>
				<v:textRect cx="58.5" cy="680.22" width="111.16" height="31.5"/>
				<path d="M0 711.72 L0 648.72 L117 648.72 L117 711.72 L0 711.72 Z" class="st6"/>
				<path d="M0 711.72 L0 648.72 L117 648.72 L117 711.72 L0 711.72" class="st2"/>
				<path d="M1.8 709.92 L1.8 650.52 L115.2 650.52 L115.2 709.92 L1.8 709.92" class="st2"/>
				<text x="39.16" y="676.62" class="st3" v:langID="1033"><v:paragraph v:horizAlign="1"/><v:tabList/>version<v:lf/><tspan
							x="55.16" dy="1.2em" class="st5">5</tspan></text>			</g>
		</g>
		<g id="group43-62" transform="translate(180.36,-81.36)" v:mID="43" v:groupContext="group">
			<v:custProps>
				<v:cp v:nameU="Department" v:lbl="Department" v:type="0" v:invis="false" v:ask="false" v:langID="1033" v:cal="0"
						v:val="VT4(Department)"/>
				<v:cp v:nameU="Telephone" v:lbl="Telephone" v:type="0" v:invis="false" v:ask="false" v:langID="1033" v:cal="0"
						v:val="VT4(Telephone)"/>
				<v:cp v:nameU="Name" v:lbl="Name" v:type="0" v:invis="false" v:ask="false" v:langID="1033" v:cal="0"
						v:val="VT4(Name)"/>
				<v:cp v:nameU="Title" v:lbl="Title" v:type="0" v:invis="false" v:ask="false" v:langID="1033" v:cal="0"
						v:val="VT4(Title)"/>
				<v:cp v:nameU="Email" v:lbl="E-mail" v:type="0" v:invis="false" v:ask="false" v:langID="1033" v:cal="0"
						v:val="VT4(E-mail)"/>
				<v:cp v:nameU="Name" v:lbl="" v:prompt="" v:type="0" v:format="" v:sortKey="" v:invis="false" v:ask="false"
						v:langID="0" v:cal="0" v:val="VT4(direction 11)"/>
				<v:cp v:nameU="Calendar" v:lbl="" v:prompt="" v:type="0" v:format="" v:sortKey="" v:invis="false" v:ask="false"
						v:langID="0" v:cal="0"/>
			</v:custProps>
			<v:userDefs>
				<v:ud v:nameU="Solsh" v:prompt="" v:val="VT15({0BF98B35-200C-41D5-8A23-20EF77CBC94A}):41"/>
				<v:ud v:nameU="ShapeType" v:prompt="" v:val="VT0(1):26"/>
				<v:ud v:nameU="ShowPicture" v:prompt="" v:val="VT0(0):26"/>
				<v:ud v:nameU="ShowSubordinates" v:prompt="" v:val="VT0(1):26"/>
				<v:ud v:nameU="DocShowPicture" v:prompt="" v:val="VT0(1):26"/>
				<v:ud v:nameU="Margin" v:prompt="" v:val="VT0(0.025):0"/>
				<v:ud v:nameU="HasSubordinates" v:prompt="" v:val="VT0(0):26"/>
				<v:ud v:nameU="IsHidingSubs" v:prompt="" v:val="VT0(0):5"/>
				<v:ud v:nameU="ShowDivider" v:prompt="" v:val="VT0(0):26"/>
				<v:ud v:nameU="ThisLayoutStyle" v:prompt="" v:val="VT0(0):26"/>
				<v:ud v:nameU="HasPicture" v:prompt="" v:val="VT0(0):26"/>
				<v:ud v:nameU="Width" v:prompt="" v:val="VT0(1):0"/>
				<v:ud v:nameU="Height" v:prompt="" v:val="VT0(0.5):0"/>
				<v:ud v:nameU="Prop" v:prompt=""/>
				<v:ud v:nameU="PictureAspectRatio" v:prompt="" v:val="VT0(1):26"/>
				<v:ud v:nameU="PictureID" v:prompt=""/>
				<v:ud v:nameU="SetWidth" v:prompt=""/>
				<v:ud v:nameU="SetHeight" v:prompt=""/>
				<v:ud v:nameU="PositionID" v:prompt="" v:val="VT0(0):26"/>
				<v:ud v:nameU="DeltaX" v:prompt="" v:val="VT0(0):26"/>
				<v:ud v:nameU="DeltaY" v:prompt="" v:val="VT0(0):26"/>
				<v:ud v:nameU="ParLocX" v:prompt="" v:val="VT0(0):26"/>
				<v:ud v:nameU="ParLocY" v:prompt="" v:val="VT0(0):26"/>
				<v:ud v:nameU="PageLoc" v:prompt="" v:val="VT0(0):26"/>
				<v:ud v:nameU="ParLoc" v:prompt="" v:val="VT0(0):26"/>
				<v:ud v:nameU="PictureAreaWidth" v:prompt="" v:val="VT0(0.26944444444444):0"/>
				<v:ud v:nameU="PictureAreaHeight" v:prompt="" v:val="VT0(0.43611111111111):0"/>
				<v:ud v:nameU="PictureAreaAspectRatio" v:prompt="" v:val="VT0(0.61783439490446):26"/>
				<v:ud v:nameU="PictureWidth" v:prompt="" v:val="VT0(0.26944444444444):0"/>
				<v:ud v:nameU="PictureHeight" v:prompt="" v:val="VT0(0.26944444444444):0"/>
				<v:ud v:nameU="DividerOffset" v:prompt="" v:val="VT0(0.2500244913737):0"/>
				<v:ud v:nameU="CalcTextLineHeight" v:prompt="" v:val="VT0(0.13333333333333):29"/>
				<v:ud v:nameU="ExpandedForPicture" v:prompt="" v:val="VT0(0):26"/>
				<v:ud v:nameU="Theme" v:prompt="" v:val="VT0(0):26"/>
				<v:ud v:nameU="visVersion" v:prompt="" v:val="VT0(12):26"/>
				<v:ud v:nameU="Width" v:prompt="" v:val="VT0(1.6250000006494):1"/>
				<v:ud v:nameU="Height" v:prompt="" v:val="VT0(0.87500000028766):1"/>
				<v:ud v:nameU="Prop" v:prompt="" v:val="VT4(Name)"/>
				<v:ud v:nameU="PositionID" v:prompt="" v:val="VT4({96AB0CD1-0B6B-4B34-B180-A45D4453EA8B})"/>
				<v:ud v:nameU="PictureAreaWidth" v:prompt="" v:val="VT0(0.47777777799424):0"/>
				<v:ud v:nameU="PictureAreaHeight" v:prompt="" v:val="VT0(0.81111111139877):0"/>
				<v:ud v:nameU="PictureAreaAspectRatio" v:prompt="" v:val="VT0(0.58904109594838):26"/>
				<v:ud v:nameU="PictureWidth" v:prompt="" v:val="VT0(0.47777777799424):0"/>
				<v:ud v:nameU="PictureHeight" v:prompt="" v:val="VT0(0.47777777799424):0"/>
				<v:ud v:nameU="DividerOffset" v:prompt="" v:val="VT0(0.43752652602274):29"/>
				<v:ud v:nameU="CalcTextLineHeight" v:prompt="" v:val="VT0(0.2):29"/>
			</v:userDefs>
			<title>Manager.47</title>
			<desc>direction 11</desc>
			<g id="shape43-63" v:mID="43" v:groupContext="groupContent">
				<v:textBlock v:margins="rect(0,0,0,0)"/>
				<v:textRect cx="58.5" cy="680.22" width="111.16" height="31.5"/>
				<path d="M0 711.72 L0 648.72 L117 648.72 L117 711.72 L0 711.72 Z" class="st6"/>
				<path d="M0 711.72 L0 648.72 L117 648.72 L117 711.72 L0 711.72" class="st2"/>
				<path d="M1.8 709.92 L1.8 650.52 L115.2 650.52 L115.2 709.92 L1.8 709.92" class="st2"/>
				<text x="35.82" y="676.62" class="st3" v:langID="1033"><v:paragraph v:horizAlign="1"/><v:tabList/>direction<v:lf/><tspan
							x="51.83" dy="1.2em" class="st5">11</tspan></text>			</g>
		</g>
		<g id="group48-69" transform="translate(180.36,-405.36)" v:mID="48" v:groupContext="group">
			<v:custProps>
				<v:cp v:nameU="Department" v:lbl="Department" v:type="0" v:invis="false" v:ask="false" v:langID="1033" v:cal="0"
						v:val="VT4(Department)"/>
				<v:cp v:nameU="Telephone" v:lbl="Telephone" v:type="0" v:invis="false" v:ask="false" v:langID="1033" v:cal="0"
						v:val="VT4(Telephone)"/>
				<v:cp v:nameU="Name" v:lbl="Name" v:type="0" v:invis="false" v:ask="false" v:langID="1033" v:cal="0"
						v:val="VT4(Name)"/>
				<v:cp v:nameU="Title" v:lbl="Title" v:type="0" v:invis="false" v:ask="false" v:langID="1033" v:cal="0"
						v:val="VT4(Title)"/>
				<v:cp v:nameU="Email" v:lbl="E-mail" v:type="0" v:invis="false" v:ask="false" v:langID="1033" v:cal="0"
						v:val="VT4(E-mail)"/>
				<v:cp v:nameU="Name" v:lbl="" v:prompt="" v:type="0" v:format="" v:sortKey="" v:invis="false" v:ask="false"
						v:langID="0" v:cal="0" v:val="VT4(ssgId 3)"/>
				<v:cp v:nameU="Calendar" v:lbl="" v:prompt="" v:type="0" v:format="" v:sortKey="" v:invis="false" v:ask="false"
						v:langID="0" v:cal="0"/>
			</v:custProps>
			<v:userDefs>
				<v:ud v:nameU="Solsh" v:prompt="" v:val="VT15({0BF98B35-200C-41D5-8A23-20EF77CBC94A}):41"/>
				<v:ud v:nameU="ShapeType" v:prompt="" v:val="VT0(1):26"/>
				<v:ud v:nameU="ShowPicture" v:prompt="" v:val="VT0(0):26"/>
				<v:ud v:nameU="ShowSubordinates" v:prompt="" v:val="VT0(1):26"/>
				<v:ud v:nameU="DocShowPicture" v:prompt="" v:val="VT0(1):26"/>
				<v:ud v:nameU="Margin" v:prompt="" v:val="VT0(0.025):0"/>
				<v:ud v:nameU="HasSubordinates" v:prompt="" v:val="VT0(0):26"/>
				<v:ud v:nameU="IsHidingSubs" v:prompt="" v:val="VT0(0):5"/>
				<v:ud v:nameU="ShowDivider" v:prompt="" v:val="VT0(0):26"/>
				<v:ud v:nameU="ThisLayoutStyle" v:prompt="" v:val="VT0(0):26"/>
				<v:ud v:nameU="HasPicture" v:prompt="" v:val="VT0(0):26"/>
				<v:ud v:nameU="Width" v:prompt="" v:val="VT0(1):0"/>
				<v:ud v:nameU="Height" v:prompt="" v:val="VT0(0.5):0"/>
				<v:ud v:nameU="Prop" v:prompt=""/>
				<v:ud v:nameU="PictureAspectRatio" v:prompt="" v:val="VT0(1):26"/>
				<v:ud v:nameU="PictureID" v:prompt=""/>
				<v:ud v:nameU="SetWidth" v:prompt=""/>
				<v:ud v:nameU="SetHeight" v:prompt=""/>
				<v:ud v:nameU="PositionID" v:prompt="" v:val="VT0(0):26"/>
				<v:ud v:nameU="DeltaX" v:prompt="" v:val="VT0(0):26"/>
				<v:ud v:nameU="DeltaY" v:prompt="" v:val="VT0(0):26"/>
				<v:ud v:nameU="ParLocX" v:prompt="" v:val="VT0(0):26"/>
				<v:ud v:nameU="ParLocY" v:prompt="" v:val="VT0(0):26"/>
				<v:ud v:nameU="PageLoc" v:prompt="" v:val="VT0(0):26"/>
				<v:ud v:nameU="ParLoc" v:prompt="" v:val="VT0(0):26"/>
				<v:ud v:nameU="PictureAreaWidth" v:prompt="" v:val="VT0(0.26944444444444):0"/>
				<v:ud v:nameU="PictureAreaHeight" v:prompt="" v:val="VT0(0.43611111111111):0"/>
				<v:ud v:nameU="PictureAreaAspectRatio" v:prompt="" v:val="VT0(0.61783439490446):26"/>
				<v:ud v:nameU="PictureWidth" v:prompt="" v:val="VT0(0.26944444444444):0"/>
				<v:ud v:nameU="PictureHeight" v:prompt="" v:val="VT0(0.26944444444444):0"/>
				<v:ud v:nameU="DividerOffset" v:prompt="" v:val="VT0(0.2500244913737):0"/>
				<v:ud v:nameU="CalcTextLineHeight" v:prompt="" v:val="VT0(0.13333333333333):29"/>
				<v:ud v:nameU="ExpandedForPicture" v:prompt="" v:val="VT0(0):26"/>
				<v:ud v:nameU="Theme" v:prompt="" v:val="VT0(0):26"/>
				<v:ud v:nameU="visVersion" v:prompt="" v:val="VT0(12):26"/>
				<v:ud v:nameU="Width" v:prompt="" v:val="VT0(1.6250000006494):1"/>
				<v:ud v:nameU="Height" v:prompt="" v:val="VT0(0.87500000024656):1"/>
				<v:ud v:nameU="Prop" v:prompt="" v:val="VT4(Name)"/>
				<v:ud v:nameU="PositionID" v:prompt="" v:val="VT4({A9675CE1-8E01-48AF-A807-367A146BF243})"/>
				<v:ud v:nameU="PictureAreaWidth" v:prompt="" v:val="VT0(0.47777777799424):0"/>
				<v:ud v:nameU="PictureAreaHeight" v:prompt="" v:val="VT0(0.81111111135767):0"/>
				<v:ud v:nameU="PictureAreaAspectRatio" v:prompt="" v:val="VT0(0.58904109597823):26"/>
				<v:ud v:nameU="PictureWidth" v:prompt="" v:val="VT0(0.47777777799424):0"/>
				<v:ud v:nameU="PictureHeight" v:prompt="" v:val="VT0(0.47777777799424):0"/>
				<v:ud v:nameU="DividerOffset" v:prompt="" v:val="VT0(0.44586011364867):29"/>
				<v:ud v:nameU="CalcTextLineHeight" v:prompt="" v:val="VT0(0.2):29"/>
			</v:userDefs>
			<title>Manager.52</title>
			<desc>ssgId 3</desc>
			<g id="shape48-70" v:mID="48" v:groupContext="groupContent">
				<v:textBlock v:margins="rect(0,0,0,0)"/>
				<v:textRect cx="58.5" cy="680.22" width="111.16" height="31.5"/>
				<path d="M0 711.72 L0 648.72 L117 648.72 L117 711.72 L0 711.72 Z" class="st6"/>
				<path d="M0 711.72 L0 648.72 L117 648.72 L117 711.72 L0 711.72" class="st2"/>
				<path d="M1.8 709.92 L1.8 650.52 L115.2 650.52 L115.2 709.92 L1.8 709.92" class="st2"/>
				<text x="43.62" y="676.92" class="st3" v:langID="1033"><v:paragraph v:horizAlign="1"/><v:tabList/>ssg<tspan
							class="st4">I</tspan>d<v:lf/><tspan x="55.16" dy="1.225em" class="st5">3</tspan></text>			</g>
		</g>
		<g id="group53-77" transform="translate(324.36,-405.36)" v:mID="53" v:groupContext="group">
			<v:custProps>
				<v:cp v:nameU="Department" v:lbl="Department" v:type="0" v:invis="false" v:ask="false" v:langID="1033" v:cal="0"
						v:val="VT4(Department)"/>
				<v:cp v:nameU="Telephone" v:lbl="Telephone" v:type="0" v:invis="false" v:ask="false" v:langID="1033" v:cal="0"
						v:val="VT4(Telephone)"/>
				<v:cp v:nameU="Name" v:lbl="Name" v:type="0" v:invis="false" v:ask="false" v:langID="1033" v:cal="0"
						v:val="VT4(Name)"/>
				<v:cp v:nameU="Title" v:lbl="Title" v:type="0" v:invis="false" v:ask="false" v:langID="1033" v:cal="0"
						v:val="VT4(Title)"/>
				<v:cp v:nameU="Email" v:lbl="E-mail" v:type="0" v:invis="false" v:ask="false" v:langID="1033" v:cal="0"
						v:val="VT4(E-mail)"/>
				<v:cp v:nameU="Name" v:lbl="" v:prompt="" v:type="0" v:format="" v:sortKey="" v:invis="false" v:ask="false"
						v:langID="0" v:cal="0" v:val="VT4(adjunctDeviceId 4)"/>
				<v:cp v:nameU="Calendar" v:lbl="" v:prompt="" v:type="0" v:format="" v:sortKey="" v:invis="false" v:ask="false"
						v:langID="0" v:cal="0"/>
			</v:custProps>
			<v:userDefs>
				<v:ud v:nameU="Solsh" v:prompt="" v:val="VT15({0BF98B35-200C-41D5-8A23-20EF77CBC94A}):41"/>
				<v:ud v:nameU="ShapeType" v:prompt="" v:val="VT0(1):26"/>
				<v:ud v:nameU="ShowPicture" v:prompt="" v:val="VT0(0):26"/>
				<v:ud v:nameU="ShowSubordinates" v:prompt="" v:val="VT0(1):26"/>
				<v:ud v:nameU="DocShowPicture" v:prompt="" v:val="VT0(1):26"/>
				<v:ud v:nameU="Margin" v:prompt="" v:val="VT0(0.025):0"/>
				<v:ud v:nameU="HasSubordinates" v:prompt="" v:val="VT0(0):26"/>
				<v:ud v:nameU="IsHidingSubs" v:prompt="" v:val="VT0(0):5"/>
				<v:ud v:nameU="ShowDivider" v:prompt="" v:val="VT0(0):26"/>
				<v:ud v:nameU="ThisLayoutStyle" v:prompt="" v:val="VT0(0):26"/>
				<v:ud v:nameU="HasPicture" v:prompt="" v:val="VT0(0):26"/>
				<v:ud v:nameU="Width" v:prompt="" v:val="VT0(1):0"/>
				<v:ud v:nameU="Height" v:prompt="" v:val="VT0(0.5):0"/>
				<v:ud v:nameU="Prop" v:prompt=""/>
				<v:ud v:nameU="PictureAspectRatio" v:prompt="" v:val="VT0(1):26"/>
				<v:ud v:nameU="PictureID" v:prompt=""/>
				<v:ud v:nameU="SetWidth" v:prompt=""/>
				<v:ud v:nameU="SetHeight" v:prompt=""/>
				<v:ud v:nameU="PositionID" v:prompt="" v:val="VT0(0):26"/>
				<v:ud v:nameU="DeltaX" v:prompt="" v:val="VT0(0):26"/>
				<v:ud v:nameU="DeltaY" v:prompt="" v:val="VT0(0):26"/>
				<v:ud v:nameU="ParLocX" v:prompt="" v:val="VT0(0):26"/>
				<v:ud v:nameU="ParLocY" v:prompt="" v:val="VT0(0):26"/>
				<v:ud v:nameU="PageLoc" v:prompt="" v:val="VT0(0):26"/>
				<v:ud v:nameU="ParLoc" v:prompt="" v:val="VT0(0):26"/>
				<v:ud v:nameU="PictureAreaWidth" v:prompt="" v:val="VT0(0.26944444444444):0"/>
				<v:ud v:nameU="PictureAreaHeight" v:prompt="" v:val="VT0(0.43611111111111):0"/>
				<v:ud v:nameU="PictureAreaAspectRatio" v:prompt="" v:val="VT0(0.61783439490446):26"/>
				<v:ud v:nameU="PictureWidth" v:prompt="" v:val="VT0(0.26944444444444):0"/>
				<v:ud v:nameU="PictureHeight" v:prompt="" v:val="VT0(0.26944444444444):0"/>
				<v:ud v:nameU="DividerOffset" v:prompt="" v:val="VT0(0.2500244913737):0"/>
				<v:ud v:nameU="CalcTextLineHeight" v:prompt="" v:val="VT0(0.13333333333333):29"/>
				<v:ud v:nameU="ExpandedForPicture" v:prompt="" v:val="VT0(0):26"/>
				<v:ud v:nameU="Theme" v:prompt="" v:val="VT0(0):26"/>
				<v:ud v:nameU="visVersion" v:prompt="" v:val="VT0(12):26"/>
				<v:ud v:nameU="Width" v:prompt="" v:val="VT0(1.6250000006124):1"/>
				<v:ud v:nameU="Height" v:prompt="" v:val="VT0(0.87500000016438):1"/>
				<v:ud v:nameU="Prop" v:prompt="" v:val="VT4(Name)"/>
				<v:ud v:nameU="PositionID" v:prompt="" v:val="VT4({EDDA3FA5-2FB6-4A99-BAE0-A5E183A02416})"/>
				<v:ud v:nameU="PictureAreaWidth" v:prompt="" v:val="VT0(0.4777777779819):0"/>
				<v:ud v:nameU="PictureAreaHeight" v:prompt="" v:val="VT0(0.81111111127549):0"/>
				<v:ud v:nameU="PictureAreaAspectRatio" v:prompt="" v:val="VT0(0.58904109602269):26"/>
				<v:ud v:nameU="PictureWidth" v:prompt="" v:val="VT0(0.4777777779819):0"/>
				<v:ud v:nameU="PictureHeight" v:prompt="" v:val="VT0(0.4777777779819):0"/>
				<v:ud v:nameU="DividerOffset" v:prompt="" v:val="VT0(0.44586011360758):29"/>
				<v:ud v:nameU="CalcTextLineHeight" v:prompt="" v:val="VT0(0.2):29"/>
			</v:userDefs>
			<title>Manager.57</title>
			<desc>adjunctDeviceId 4</desc>
			<g id="shape53-78" v:mID="53" v:groupContext="groupContent">
				<v:textBlock v:margins="rect(0,0,0,0)"/>
				<v:textRect cx="58.5" cy="680.22" width="111.16" height="31.5"/>
				<path d="M0 711.72 L0 648.72 L117 648.72 L117 711.72 L0 711.72 Z" class="st6"/>
				<path d="M0 711.72 L0 648.72 L117 648.72 L117 711.72 L0 711.72" class="st2"/>
				<path d="M1.8 709.92 L1.8 650.52 L115.2 650.52 L115.2 709.92 L1.8 709.92" class="st2"/>
				<text x="15.27" y="676.92" class="st3" v:langID="1033"><v:paragraph v:horizAlign="1"/><v:tabList/>adjunctDevice<tspan
							class="st4">I</tspan>d<v:lf/><tspan x="55.16" dy="1.225em" class="st5">4</tspan></text>			</g>
		</g>
		<g id="group58-85" transform="translate(324.36,-243.36)" v:mID="58" v:groupContext="group">
			<v:custProps>
				<v:cp v:nameU="Department" v:lbl="Department" v:type="0" v:invis="false" v:ask="false" v:langID="1033" v:cal="0"
						v:val="VT4(Department)"/>
				<v:cp v:nameU="Telephone" v:lbl="Telephone" v:type="0" v:invis="false" v:ask="false" v:langID="1033" v:cal="0"
						v:val="VT4(Telephone)"/>
				<v:cp v:nameU="Name" v:lbl="Name" v:type="0" v:invis="false" v:ask="false" v:langID="1033" v:cal="0"
						v:val="VT4(Name)"/>
				<v:cp v:nameU="Title" v:lbl="Title" v:type="0" v:invis="false" v:ask="false" v:langID="1033" v:cal="0"
						v:val="VT4(Title)"/>
				<v:cp v:nameU="Email" v:lbl="E-mail" v:type="0" v:invis="false" v:ask="false" v:langID="1033" v:cal="0"
						v:val="VT4(E-mail)"/>
				<v:cp v:nameU="Name" v:lbl="" v:prompt="" v:type="0" v:format="" v:sortKey="" v:invis="false" v:ask="false"
						v:langID="0" v:cal="0" v:val="VT4(linkID 8)"/>
				<v:cp v:nameU="Calendar" v:lbl="" v:prompt="" v:type="0" v:format="" v:sortKey="" v:invis="false" v:ask="false"
						v:langID="0" v:cal="0"/>
			</v:custProps>
			<v:userDefs>
				<v:ud v:nameU="Solsh" v:prompt="" v:val="VT15({0BF98B35-200C-41D5-8A23-20EF77CBC94A}):41"/>
				<v:ud v:nameU="ShapeType" v:prompt="" v:val="VT0(1):26"/>
				<v:ud v:nameU="ShowPicture" v:prompt="" v:val="VT0(0):26"/>
				<v:ud v:nameU="ShowSubordinates" v:prompt="" v:val="VT0(1):26"/>
				<v:ud v:nameU="DocShowPicture" v:prompt="" v:val="VT0(1):26"/>
				<v:ud v:nameU="Margin" v:prompt="" v:val="VT0(0.025):0"/>
				<v:ud v:nameU="HasSubordinates" v:prompt="" v:val="VT0(0):26"/>
				<v:ud v:nameU="IsHidingSubs" v:prompt="" v:val="VT0(0):5"/>
				<v:ud v:nameU="ShowDivider" v:prompt="" v:val="VT0(0):26"/>
				<v:ud v:nameU="ThisLayoutStyle" v:prompt="" v:val="VT0(0):26"/>
				<v:ud v:nameU="HasPicture" v:prompt="" v:val="VT0(0):26"/>
				<v:ud v:nameU="Width" v:prompt="" v:val="VT0(1):0"/>
				<v:ud v:nameU="Height" v:prompt="" v:val="VT0(0.5):0"/>
				<v:ud v:nameU="Prop" v:prompt=""/>
				<v:ud v:nameU="PictureAspectRatio" v:prompt="" v:val="VT0(1):26"/>
				<v:ud v:nameU="PictureID" v:prompt=""/>
				<v:ud v:nameU="SetWidth" v:prompt=""/>
				<v:ud v:nameU="SetHeight" v:prompt=""/>
				<v:ud v:nameU="PositionID" v:prompt="" v:val="VT0(0):26"/>
				<v:ud v:nameU="DeltaX" v:prompt="" v:val="VT0(0):26"/>
				<v:ud v:nameU="DeltaY" v:prompt="" v:val="VT0(0):26"/>
				<v:ud v:nameU="ParLocX" v:prompt="" v:val="VT0(0):26"/>
				<v:ud v:nameU="ParLocY" v:prompt="" v:val="VT0(0):26"/>
				<v:ud v:nameU="PageLoc" v:prompt="" v:val="VT0(0):26"/>
				<v:ud v:nameU="ParLoc" v:prompt="" v:val="VT0(0):26"/>
				<v:ud v:nameU="PictureAreaWidth" v:prompt="" v:val="VT0(0.26944444444444):0"/>
				<v:ud v:nameU="PictureAreaHeight" v:prompt="" v:val="VT0(0.43611111111111):0"/>
				<v:ud v:nameU="PictureAreaAspectRatio" v:prompt="" v:val="VT0(0.61783439490446):26"/>
				<v:ud v:nameU="PictureWidth" v:prompt="" v:val="VT0(0.26944444444444):0"/>
				<v:ud v:nameU="PictureHeight" v:prompt="" v:val="VT0(0.26944444444444):0"/>
				<v:ud v:nameU="DividerOffset" v:prompt="" v:val="VT0(0.2500244913737):0"/>
				<v:ud v:nameU="CalcTextLineHeight" v:prompt="" v:val="VT0(0.13333333333333):29"/>
				<v:ud v:nameU="ExpandedForPicture" v:prompt="" v:val="VT0(0):26"/>
				<v:ud v:nameU="Theme" v:prompt="" v:val="VT0(0):26"/>
				<v:ud v:nameU="visVersion" v:prompt="" v:val="VT0(12):26"/>
				<v:ud v:nameU="Width" v:prompt="" v:val="VT0(1.6250000006494):1"/>
				<v:ud v:nameU="Height" v:prompt="" v:val="VT0(0.87500000028766):1"/>
				<v:ud v:nameU="Prop" v:prompt="" v:val="VT4(Name)"/>
				<v:ud v:nameU="PositionID" v:prompt="" v:val="VT4({B11B3BD0-C2E6-4BF2-9EE1-AF2C8A607F1A})"/>
				<v:ud v:nameU="PictureAreaWidth" v:prompt="" v:val="VT0(0.47777777799424):0"/>
				<v:ud v:nameU="PictureAreaHeight" v:prompt="" v:val="VT0(0.81111111139877):0"/>
				<v:ud v:nameU="PictureAreaAspectRatio" v:prompt="" v:val="VT0(0.58904109594838):26"/>
				<v:ud v:nameU="PictureWidth" v:prompt="" v:val="VT0(0.47777777799424):0"/>
				<v:ud v:nameU="PictureHeight" v:prompt="" v:val="VT0(0.47777777799424):0"/>
				<v:ud v:nameU="DividerOffset" v:prompt="" v:val="VT0(0.44586011366922):29"/>
				<v:ud v:nameU="CalcTextLineHeight" v:prompt="" v:val="VT0(0.2):29"/>
			</v:userDefs>
			<title>Manager.62</title>
			<desc>linkID 8</desc>
			<g id="shape58-86" v:mID="58" v:groupContext="groupContent">
				<v:textBlock v:margins="rect(0,0,0,0)"/>
				<v:textRect cx="58.5" cy="680.22" width="111.16" height="31.5"/>
				<path d="M0 711.72 L0 648.72 L117 648.72 L117 711.72 L0 711.72 Z" class="st6"/>
				<path d="M0 711.72 L0 648.72 L117 648.72 L117 711.72 L0 711.72" class="st2"/>
				<path d="M1.8 709.92 L1.8 650.52 L115.2 650.52 L115.2 709.92 L1.8 709.92" class="st2"/>
				<text x="42.95" y="676.92" class="st3" v:langID="1033"><v:paragraph v:horizAlign="1"/><v:tabList/>link<tspan
							class="st4">I</tspan>D<v:lf/><tspan x="55.16" dy="1.225em" class="st5">8</tspan></text>			</g>
		</g>
		<g id="group63-93" transform="translate(180.36,-243.36)" v:mID="63" v:groupContext="group">
			<v:custProps>
				<v:cp v:nameU="Department" v:lbl="Department" v:type="0" v:invis="false" v:ask="false" v:langID="1033" v:cal="0"
						v:val="VT4(Department)"/>
				<v:cp v:nameU="Telephone" v:lbl="Telephone" v:type="0" v:invis="false" v:ask="false" v:langID="1033" v:cal="0"
						v:val="VT4(Telephone)"/>
				<v:cp v:nameU="Name" v:lbl="Name" v:type="0" v:invis="false" v:ask="false" v:langID="1033" v:cal="0"
						v:val="VT4(Name)"/>
				<v:cp v:nameU="Title" v:lbl="Title" v:type="0" v:invis="false" v:ask="false" v:langID="1033" v:cal="0"
						v:val="VT4(Title)"/>
				<v:cp v:nameU="Email" v:lbl="E-mail" v:type="0" v:invis="false" v:ask="false" v:langID="1033" v:cal="0"
						v:val="VT4(E-mail)"/>
				<v:cp v:nameU="Name" v:lbl="" v:prompt="" v:type="0" v:format="" v:sortKey="" v:invis="false" v:ask="false"
						v:langID="0" v:cal="0" v:val="VT4(adjunctDeviceId2 7)"/>
				<v:cp v:nameU="Calendar" v:lbl="" v:prompt="" v:type="0" v:format="" v:sortKey="" v:invis="false" v:ask="false"
						v:langID="0" v:cal="0"/>
			</v:custProps>
			<v:userDefs>
				<v:ud v:nameU="Solsh" v:prompt="" v:val="VT15({0BF98B35-200C-41D5-8A23-20EF77CBC94A}):41"/>
				<v:ud v:nameU="ShapeType" v:prompt="" v:val="VT0(1):26"/>
				<v:ud v:nameU="ShowPicture" v:prompt="" v:val="VT0(0):26"/>
				<v:ud v:nameU="ShowSubordinates" v:prompt="" v:val="VT0(1):26"/>
				<v:ud v:nameU="DocShowPicture" v:prompt="" v:val="VT0(1):26"/>
				<v:ud v:nameU="Margin" v:prompt="" v:val="VT0(0.025):0"/>
				<v:ud v:nameU="HasSubordinates" v:prompt="" v:val="VT0(0):26"/>
				<v:ud v:nameU="IsHidingSubs" v:prompt="" v:val="VT0(0):5"/>
				<v:ud v:nameU="ShowDivider" v:prompt="" v:val="VT0(0):26"/>
				<v:ud v:nameU="ThisLayoutStyle" v:prompt="" v:val="VT0(0):26"/>
				<v:ud v:nameU="HasPicture" v:prompt="" v:val="VT0(0):26"/>
				<v:ud v:nameU="Width" v:prompt="" v:val="VT0(1):0"/>
				<v:ud v:nameU="Height" v:prompt="" v:val="VT0(0.5):0"/>
				<v:ud v:nameU="Prop" v:prompt=""/>
				<v:ud v:nameU="PictureAspectRatio" v:prompt="" v:val="VT0(1):26"/>
				<v:ud v:nameU="PictureID" v:prompt=""/>
				<v:ud v:nameU="SetWidth" v:prompt=""/>
				<v:ud v:nameU="SetHeight" v:prompt=""/>
				<v:ud v:nameU="PositionID" v:prompt="" v:val="VT0(0):26"/>
				<v:ud v:nameU="DeltaX" v:prompt="" v:val="VT0(0):26"/>
				<v:ud v:nameU="DeltaY" v:prompt="" v:val="VT0(0):26"/>
				<v:ud v:nameU="ParLocX" v:prompt="" v:val="VT0(0):26"/>
				<v:ud v:nameU="ParLocY" v:prompt="" v:val="VT0(0):26"/>
				<v:ud v:nameU="PageLoc" v:prompt="" v:val="VT0(0):26"/>
				<v:ud v:nameU="ParLoc" v:prompt="" v:val="VT0(0):26"/>
				<v:ud v:nameU="PictureAreaWidth" v:prompt="" v:val="VT0(0.26944444444444):0"/>
				<v:ud v:nameU="PictureAreaHeight" v:prompt="" v:val="VT0(0.43611111111111):0"/>
				<v:ud v:nameU="PictureAreaAspectRatio" v:prompt="" v:val="VT0(0.61783439490446):26"/>
				<v:ud v:nameU="PictureWidth" v:prompt="" v:val="VT0(0.26944444444444):0"/>
				<v:ud v:nameU="PictureHeight" v:prompt="" v:val="VT0(0.26944444444444):0"/>
				<v:ud v:nameU="DividerOffset" v:prompt="" v:val="VT0(0.2500244913737):0"/>
				<v:ud v:nameU="CalcTextLineHeight" v:prompt="" v:val="VT0(0.13333333333333):29"/>
				<v:ud v:nameU="ExpandedForPicture" v:prompt="" v:val="VT0(0):26"/>
				<v:ud v:nameU="Theme" v:prompt="" v:val="VT0(0):26"/>
				<v:ud v:nameU="visVersion" v:prompt="" v:val="VT0(12):26"/>
				<v:ud v:nameU="Width" v:prompt="" v:val="VT0(1.6250000006494):1"/>
				<v:ud v:nameU="Height" v:prompt="" v:val="VT0(0.87500000024656):1"/>
				<v:ud v:nameU="Prop" v:prompt="" v:val="VT4(Name)"/>
				<v:ud v:nameU="PositionID" v:prompt="" v:val="VT4({1EF47E61-7DFB-4E9D-BE47-50D273554653})"/>
				<v:ud v:nameU="PictureAreaWidth" v:prompt="" v:val="VT0(0.47777777799424):0"/>
				<v:ud v:nameU="PictureAreaHeight" v:prompt="" v:val="VT0(0.81111111135767):0"/>
				<v:ud v:nameU="PictureAreaAspectRatio" v:prompt="" v:val="VT0(0.58904109597823):26"/>
				<v:ud v:nameU="PictureWidth" v:prompt="" v:val="VT0(0.47777777799424):0"/>
				<v:ud v:nameU="PictureHeight" v:prompt="" v:val="VT0(0.47777777799424):0"/>
				<v:ud v:nameU="DividerOffset" v:prompt="" v:val="VT0(0.44586011364867):29"/>
				<v:ud v:nameU="CalcTextLineHeight" v:prompt="" v:val="VT0(0.2):29"/>
			</v:userDefs>
			<title>Manager.67</title>
			<desc>adjunctDeviceId2 7</desc>
			<g id="shape63-94" v:mID="63" v:groupContext="groupContent">
				<v:textBlock v:margins="rect(0,0,0,0)"/>
				<v:textRect cx="58.5" cy="680.22" width="111.16" height="31.5"/>
				<path d="M0 711.72 L0 648.72 L117 648.72 L117 711.72 L0 711.72 Z" class="st6"/>
				<path d="M0 711.72 L0 648.72 L117 648.72 L117 711.72 L0 711.72" class="st2"/>
				<path d="M1.8 709.92 L1.8 650.52 L115.2 650.52 L115.2 709.92 L1.8 709.92" class="st2"/>
				<text x="11.93" y="676.92" class="st3" v:langID="1033"><v:paragraph v:horizAlign="1"/><v:tabList/>adjunctDevice<tspan
							class="st4">I</tspan>d2<v:lf/><tspan x="55.16" dy="1.225em" class="st5">7</tspan></text>			</g>
		</g>
		<g id="group68-101" transform="translate(324.36,-162.36)" v:mID="68" v:groupContext="group">
			<v:custProps>
				<v:cp v:nameU="Department" v:lbl="Department" v:type="0" v:invis="false" v:ask="false" v:langID="1033" v:cal="0"
						v:val="VT4(Department)"/>
				<v:cp v:nameU="Telephone" v:lbl="Telephone" v:type="0" v:invis="false" v:ask="false" v:langID="1033" v:cal="0"
						v:val="VT4(Telephone)"/>
				<v:cp v:nameU="Name" v:lbl="Name" v:type="0" v:invis="false" v:ask="false" v:langID="1033" v:cal="0"
						v:val="VT4(Name)"/>
				<v:cp v:nameU="Title" v:lbl="Title" v:type="0" v:invis="false" v:ask="false" v:langID="1033" v:cal="0"
						v:val="VT4(Title)"/>
				<v:cp v:nameU="Email" v:lbl="E-mail" v:type="0" v:invis="false" v:ask="false" v:langID="1033" v:cal="0"
						v:val="VT4(E-mail)"/>
				<v:cp v:nameU="Name" v:lbl="" v:prompt="" v:type="0" v:format="" v:sortKey="" v:invis="false" v:ask="false"
						v:langID="0" v:cal="0" v:val="VT4(portID 10)"/>
				<v:cp v:nameU="Calendar" v:lbl="" v:prompt="" v:type="0" v:format="" v:sortKey="" v:invis="false" v:ask="false"
						v:langID="0" v:cal="0"/>
			</v:custProps>
			<v:userDefs>
				<v:ud v:nameU="Solsh" v:prompt="" v:val="VT15({0BF98B35-200C-41D5-8A23-20EF77CBC94A}):41"/>
				<v:ud v:nameU="ShapeType" v:prompt="" v:val="VT0(1):26"/>
				<v:ud v:nameU="ShowPicture" v:prompt="" v:val="VT0(0):26"/>
				<v:ud v:nameU="ShowSubordinates" v:prompt="" v:val="VT0(1):26"/>
				<v:ud v:nameU="DocShowPicture" v:prompt="" v:val="VT0(1):26"/>
				<v:ud v:nameU="Margin" v:prompt="" v:val="VT0(0.025):0"/>
				<v:ud v:nameU="HasSubordinates" v:prompt="" v:val="VT0(0):26"/>
				<v:ud v:nameU="IsHidingSubs" v:prompt="" v:val="VT0(0):5"/>
				<v:ud v:nameU="ShowDivider" v:prompt="" v:val="VT0(0):26"/>
				<v:ud v:nameU="ThisLayoutStyle" v:prompt="" v:val="VT0(0):26"/>
				<v:ud v:nameU="HasPicture" v:prompt="" v:val="VT0(0):26"/>
				<v:ud v:nameU="Width" v:prompt="" v:val="VT0(1):0"/>
				<v:ud v:nameU="Height" v:prompt="" v:val="VT0(0.5):0"/>
				<v:ud v:nameU="Prop" v:prompt=""/>
				<v:ud v:nameU="PictureAspectRatio" v:prompt="" v:val="VT0(1):26"/>
				<v:ud v:nameU="PictureID" v:prompt=""/>
				<v:ud v:nameU="SetWidth" v:prompt=""/>
				<v:ud v:nameU="SetHeight" v:prompt=""/>
				<v:ud v:nameU="PositionID" v:prompt="" v:val="VT0(0):26"/>
				<v:ud v:nameU="DeltaX" v:prompt="" v:val="VT0(0):26"/>
				<v:ud v:nameU="DeltaY" v:prompt="" v:val="VT0(0):26"/>
				<v:ud v:nameU="ParLocX" v:prompt="" v:val="VT0(0):26"/>
				<v:ud v:nameU="ParLocY" v:prompt="" v:val="VT0(0):26"/>
				<v:ud v:nameU="PageLoc" v:prompt="" v:val="VT0(0):26"/>
				<v:ud v:nameU="ParLoc" v:prompt="" v:val="VT0(0):26"/>
				<v:ud v:nameU="PictureAreaWidth" v:prompt="" v:val="VT0(0.26944444444444):0"/>
				<v:ud v:nameU="PictureAreaHeight" v:prompt="" v:val="VT0(0.43611111111111):0"/>
				<v:ud v:nameU="PictureAreaAspectRatio" v:prompt="" v:val="VT0(0.61783439490446):26"/>
				<v:ud v:nameU="PictureWidth" v:prompt="" v:val="VT0(0.26944444444444):0"/>
				<v:ud v:nameU="PictureHeight" v:prompt="" v:val="VT0(0.26944444444444):0"/>
				<v:ud v:nameU="DividerOffset" v:prompt="" v:val="VT0(0.2500244913737):0"/>
				<v:ud v:nameU="CalcTextLineHeight" v:prompt="" v:val="VT0(0.13333333333333):29"/>
				<v:ud v:nameU="ExpandedForPicture" v:prompt="" v:val="VT0(0):26"/>
				<v:ud v:nameU="Theme" v:prompt="" v:val="VT0(0):26"/>
				<v:ud v:nameU="visVersion" v:prompt="" v:val="VT0(12):26"/>
				<v:ud v:nameU="Width" v:prompt="" v:val="VT0(1.6250000006494):1"/>
				<v:ud v:nameU="Height" v:prompt="" v:val="VT0(0.87500000024656):1"/>
				<v:ud v:nameU="Prop" v:prompt="" v:val="VT4(Name)"/>
				<v:ud v:nameU="PositionID" v:prompt="" v:val="VT4({003FAAA3-DF9F-48ED-8FBB-E14918846ABC})"/>
				<v:ud v:nameU="ParLocX" v:prompt="" v:val="VT0(0):26"/>
				<v:ud v:nameU="ParLocY" v:prompt="" v:val="VT0(0):26"/>
				<v:ud v:nameU="PageLoc" v:prompt="" v:val="VT7(PNT(0,0)):40"/>
				<v:ud v:nameU="PictureAreaWidth" v:prompt="" v:val="VT0(0.47777777799424):0"/>
				<v:ud v:nameU="PictureAreaHeight" v:prompt="" v:val="VT0(0.81111111135767):0"/>
				<v:ud v:nameU="PictureAreaAspectRatio" v:prompt="" v:val="VT0(0.58904109597823):26"/>
				<v:ud v:nameU="PictureWidth" v:prompt="" v:val="VT0(0.47777777799424):0"/>
				<v:ud v:nameU="PictureHeight" v:prompt="" v:val="VT0(0.47777777799424):0"/>
				<v:ud v:nameU="DividerOffset" v:prompt="" v:val="VT0(0.44586011364867):29"/>
				<v:ud v:nameU="CalcTextLineHeight" v:prompt="" v:val="VT0(0.2):29"/>
			</v:userDefs>
			<title>Manager.72</title>
			<desc>portID 10</desc>
			<g id="shape68-102" v:mID="68" v:groupContext="groupContent">
				<v:textBlock v:margins="rect(0,0,0,0)"/>
				<v:textRect cx="58.5" cy="680.22" width="111.16" height="31.5"/>
				<path d="M0 711.72 L0 648.72 L117 648.72 L117 711.72 L0 711.72 Z" class="st6"/>
				<path d="M0 711.72 L0 648.72 L117 648.72 L117 711.72 L0 711.72" class="st2"/>
				<path d="M1.8 709.92 L1.8 650.52 L115.2 650.52 L115.2 709.92 L1.8 709.92" class="st2"/>
				<text x="41.62" y="676.92" class="st3" v:langID="1033"><v:paragraph v:horizAlign="1"/><v:tabList/>port<tspan
							class="st4">I</tspan>D<v:lf/><tspan x="51.83" dy="1.225em" class="st5">10</tspan></text>			</g>
		</g>
		<g id="group91-109" transform="translate(180.36,-162.36)" v:mID="91" v:groupContext="group">
			<v:custProps>
				<v:cp v:nameU="Department" v:lbl="Department" v:type="0" v:invis="false" v:ask="false" v:langID="1033" v:cal="0"
						v:val="VT4(Department)"/>
				<v:cp v:nameU="Telephone" v:lbl="Telephone" v:type="0" v:invis="false" v:ask="false" v:langID="1033" v:cal="0"
						v:val="VT4(Telephone)"/>
				<v:cp v:nameU="Name" v:lbl="Name" v:type="0" v:invis="false" v:ask="false" v:langID="1033" v:cal="0"
						v:val="VT4(Name)"/>
				<v:cp v:nameU="Title" v:lbl="Title" v:type="0" v:invis="false" v:ask="false" v:langID="1033" v:cal="0"
						v:val="VT4(Title)"/>
				<v:cp v:nameU="Email" v:lbl="E-mail" v:type="0" v:invis="false" v:ask="false" v:langID="1033" v:cal="0"
						v:val="VT4(E-mail)"/>
				<v:cp v:nameU="Name" v:lbl="" v:prompt="" v:type="0" v:format="" v:sortKey="" v:invis="false" v:ask="false"
						v:langID="0" v:cal="0" v:val="VT4(processorID 9)"/>
				<v:cp v:nameU="Calendar" v:lbl="" v:prompt="" v:type="0" v:format="" v:sortKey="" v:invis="false" v:ask="false"
						v:langID="0" v:cal="0"/>
			</v:custProps>
			<v:userDefs>
				<v:ud v:nameU="Solsh" v:prompt="" v:val="VT15({0BF98B35-200C-41D5-8A23-20EF77CBC94A}):41"/>
				<v:ud v:nameU="ShapeType" v:prompt="" v:val="VT0(1):26"/>
				<v:ud v:nameU="ShowPicture" v:prompt="" v:val="VT0(0):26"/>
				<v:ud v:nameU="ShowSubordinates" v:prompt="" v:val="VT0(1):26"/>
				<v:ud v:nameU="DocShowPicture" v:prompt="" v:val="VT0(1):26"/>
				<v:ud v:nameU="Margin" v:prompt="" v:val="VT0(0.025):0"/>
				<v:ud v:nameU="HasSubordinates" v:prompt="" v:val="VT0(0):26"/>
				<v:ud v:nameU="IsHidingSubs" v:prompt="" v:val="VT0(0):5"/>
				<v:ud v:nameU="ShowDivider" v:prompt="" v:val="VT0(0):26"/>
				<v:ud v:nameU="ThisLayoutStyle" v:prompt="" v:val="VT0(0):26"/>
				<v:ud v:nameU="HasPicture" v:prompt="" v:val="VT0(0):26"/>
				<v:ud v:nameU="Width" v:prompt="" v:val="VT0(1):0"/>
				<v:ud v:nameU="Height" v:prompt="" v:val="VT0(0.5):0"/>
				<v:ud v:nameU="Prop" v:prompt=""/>
				<v:ud v:nameU="PictureAspectRatio" v:prompt="" v:val="VT0(1):26"/>
				<v:ud v:nameU="PictureID" v:prompt=""/>
				<v:ud v:nameU="SetWidth" v:prompt=""/>
				<v:ud v:nameU="SetHeight" v:prompt=""/>
				<v:ud v:nameU="PositionID" v:prompt="" v:val="VT0(0):26"/>
				<v:ud v:nameU="DeltaX" v:prompt="" v:val="VT0(0):26"/>
				<v:ud v:nameU="DeltaY" v:prompt="" v:val="VT0(0):26"/>
				<v:ud v:nameU="ParLocX" v:prompt="" v:val="VT0(0):26"/>
				<v:ud v:nameU="ParLocY" v:prompt="" v:val="VT0(0):26"/>
				<v:ud v:nameU="PageLoc" v:prompt="" v:val="VT0(0):26"/>
				<v:ud v:nameU="ParLoc" v:prompt="" v:val="VT0(0):26"/>
				<v:ud v:nameU="PictureAreaWidth" v:prompt="" v:val="VT0(0.26944444444444):0"/>
				<v:ud v:nameU="PictureAreaHeight" v:prompt="" v:val="VT0(0.43611111111111):0"/>
				<v:ud v:nameU="PictureAreaAspectRatio" v:prompt="" v:val="VT0(0.61783439490446):26"/>
				<v:ud v:nameU="PictureWidth" v:prompt="" v:val="VT0(0.26944444444444):0"/>
				<v:ud v:nameU="PictureHeight" v:prompt="" v:val="VT0(0.26944444444444):0"/>
				<v:ud v:nameU="DividerOffset" v:prompt="" v:val="VT0(0.2500244913737):0"/>
				<v:ud v:nameU="CalcTextLineHeight" v:prompt="" v:val="VT0(0.13333333333333):29"/>
				<v:ud v:nameU="ExpandedForPicture" v:prompt="" v:val="VT0(0):26"/>
				<v:ud v:nameU="Theme" v:prompt="" v:val="VT0(0):26"/>
				<v:ud v:nameU="visVersion" v:prompt="" v:val="VT0(12):26"/>
				<v:ud v:nameU="Width" v:prompt="" v:val="VT0(1.6250000006494):1"/>
				<v:ud v:nameU="Height" v:prompt="" v:val="VT0(0.87500000028766):1"/>
				<v:ud v:nameU="Prop" v:prompt="" v:val="VT4(Name)"/>
				<v:ud v:nameU="PositionID" v:prompt="" v:val="VT4({811A4693-A8F3-4056-81EB-AD8443577CCF})"/>
				<v:ud v:nameU="PictureAreaWidth" v:prompt="" v:val="VT0(0.47777777799424):0"/>
				<v:ud v:nameU="PictureAreaHeight" v:prompt="" v:val="VT0(0.81111111139877):0"/>
				<v:ud v:nameU="PictureAreaAspectRatio" v:prompt="" v:val="VT0(0.58904109594838):26"/>
				<v:ud v:nameU="PictureWidth" v:prompt="" v:val="VT0(0.47777777799424):0"/>
				<v:ud v:nameU="PictureHeight" v:prompt="" v:val="VT0(0.47777777799424):0"/>
				<v:ud v:nameU="DividerOffset" v:prompt="" v:val="VT0(0.44586011366922):29"/>
				<v:ud v:nameU="CalcTextLineHeight" v:prompt="" v:val="VT0(0.2):29"/>
			</v:userDefs>
			<title>Manager.91</title>
			<desc>processorID 9</desc>
			<g id="shape91-110" v:mID="91" v:groupContext="groupContent">
				<v:textBlock v:margins="rect(0,0,0,0)"/>
				<v:textRect cx="58.5" cy="680.22" width="111.16" height="31.5"/>
				<path d="M0 711.72 L0 648.72 L117 648.72 L117 711.72 L0 711.72 Z" class="st6"/>
				<path d="M0 711.72 L0 648.72 L117 648.72 L117 711.72 L0 711.72" class="st2"/>
				<path d="M1.8 709.92 L1.8 650.52 L115.2 650.52 L115.2 709.92 L1.8 709.92" class="st2"/>
				<text x="25.61" y="676.92" class="st3" v:langID="1033"><v:paragraph v:horizAlign="1"/><v:tabList/>processor<tspan
							class="st4">I</tspan>D<v:lf/><tspan x="55.16" dy="1.225em" class="st5">9</tspan></text>			</g>
		</g>
		<g id="group96-117" transform="translate(324.36,-81.36)" v:mID="96" v:groupContext="group">
			<v:custProps>
				<v:cp v:nameU="Department" v:lbl="Department" v:type="0" v:invis="false" v:ask="false" v:langID="1033" v:cal="0"
						v:val="VT4(Department)"/>
				<v:cp v:nameU="Telephone" v:lbl="Telephone" v:type="0" v:invis="false" v:ask="false" v:langID="1033" v:cal="0"
						v:val="VT4(Telephone)"/>
				<v:cp v:nameU="Name" v:lbl="Name" v:type="0" v:invis="false" v:ask="false" v:langID="1033" v:cal="0"
						v:val="VT4(Name)"/>
				<v:cp v:nameU="Title" v:lbl="Title" v:type="0" v:invis="false" v:ask="false" v:langID="1033" v:cal="0"
						v:val="VT4(Title)"/>
				<v:cp v:nameU="Email" v:lbl="E-mail" v:type="0" v:invis="false" v:ask="false" v:langID="1033" v:cal="0"
						v:val="VT4(E-mail)"/>
				<v:cp v:nameU="Name" v:lbl="" v:prompt="" v:type="0" v:format="" v:sortKey="" v:invis="false" v:ask="false"
						v:langID="0" v:cal="0" v:val="VT4(messageType 12)"/>
				<v:cp v:nameU="Calendar" v:lbl="" v:prompt="" v:type="0" v:format="" v:sortKey="" v:invis="false" v:ask="false"
						v:langID="0" v:cal="0"/>
			</v:custProps>
			<v:userDefs>
				<v:ud v:nameU="Solsh" v:prompt="" v:val="VT15({0BF98B35-200C-41D5-8A23-20EF77CBC94A}):41"/>
				<v:ud v:nameU="ShapeType" v:prompt="" v:val="VT0(1):26"/>
				<v:ud v:nameU="ShowPicture" v:prompt="" v:val="VT0(0):26"/>
				<v:ud v:nameU="ShowSubordinates" v:prompt="" v:val="VT0(1):26"/>
				<v:ud v:nameU="DocShowPicture" v:prompt="" v:val="VT0(1):26"/>
				<v:ud v:nameU="Margin" v:prompt="" v:val="VT0(0.025):0"/>
				<v:ud v:nameU="HasSubordinates" v:prompt="" v:val="VT0(0):26"/>
				<v:ud v:nameU="IsHidingSubs" v:prompt="" v:val="VT0(0):5"/>
				<v:ud v:nameU="ShowDivider" v:prompt="" v:val="VT0(0):26"/>
				<v:ud v:nameU="ThisLayoutStyle" v:prompt="" v:val="VT0(0):26"/>
				<v:ud v:nameU="HasPicture" v:prompt="" v:val="VT0(0):26"/>
				<v:ud v:nameU="Width" v:prompt="" v:val="VT0(1):0"/>
				<v:ud v:nameU="Height" v:prompt="" v:val="VT0(0.5):0"/>
				<v:ud v:nameU="Prop" v:prompt=""/>
				<v:ud v:nameU="PictureAspectRatio" v:prompt="" v:val="VT0(1):26"/>
				<v:ud v:nameU="PictureID" v:prompt=""/>
				<v:ud v:nameU="SetWidth" v:prompt=""/>
				<v:ud v:nameU="SetHeight" v:prompt=""/>
				<v:ud v:nameU="PositionID" v:prompt="" v:val="VT0(0):26"/>
				<v:ud v:nameU="DeltaX" v:prompt="" v:val="VT0(0):26"/>
				<v:ud v:nameU="DeltaY" v:prompt="" v:val="VT0(0):26"/>
				<v:ud v:nameU="ParLocX" v:prompt="" v:val="VT0(0):26"/>
				<v:ud v:nameU="ParLocY" v:prompt="" v:val="VT0(0):26"/>
				<v:ud v:nameU="PageLoc" v:prompt="" v:val="VT0(0):26"/>
				<v:ud v:nameU="ParLoc" v:prompt="" v:val="VT0(0):26"/>
				<v:ud v:nameU="PictureAreaWidth" v:prompt="" v:val="VT0(0.26944444444444):0"/>
				<v:ud v:nameU="PictureAreaHeight" v:prompt="" v:val="VT0(0.43611111111111):0"/>
				<v:ud v:nameU="PictureAreaAspectRatio" v:prompt="" v:val="VT0(0.61783439490446):26"/>
				<v:ud v:nameU="PictureWidth" v:prompt="" v:val="VT0(0.26944444444444):0"/>
				<v:ud v:nameU="PictureHeight" v:prompt="" v:val="VT0(0.26944444444444):0"/>
				<v:ud v:nameU="DividerOffset" v:prompt="" v:val="VT0(0.2500244913737):0"/>
				<v:ud v:nameU="CalcTextLineHeight" v:prompt="" v:val="VT0(0.13333333333333):29"/>
				<v:ud v:nameU="ExpandedForPicture" v:prompt="" v:val="VT0(0):26"/>
				<v:ud v:nameU="Theme" v:prompt="" v:val="VT0(0):26"/>
				<v:ud v:nameU="visVersion" v:prompt="" v:val="VT0(12):26"/>
				<v:ud v:nameU="Width" v:prompt="" v:val="VT0(1.6250000006124):1"/>
				<v:ud v:nameU="Height" v:prompt="" v:val="VT0(0.8750000003082):1"/>
				<v:ud v:nameU="Prop" v:prompt="" v:val="VT4(Name)"/>
				<v:ud v:nameU="PositionID" v:prompt="" v:val="VT4({E2E7EBE9-A160-488A-AB29-333D6927BA8C})"/>
				<v:ud v:nameU="ParLocX" v:prompt="" v:val="VT0(0):26"/>
				<v:ud v:nameU="ParLocY" v:prompt="" v:val="VT0(0):26"/>
				<v:ud v:nameU="PageLoc" v:prompt="" v:val="VT7(PNT(0,0)):40"/>
				<v:ud v:nameU="PictureAreaWidth" v:prompt="" v:val="VT0(0.4777777779819):0"/>
				<v:ud v:nameU="PictureAreaHeight" v:prompt="" v:val="VT0(0.81111111141932):0"/>
				<v:ud v:nameU="PictureAreaAspectRatio" v:prompt="" v:val="VT0(0.58904109591824):26"/>
				<v:ud v:nameU="PictureWidth" v:prompt="" v:val="VT0(0.4777777779819):0"/>
				<v:ud v:nameU="PictureHeight" v:prompt="" v:val="VT0(0.4777777779819):0"/>
				<v:ud v:nameU="DividerOffset" v:prompt="" v:val="VT0(0.43752652603301):29"/>
				<v:ud v:nameU="CalcTextLineHeight" v:prompt="" v:val="VT0(0.2):29"/>
			</v:userDefs>
			<title>Manager.96</title>
			<desc>messageType 12</desc>
			<g id="shape96-118" v:mID="96" v:groupContext="groupContent">
				<v:textBlock v:margins="rect(0,0,0,0)"/>
				<v:textRect cx="58.5" cy="680.22" width="111.16" height="31.5"/>
				<path d="M0 711.72 L0 648.72 L117 648.72 L117 711.72 L0 711.72 Z" class="st6"/>
				<path d="M0 711.72 L0 648.72 L117 648.72 L117 711.72 L0 711.72" class="st2"/>
				<path d="M1.8 709.92 L1.8 650.52 L115.2 650.52 L115.2 709.92 L1.8 709.92" class="st2"/>
				<text x="20.81" y="676.62" class="st3" v:langID="1033"><v:paragraph v:horizAlign="1"/><v:tabList/>messageType<v:lf/><tspan
							x="51.83" dy="1.2em" class="st5">12</tspan></text>			</g>
		</g>
		<g id="group101-124" transform="translate(180.36,-0.36)" v:mID="101" v:groupContext="group">
			<v:custProps>
				<v:cp v:nameU="Department" v:lbl="Department" v:type="0" v:invis="false" v:ask="false" v:langID="1033" v:cal="0"
						v:val="VT4(Department)"/>
				<v:cp v:nameU="Telephone" v:lbl="Telephone" v:type="0" v:invis="false" v:ask="false" v:langID="1033" v:cal="0"
						v:val="VT4(Telephone)"/>
				<v:cp v:nameU="Name" v:lbl="Name" v:type="0" v:invis="false" v:ask="false" v:langID="1033" v:cal="0"
						v:val="VT4(Name)"/>
				<v:cp v:nameU="Title" v:lbl="Title" v:type="0" v:invis="false" v:ask="false" v:langID="1033" v:cal="0"
						v:val="VT4(Title)"/>
				<v:cp v:nameU="Email" v:lbl="E-mail" v:type="0" v:invis="false" v:ask="false" v:langID="1033" v:cal="0"
						v:val="VT4(E-mail)"/>
				<v:cp v:nameU="Name" v:lbl="" v:prompt="" v:type="0" v:format="" v:sortKey="" v:invis="false" v:ask="false"
						v:langID="0" v:cal="0" v:val="VT4(alarm 13)"/>
				<v:cp v:nameU="Calendar" v:lbl="" v:prompt="" v:type="0" v:format="" v:sortKey="" v:invis="false" v:ask="false"
						v:langID="0" v:cal="0"/>
			</v:custProps>
			<v:userDefs>
				<v:ud v:nameU="Solsh" v:prompt="" v:val="VT15({0BF98B35-200C-41D5-8A23-20EF77CBC94A}):41"/>
				<v:ud v:nameU="ShapeType" v:prompt="" v:val="VT0(1):26"/>
				<v:ud v:nameU="ShowPicture" v:prompt="" v:val="VT0(0):26"/>
				<v:ud v:nameU="ShowSubordinates" v:prompt="" v:val="VT0(1):26"/>
				<v:ud v:nameU="DocShowPicture" v:prompt="" v:val="VT0(1):26"/>
				<v:ud v:nameU="Margin" v:prompt="" v:val="VT0(0.025):0"/>
				<v:ud v:nameU="HasSubordinates" v:prompt="" v:val="VT0(0):26"/>
				<v:ud v:nameU="IsHidingSubs" v:prompt="" v:val="VT0(0):5"/>
				<v:ud v:nameU="ShowDivider" v:prompt="" v:val="VT0(0):26"/>
				<v:ud v:nameU="ThisLayoutStyle" v:prompt="" v:val="VT0(0):26"/>
				<v:ud v:nameU="HasPicture" v:prompt="" v:val="VT0(0):26"/>
				<v:ud v:nameU="Width" v:prompt="" v:val="VT0(1):0"/>
				<v:ud v:nameU="Height" v:prompt="" v:val="VT0(0.5):0"/>
				<v:ud v:nameU="Prop" v:prompt=""/>
				<v:ud v:nameU="PictureAspectRatio" v:prompt="" v:val="VT0(1):26"/>
				<v:ud v:nameU="PictureID" v:prompt=""/>
				<v:ud v:nameU="SetWidth" v:prompt=""/>
				<v:ud v:nameU="SetHeight" v:prompt=""/>
				<v:ud v:nameU="PositionID" v:prompt="" v:val="VT0(0):26"/>
				<v:ud v:nameU="DeltaX" v:prompt="" v:val="VT0(0):26"/>
				<v:ud v:nameU="DeltaY" v:prompt="" v:val="VT0(0):26"/>
				<v:ud v:nameU="ParLocX" v:prompt="" v:val="VT0(0):26"/>
				<v:ud v:nameU="ParLocY" v:prompt="" v:val="VT0(0):26"/>
				<v:ud v:nameU="PageLoc" v:prompt="" v:val="VT0(0):26"/>
				<v:ud v:nameU="ParLoc" v:prompt="" v:val="VT0(0):26"/>
				<v:ud v:nameU="PictureAreaWidth" v:prompt="" v:val="VT0(0.26944444444444):0"/>
				<v:ud v:nameU="PictureAreaHeight" v:prompt="" v:val="VT0(0.43611111111111):0"/>
				<v:ud v:nameU="PictureAreaAspectRatio" v:prompt="" v:val="VT0(0.61783439490446):26"/>
				<v:ud v:nameU="PictureWidth" v:prompt="" v:val="VT0(0.26944444444444):0"/>
				<v:ud v:nameU="PictureHeight" v:prompt="" v:val="VT0(0.26944444444444):0"/>
				<v:ud v:nameU="DividerOffset" v:prompt="" v:val="VT0(0.2500244913737):0"/>
				<v:ud v:nameU="CalcTextLineHeight" v:prompt="" v:val="VT0(0.13333333333333):29"/>
				<v:ud v:nameU="ExpandedForPicture" v:prompt="" v:val="VT0(0):26"/>
				<v:ud v:nameU="Theme" v:prompt="" v:val="VT0(0):26"/>
				<v:ud v:nameU="visVersion" v:prompt="" v:val="VT0(12):26"/>
				<v:ud v:nameU="Width" v:prompt="" v:val="VT0(1.6250000006494):1"/>
				<v:ud v:nameU="Height" v:prompt="" v:val="VT0(0.87500000028766):1"/>
				<v:ud v:nameU="Prop" v:prompt="" v:val="VT4(Name)"/>
				<v:ud v:nameU="PositionID" v:prompt="" v:val="VT4({3D7DDAF7-54A3-4B10-A4F0-3E5AF33B6569})"/>
				<v:ud v:nameU="ParLocX" v:prompt="" v:val="VT0(0):26"/>
				<v:ud v:nameU="ParLocY" v:prompt="" v:val="VT0(0):26"/>
				<v:ud v:nameU="PageLoc" v:prompt="" v:val="VT7(PNT(0,0)):40"/>
				<v:ud v:nameU="PictureAreaWidth" v:prompt="" v:val="VT0(0.47777777799424):0"/>
				<v:ud v:nameU="PictureAreaHeight" v:prompt="" v:val="VT0(0.81111111139877):0"/>
				<v:ud v:nameU="PictureAreaAspectRatio" v:prompt="" v:val="VT0(0.58904109594838):26"/>
				<v:ud v:nameU="PictureWidth" v:prompt="" v:val="VT0(0.47777777799424):0"/>
				<v:ud v:nameU="PictureHeight" v:prompt="" v:val="VT0(0.47777777799424):0"/>
				<v:ud v:nameU="DividerOffset" v:prompt="" v:val="VT0(0.43752652602274):29"/>
				<v:ud v:nameU="CalcTextLineHeight" v:prompt="" v:val="VT0(0.2):29"/>
			</v:userDefs>
			<title>Manager.101</title>
			<desc>alarm 13</desc>
			<g id="shape101-125" v:mID="101" v:groupContext="groupContent">
				<v:textBlock v:margins="rect(0,0,0,0)"/>
				<v:textRect cx="58.5" cy="680.22" width="111.16" height="31.5"/>
				<path d="M0 711.72 L0 648.72 L117 648.72 L117 711.72 L0 711.72 Z" class="st6"/>
				<path d="M0 711.72 L0 648.72 L117 648.72 L117 711.72 L0 711.72" class="st2"/>
				<path d="M1.8 709.92 L1.8 650.52 L115.2 650.52 L115.2 709.92 L1.8 709.92" class="st2"/>
				<text x="43.5" y="676.62" class="st3" v:langID="1033"><v:paragraph v:horizAlign="1"/><v:tabList/>alarm<v:lf/><tspan
							x="51.83" dy="1.2em" class="st5">13</tspan></text>			</g>
		</g>
		<g id="shape106-131" v:mID="106" v:groupContext="shape" v:layerMember="0"
				transform="translate(-653.005,144.876) rotate(-90) scale(-1,1)">
			<title>Line connector.24</title>
			<v:userDefs>
				<v:ud v:nameU="visVersion" v:val="VT0(15):26"/>
			</v:userDefs>
			<path d="M0 711.72 L17.48 711.72" class="st2"/>
		</g>
		<g id="shape108-134" v:mID="108" v:groupContext="shape" v:layerMember="0" transform="translate(896.58,63.36) rotate(90)">
			<title>Double tree square</title>
			<v:userDefs>
				<v:ud v:nameU="Scale" v:val="VT0(1):26"/>
				<v:ud v:nameU="AntiScale" v:val="VT0(1):26"/>
				<v:ud v:nameU="visVersion" v:val="VT0(15):26"/>
			</v:userDefs>
			<path d="M0 711.72 L9 711.72" class="st2"/>
			<path d="M9 711.72 L9 837.86 L18.52 837.86" class="st2"/>
			<path d="M9 711.72 L9 585.72 L18 585.72" class="st2"/>
		</g>
		<g id="shape110-139" v:mID="110" v:groupContext="shape" v:layerMember="0" transform="translate(1022.58,144.36) rotate(90)">
			<title>Double tree square.110</title>
			<v:userDefs>
				<v:ud v:nameU="Scale" v:val="VT0(1):26"/>
				<v:ud v:nameU="AntiScale" v:val="VT0(1):26"/>
				<v:ud v:nameU="visVersion" v:val="VT0(15):26"/>
			</v:userDefs>
			<path d="M0 711.72 L9 711.72" class="st2"/>
			<path d="M9 711.72 L9 860.31 L535.5 860.31" class="st2"/>
			<path d="M9 711.72 L9 563.13 L454.5 563.13" class="st2"/>
		</g>
		<g id="shape119-144" v:mID="119" v:groupContext="shape" v:layerMember="0" transform="translate(180.36,-517.86) scale(-1,1)">
			<title>Line connector.119</title>
			<v:userDefs>
				<v:ud v:nameU="visVersion" v:val="VT0(15):26"/>
			</v:userDefs>
			<path d="M0 711.72 L18.09 711.72" class="st2"/>
		</g>
		<g id="shape120-147" v:mID="120" v:groupContext="shape" v:layerMember="0" transform="translate(180.36,-436.86) scale(-1,1)">
			<title>Line connector.120</title>
			<v:userDefs>
				<v:ud v:nameU="visVersion" v:val="VT0(15):26"/>
			</v:userDefs>
			<path d="M0 711.72 L18.09 711.72" class="st2"/>
		</g>
		<g id="shape121-150" v:mID="121" v:groupContext="shape" v:layerMember="0" transform="translate(180.36,-355.86) scale(-1,1)">
			<title>Line connector.121</title>
			<v:userDefs>
				<v:ud v:nameU="visVersion" v:val="VT0(15):26"/>
			</v:userDefs>
			<path d="M0 711.72 L18.09 711.72" class="st2"/>
		</g>
		<g id="shape122-153" v:mID="122" v:groupContext="shape" v:layerMember="0" transform="translate(180.36,-274.86) scale(-1,1)">
			<title>Line connector.122</title>
			<v:userDefs>
				<v:ud v:nameU="visVersion" v:val="VT0(15):26"/>
			</v:userDefs>
			<path d="M0 711.72 L18.09 711.72" class="st2"/>
		</g>
		<g id="shape123-156" v:mID="123" v:groupContext="shape" v:layerMember="0" transform="translate(180.36,-193.86) scale(-1,1)">
			<title>Line connector.123</title>
			<v:userDefs>
				<v:ud v:nameU="visVersion" v:val="VT0(15):26"/>
			</v:userDefs>
			<path d="M0 711.72 L18.09 711.72" class="st2"/>
		</g>
		<g id="shape124-159" v:mID="124" v:groupContext="shape" v:layerMember="0" transform="translate(180.36,-112.86) scale(-1,1)">
			<title>Line connector.124</title>
			<v:userDefs>
				<v:ud v:nameU="visVersion" v:val="VT0(15):26"/>
			</v:userDefs>
			<path d="M0 711.72 L18.09 711.72" class="st2"/>
		</g>
		<g id="shape125-162" v:mID="125" v:groupContext="shape" v:layerMember="0" transform="translate(180.36,-31.86) scale(-1,1)">
			<title>Line connector.125</title>
			<v:userDefs>
				<v:ud v:nameU="visVersion" v:val="VT0(15):26"/>
			</v:userDefs>
			<path d="M0 711.72 L18.09 711.72" class="st2"/>
		</g>
		<g id="shape126-165" v:mID="126" v:groupContext="shape" v:layerMember="0"
				transform="translate(459.455,-112.86) scale(-1,1)">
			<title>Line connector.126</title>
			<v:userDefs>
				<v:ud v:nameU="visVersion" v:val="VT0(15):26"/>
			</v:userDefs>
			<path d="M0 711.72 L18.09 711.72" class="st2"/>
		</g>
		<g id="shape127-168" v:mID="127" v:groupContext="shape" v:layerMember="0"
				transform="translate(459.455,-193.86) scale(-1,1)">
			<title>Line connector.127</title>
			<v:userDefs>
				<v:ud v:nameU="visVersion" v:val="VT0(15):26"/>
			</v:userDefs>
			<path d="M0 711.72 L18.09 711.72" class="st2"/>
		</g>
		<g id="shape128-171" v:mID="128" v:groupContext="shape" v:layerMember="0"
				transform="translate(459.455,-274.86) scale(-1,1)">
			<title>Line connector.128</title>
			<v:userDefs>
				<v:ud v:nameU="visVersion" v:val="VT0(15):26"/>
			</v:userDefs>
			<path d="M0 711.72 L18.09 711.72" class="st2"/>
		</g>
		<g id="shape129-174" v:mID="129" v:groupContext="shape" v:layerMember="0"
				transform="translate(459.455,-355.86) scale(-1,1)">
			<title>Line connector.129</title>
			<v:userDefs>
				<v:ud v:nameU="visVersion" v:val="VT0(15):26"/>
			</v:userDefs>
			<path d="M0 711.72 L18.09 711.72" class="st2"/>
		</g>
		<g id="shape130-177" v:mID="130" v:groupContext="shape" v:layerMember="0"
				transform="translate(459.455,-436.86) scale(-1,1)">
			<title>Line connector.130</title>
			<v:userDefs>
				<v:ud v:nameU="visVersion" v:val="VT0(15):26"/>
			</v:userDefs>
			<path d="M0 711.72 L18.09 711.72" class="st2"/>
		</g>
		<g id="shape131-180" v:mID="131" v:groupContext="shape" v:layerMember="0"
				transform="translate(459.455,-517.86) scale(-1,1)">
			<title>Line connector.131</title>
			<v:userDefs>
				<v:ud v:nameU="visVersion" v:val="VT0(15):26"/>
			</v:userDefs>
			<path d="M0 711.72 L18.09 711.72" class="st2"/>
		</g>
	</g>
</svg>
