<?xml version="1.0" encoding="UTF-8" standalone="no"?>
<!DOCTYPE svg PUBLIC "-//W3C//DTD SVG 1.1//EN" "http://www.w3.org/Graphics/SVG/1.1/DTD/svg11.dtd">
<!-- Generated by Microsoft Visio, SVG Export T182A.svg Page-1 -->
<svg xmlns="http://www.w3.org/2000/svg" xmlns:xlink="http://www.w3.org/1999/xlink" xmlns:ev="http://www.w3.org/2001/xml-events"
		xmlns:v="http://schemas.microsoft.com/visio/2003/SVGExtensions/" width="7.46817in" height="7.1763in"
		viewBox="0 0 537.709 516.694" xml:space="preserve" color-interpolation-filters="sRGB" class="st40">
	<v:documentProperties v:langID="1033" v:viewMarkup="false">
		<v:userDefs>
			<v:ud v:nameU="msvConvertTheme"/>
		</v:userDefs>
	</v:documentProperties>

	<style type="text/css">
	<![CDATA[
		.st1 {fill:none;stroke:none;stroke-linecap:round;stroke-linejoin:round;stroke-width:0.72}
		.st2 {fill:#000000;font-family:Arial;font-size:1.00001em;font-weight:bold}
		.st3 {font-size:1em}
		.st4 {fill:#000000;font-family:Arial;font-size:0.666664em;font-weight:bold}
		.st5 {fill:#000000;font-family:Arial;font-size:0.666664em}
		.st6 {fill:#000000;stroke:#000000;stroke-linecap:round;stroke-linejoin:round;stroke-width:0.24}
		.st7 {fill:none;stroke:#000000;stroke-linecap:round;stroke-linejoin:round;stroke-width:2.16}
		.st8 {fill:#000000;font-family:Arial Rounded MT Bold;font-size:0.916672em;font-weight:bold}
		.st9 {stroke:#000000;stroke-linecap:round;stroke-linejoin:round;stroke-width:0.72}
		.st10 {fill:#ffffff}
		.st11 {stroke:#000000;stroke-linecap:round;stroke-linejoin:round;stroke-width:0.24}
		.st12 {fill:#000000}
		.st13 {fill:#ffffff;stroke:#000000;stroke-linecap:round;stroke-linejoin:round;stroke-width:0.24;visibility:hidden}
		.st14 {fill:#ffffff;stroke:#000000;stroke-linecap:round;stroke-linejoin:round;stroke-width:1.2}
		.st15 {fill:#000000;font-family:Arial;font-size:1.5em;font-weight:bold}
		.st16 {fill:#ffffff;stroke:#000000;stroke-linecap:round;stroke-linejoin:round;stroke-width:0.72}
		.st17 {fill:#ffffff;stroke:#000000;stroke-linecap:round;stroke-linejoin:round;stroke-width:0.24}
		.st18 {fill:#ffffff;stroke:none;stroke-linecap:butt;stroke-width:7.2}
		.st19 {fill:#000000;font-family:Arial;font-size:0.833336em;font-weight:bold}
		.st20 {fill:#ff0000;stroke:#000000;stroke-linecap:round;stroke-linejoin:round;stroke-width:0.24}
		.st21 {fill:#c0c0c0;stroke:#000000;stroke-linecap:round;stroke-linejoin:round;stroke-width:0.24}
		.st22 {fill:#800000;stroke:none;stroke-linecap:round;stroke-linejoin:round;stroke-width:0.72}
		.st23 {marker-end:url(#mrkr4-193);marker-start:url(#mrkr4-191);stroke:#000000;stroke-linecap:round;stroke-linejoin:round;stroke-width:0.24}
		.st24 {fill:#000000;fill-opacity:1;stroke:#000000;stroke-opacity:1;stroke-width:0.08695652173913}
		.st25 {marker-end:url(#mrkr4-229);stroke:#000000;stroke-linecap:round;stroke-linejoin:round;stroke-width:0.72}
		.st26 {fill:#000000;fill-opacity:1;stroke:#000000;stroke-opacity:1;stroke-width:0.22222222222222}
		.st27 {marker-end:url(#mrkr4-246);marker-start:url(#mrkr4-244);stroke:#000000;stroke-linecap:round;stroke-linejoin:round;stroke-width:2.16}
		.st28 {fill:#000000;fill-opacity:1;stroke:#000000;stroke-opacity:1;stroke-width:0.46153846153846}
		.st29 {marker-start:url(#mrkr4-259);stroke:#000000;stroke-linecap:round;stroke-linejoin:round;stroke-width:0.72}
		.st30 {fill:#c0c0c0;stroke:none;stroke-linecap:round;stroke-linejoin:round;stroke-width:0.72}
		.st31 {fill:#ffffff;stroke:none;stroke-linecap:round;stroke-linejoin:round;stroke-width:0.72}
		.st32 {fill:#ff0000;stroke:none;stroke-linecap:round;stroke-linejoin:round;stroke-width:0.72}
		.st33 {fill:#ffffff;stroke:none;stroke-linecap:round;stroke-linejoin:round;stroke-width:0.72;visibility:hidden}
		.st34 {fill:#000000;font-family:Arial;font-size:0.499992em;font-weight:bold}
		.st35 {fill:#000000;font-family:Arial;font-size:0.916672em;font-weight:bold}
		.st36 {font-size:0.818177em}
		.st37 {fill:#000000;font-family:Arial;font-size:0.75em;font-weight:bold}
		.st38 {fill:#c0c0c0}
		.st39 {stroke:#000000;stroke-linecap:round;stroke-linejoin:round;stroke-width:1.2}
		.st40 {fill:none;fill-rule:evenodd;font-size:12px;overflow:visible;stroke-linecap:square;stroke-miterlimit:3}
	]]>
	</style>

	<defs id="Markers">
		<g id="lend4">
			<path d="M 2 1 L 0 0 L 2 -1 L 2 1 " style="stroke:none"/>
		</g>
		<marker id="mrkr4-191" class="st24" v:arrowType="4" v:arrowSize="2" v:setback="21.5" refX="21.5" orient="auto"
				markerUnits="strokeWidth" overflow="visible">
			<use xlink:href="#lend4" transform="scale(11.5) "/>
		</marker>
		<marker id="mrkr4-193" class="st24" v:arrowType="4" v:arrowSize="2" v:setback="23" refX="-23" orient="auto"
				markerUnits="strokeWidth" overflow="visible">
			<use xlink:href="#lend4" transform="scale(-11.5,-11.5) "/>
		</marker>
		<marker id="mrkr4-229" class="st26" v:arrowType="4" v:arrowSize="2" v:setback="9" refX="-9" orient="auto"
				markerUnits="strokeWidth" overflow="visible">
			<use xlink:href="#lend4" transform="scale(-4.5,-4.5) "/>
		</marker>
		<marker id="mrkr4-244" class="st28" v:arrowType="4" v:arrowSize="2" v:setback="4.16667" refX="4.1666666666667"
				orient="auto" markerUnits="strokeWidth" overflow="visible">
			<use xlink:href="#lend4" transform="scale(2.1666666666667) "/>
		</marker>
		<marker id="mrkr4-246" class="st28" v:arrowType="4" v:arrowSize="2" v:setback="4.33333" refX="-4.3333333333333"
				orient="auto" markerUnits="strokeWidth" overflow="visible">
			<use xlink:href="#lend4" transform="scale(-2.1666666666667,-2.1666666666667) "/>
		</marker>
		<marker id="mrkr4-259" class="st26" v:arrowType="4" v:arrowSize="2" v:setback="8.5" refX="8.5" orient="auto"
				markerUnits="strokeWidth" overflow="visible">
			<use xlink:href="#lend4" transform="scale(4.5) "/>
		</marker>
	</defs>
	<g v:mID="0" v:index="1" v:groupContext="foregroundPage">
		<title>Page-1</title>
		<v:pageProperties v:drawingScale="1" v:pageScale="1" v:drawingUnits="19" v:shadowOffsetX="9" v:shadowOffsetY="-9"/>
		<v:layer v:name="Flowchart" v:index="0"/>
		<g id="shape1-1" v:mID="1" v:groupContext="shape" transform="translate(136.341,-24.7101)">
			<title>Sheet.1</title>
			<desc>Typical Split-Mode Applications Configuration NAS100C</desc>
			<v:textBlock v:margins="rect(4,4,4,4)"/>
			<v:textRect cx="144" cy="504.319" width="288" height="24.75"/>
			<rect x="0" y="491.944" width="288" height="24.75" class="st1"/>
			<text x="12.33" y="500.72" class="st2" v:langID="1033"><v:paragraph v:horizAlign="1"/><v:tabList/>Typical Split-Mode Applications Configuration<v:newlineChar/><tspan
						x="116.99" dy="1.2em" class="st3">NAS</tspan>100C</text>		</g>
		<g id="shape129-5" v:mID="129" v:groupContext="shape" transform="translate(292.069,-398.341)">
			<title>Sheet.129</title>
			<desc>A Links</desc>
			<v:textBlock v:margins="rect(4,4,4,4)"/>
			<v:textRect cx="19.125" cy="507.694" width="38.25" height="18"/>
			<rect x="0" y="498.694" width="38.25" height="18" class="st1"/>
			<text x="4.68" y="510.09" class="st4" v:langID="1033"><v:paragraph v:horizAlign="1"/><v:tabList/>A Links</text>		</g>
		<g id="shape133-8" v:mID="133" v:groupContext="shape" transform="translate(210.132,-399.466)">
			<title>Sheet.133</title>
			<desc>A Links</desc>
			<v:textBlock v:margins="rect(4,4,4,4)"/>
			<v:textRect cx="19.125" cy="507.694" width="38.25" height="18"/>
			<rect x="0" y="498.694" width="38.25" height="18" class="st1"/>
			<text x="4.68" y="510.09" class="st4" v:langID="1033"><v:paragraph v:horizAlign="1"/><v:tabList/>A Links</text>		</g>
		<g id="shape105-11" v:mID="105" v:groupContext="shape" transform="translate(200.233,-448.012)">
			<title>Sheet.105</title>
			<desc>B Links</desc>
			<v:textBlock v:margins="rect(4,4,4,4)"/>
			<v:textRect cx="22.5" cy="512.194" width="45" height="9"/>
			<rect x="0" y="507.694" width="45" height="9" class="st1"/>
			<text x="8.05" y="514.59" class="st4" v:langID="1033"><v:paragraph v:horizAlign="1"/><v:tabList/>B Links</text>		</g>
		<g id="shape106-14" v:mID="106" v:groupContext="shape" transform="translate(306.233,-448.012)">
			<title>Sheet.106</title>
			<desc>B Links</desc>
			<v:textBlock v:margins="rect(4,4,4,4)"/>
			<v:textRect cx="22.5" cy="512.194" width="45" height="9"/>
			<rect x="0" y="507.694" width="45" height="9" class="st1"/>
			<text x="8.05" y="514.59" class="st4" v:langID="1033"><v:paragraph v:horizAlign="1"/><v:tabList/>B Links</text>		</g>
		<g id="shape109-17" v:mID="109" v:groupContext="shape" transform="translate(248.532,-428.106)">
			<title>Sheet.109</title>
			<desc>C Links</desc>
			<v:textBlock v:margins="rect(4,4,4,4)"/>
			<v:textRect cx="22.5" cy="512.194" width="45" height="9"/>
			<rect x="0" y="507.694" width="45" height="9" class="st1"/>
			<text x="8.05" y="514.59" class="st4" v:langID="1033"><v:paragraph v:horizAlign="1"/><v:tabList/>C Links</text>		</g>
		<g id="shape35-20" v:mID="35" v:groupContext="shape" transform="translate(226.955,-364.005)">
			<title>Sheet.35</title>
			<desc>o o o o</desc>
			<v:textBlock v:margins="rect(4,4,4,4)"/>
			<v:textRect cx="37.4063" cy="511.872" width="74.82" height="9.64286"/>
			<rect x="0" y="507.051" width="74.8125" height="9.64286" class="st1"/>
			<text x="20.73" y="514.27" class="st5" v:langID="1033"><v:paragraph v:horizAlign="1"/><v:tabList/>o    o   o    o            </text>		</g>
		<g id="shape96-23" v:mID="96" v:groupContext="shape" transform="translate(231.733,-376.887)">
			<title>Junction.96</title>
			<path d="M-1.69 516.69 A1.6875 1.6875 0 0 1 1.69 516.69 A1.6875 1.6875 0 1 1 -1.69 516.69 Z" class="st6"/>
		</g>
		<g id="shape128-25" v:mID="128" v:groupContext="shape" transform="translate(147.194,-309.282)">
			<title>Sheet.128</title>
			<desc>Ethernet</desc>
			<v:textBlock v:margins="rect(4,4,4,4)"/>
			<v:textRect cx="27" cy="512.194" width="54" height="9"/>
			<rect x="0" y="507.694" width="54" height="9" class="st1"/>
			<text x="10.78" y="514.59" class="st4" v:langID="1033"><v:paragraph v:horizAlign="1"/><v:tabList/>Ethernet</text>		</g>
		<g id="shape134-28" v:mID="134" v:groupContext="shape" transform="translate(341.892,-309.63)">
			<title>Sheet.134</title>
			<desc>Ethernet</desc>
			<v:textBlock v:margins="rect(4,4,4,4)"/>
			<v:textRect cx="27" cy="512.194" width="54" height="9"/>
			<rect x="0" y="507.694" width="54" height="9" class="st1"/>
			<text x="10.78" y="514.59" class="st4" v:langID="1033"><v:paragraph v:horizAlign="1"/><v:tabList/>Ethernet</text>		</g>
		<g id="shape51-31" v:mID="51" v:groupContext="shape" transform="translate(20.1941,-307.528)">
			<title>Sheet.51</title>
			<desc>NetAnalyzer System</desc>
			<v:textBlock v:margins="rect(4,4,4,4)"/>
			<v:textRect cx="63" cy="489.153" width="126" height="55.0809"/>
			<rect x="0" y="461.613" width="126" height="55.0809" class="st7"/>
			<text x="30.02" y="485.85" class="st8" v:langID="1033"><v:paragraph v:horizAlign="1"/><v:tabList/>NetAnalyzer <v:lf/><tspan
						x="43.27" dy="1.2em" class="st3">System</tspan></text>		</g>
		<g id="shape64-35" v:mID="64" v:groupContext="shape" transform="translate(884.076,186.286) rotate(90.3574)">
			<title>Sheet.64</title>
			<path d="M0 516.69 L13.47 516.69" class="st9"/>
		</g>
		<g id="shape78-38" v:mID="78" v:groupContext="shape" transform="translate(234.267,-94.1086)">
			<title>Sheet.78</title>
			<path d="M15.75 491.94 L0 491.94 L0 516.69 L72 516.69 L72 491.94 L56.25 491.94 L56.25 488.57 L63 488.57 L63 444.69 L9
						 444.69 L9 488.57 L15.75 488.57 L15.75 491.94 Z" class="st10"/>
			<path d="M15.75 491.94 L0 491.94 L0 516.69 L72 516.69 L72 491.94 L56.25 491.94 L56.25 488.57 L63 488.57 L63 444.69 L9
						 444.69 L9 488.57 L15.75 488.57 L15.75 491.94" class="st9"/>
			<path d="M15.75 491.94 L56.25 491.94" class="st9"/>
			<path d="M15.75 488.57 L56.25 488.57" class="st9"/>
		</g>
		<g id="shape80-43" v:mID="80" v:groupContext="shape" transform="translate(271.392,-96.3586)">
			<title>Sheet.80</title>
			<path d="M0 516.69 L23.62 516.69 L23.62 496.44 L0 496.44 L0 516.69 ZM25.87 499.82 L29.25 499.82 L29.25 496.44 L25.87
						 496.44 L25.87 499.82 Z" class="st10"/>
			<path d="M0 516.69 L23.62 516.69 L23.62 496.44 L0 496.44 L0 516.69" class="st11"/>
			<path d="M0 503.19 L23.62 503.19" class="st11"/>
			<path d="M0 509.94 L23.62 509.94" class="st11"/>
			<path d="M1.12 506.57 L22.5 506.57" class="st11"/>
			<path d="M13.5 508.82 L20.25 508.82 L20.25 504.32 L13.5 504.32 L13.5 508.82" class="st11"/>
			<path d="M25.87 499.82 L29.25 499.82 L29.25 496.44 L25.87 496.44 L25.87 499.82" class="st11"/>
		</g>
		<g id="shape81-51" v:mID="81" v:groupContext="shape" transform="translate(236.517,-112.671)">
			<title>Sheet.81</title>
			<path d="M56.53 502.91 L59.06 502.91 L59.06 502.07 L56.53 502.07 L56.53 502.91 ZM15.19 497.01 L15.19 471.69 L52.31 471.69
						 L52.31 497.01 L15.19 497.01 ZM13.5 498.69 L54 498.69 L54 470.01 L55.69 470.01 L55.69 468.32 L11.81 468.32
						 L11.81 500.38 L13.5 500.38 L13.5 498.69 ZM0 515.01 L6.75 515.01 L6.75 512.76 L0 512.76 L0 515.01 ZM39.37
						 516.69 L54 516.69 L54 515.57 L39.37 515.57 L39.37 516.69 ZM65.25 513.88 L67.5 513.88 L67.5 512.76 L65.25
						 512.76 L65.25 513.88 ZM65.25 516.13 L67.5 516.13 L67.5 515.01 L65.25 515.01 L65.25 516.13 Z" class="st12"/>
			<path d="M56.53 502.91 L59.06 502.91 L59.06 502.07 L56.53 502.07 L56.53 502.91" class="st11"/>
			<path d="M15.19 497.01 L15.19 471.69 L52.31 471.69 L52.31 497.01 L15.19 497.01" class="st11"/>
			<path d="M13.5 498.69 L54 498.69 L54 470.01 L55.69 470.01 L55.69 468.32 L11.81 468.32 L11.81 500.38 L13.5 500.38 L13.5
						 498.69" class="st11"/>
			<path d="M6.75 504.6 L60.75 504.6" class="st11"/>
			<path d="M20.25 507.13 L20.25 504.6" class="st11"/>
			<path d="M33.75 507.13 L33.75 504.6" class="st11"/>
			<path d="M0 515.01 L6.75 515.01 L6.75 512.76 L0 512.76 L0 515.01" class="st11"/>
			<path d="M39.37 516.69 L54 516.69 L54 515.57 L39.37 515.57 L39.37 516.69" class="st11"/>
			<path d="M65.25 513.88 L67.5 513.88 L67.5 512.76 L65.25 512.76 L65.25 513.88" class="st11"/>
			<path d="M65.25 516.13 L67.5 516.13 L67.5 515.01 L65.25 515.01 L65.25 516.13" class="st11"/>
		</g>
		<g id="shape82-63" v:mID="82" v:groupContext="shape" transform="translate(209.285,-68.8586)">
			<title>Sheet.82</title>
			<rect x="0" y="496.694" width="100" height="20" class="st13"/>
		</g>
		<g id="shape107-65" v:mID="107" v:groupContext="shape" transform="translate(1.2,-193.997)">
			<title>Cloud</title>
			<desc>Network</desc>
			<v:textBlock v:margins="rect(4,4,4,4)"/>
			<v:textRect cx="267.654" cy="496.537" width="535.31" height="40.3125"/>
			<path d="M78.72 506.3 A125.955 20.1562 -180 0 0 267.65 512.27 A125.955 20.1562 -180 0 0 456.59 506.3 A62.9775 10.0781
						 -180 0 0 535.31 496.54 A62.9775 10.0781 -180 0 0 456.59 486.78 A125.955 20.1562 -180 0 0 267.65 480.8 A125.955
						 20.1562 -180 0 0 78.72 486.78 A62.9775 10.0781 -180 0 0 -0 496.54 A62.9775 10.0781 -180 0 0 78.72 506.3
						 Z" class="st14"/>
			<text x="232.15" y="501.94" class="st15" v:langID="1033"><v:paragraph v:horizAlign="1"/><v:tabList/>Network</text>		</g>
		<g id="shape135-68" v:mID="135" v:groupContext="shape" transform="translate(66.6424,-171.493)">
			<title>Sheet.135</title>
			<desc>CDRs, MDRs</desc>
			<v:textBlock v:margins="rect(4,4,4,4)"/>
			<v:textRect cx="17.1094" cy="507.694" width="34.22" height="18"/>
			<rect x="0" y="498.694" width="34.2187" height="18" class="st1"/>
			<text x="5.11" y="505.29" class="st4" v:langID="1033"><v:paragraph v:horizAlign="1"/><v:tabList/>CDRs, <v:newlineChar/><tspan
						x="5.78" dy="1.2em" class="st3">MDRs</tspan></text>		</g>
		<g id="shape95-72" v:mID="95" v:groupContext="shape" transform="translate(469.326,-100.218)">
			<title>Sheet.95</title>
			<rect x="0" y="462.694" width="36" height="54" class="st16"/>
		</g>
		<g id="shape98-74" v:mID="98" v:groupContext="shape" transform="translate(480.576,-102.468)">
			<title>Sheet.98</title>
			<path d="M0 503.19 L20.25 503.19 L20.25 501.51 L0 501.51 L0 503.19 ZM0 516.69 L20.25 516.69 L20.25 515.01 L0 515.01 L0
						 516.69 ZM0 514.44 L20.25 514.44 L20.25 512.76 L0 512.76 L0 514.44 ZM0 512.19 L20.25 512.19 L20.25 510.51
						 L0 510.51 L0 512.19 ZM0 509.94 L20.25 509.94 L20.25 508.26 L0 508.26 L0 509.94 ZM0 500.94 L20.25 500.94
						 L20.25 499.26 L0 499.26 L0 500.94 ZM0 498.69 L20.25 498.69 L20.25 497.01 L0 497.01 L0 498.69 ZM0 496.44
						 L20.25 496.44 L20.25 494.76 L0 494.76 L0 496.44 ZM0 494.19 L20.25 494.19 L20.25 492.51 L0 492.51 L0 494.19
						 ZM0 475.63 L20.25 475.63 L20.25 473.94 L0 473.94 L0 475.63 ZM0 473.38 L20.25 473.38 L20.25 471.69 L0 471.69
						 L0 473.38 ZM0 471.13 L20.25 471.13 L20.25 469.44 L0 469.44 L0 471.13 ZM0 468.88 L20.25 468.88 L20.25 467.19
						 L0 467.19 L0 468.88 Z" class="st17"/>
		</g>
		<g id="shape100-76" v:mID="100" v:groupContext="shape" transform="translate(471.576,-100.218)">
			<title>Sheet.100</title>
			<path d="M2.25 478.44 L6.75 478.44 L6.75 477.32 L2.25 477.32 L2.25 478.44 ZM2.25 473.94 L6.75 473.94 L6.75 464.94 L2.25
						 464.94 L2.25 473.94 Z" class="st10"/>
			<path d="M2.25 478.44 L6.75 478.44 L6.75 477.32 L2.25 477.32 L2.25 478.44" class="st11"/>
			<path d="M2.25 473.94 L6.75 473.94 L6.75 464.94 L2.25 464.94 L2.25 473.94" class="st11"/>
			<path d="M0 462.69 L0 516.69" class="st11"/>
			<path d="M31.5 462.69 L31.5 516.69" class="st11"/>
		</g>
		<g id="shape101-82" v:mID="101" v:groupContext="shape" transform="translate(437.326,-80.2141)">
			<title>Sheet.101</title>
			<desc>Host</desc>
			<v:textBlock v:margins="rect(4,4,4,4)"/>
			<v:textRect cx="50" cy="506.692" width="100.01" height="20.0036"/>
			<rect x="0" y="496.69" width="100" height="20.0036" class="st13"/>
			<rect v:rectContext="textBkgnd" x="38.8894" y="500.692" width="22.2215" height="12.0001" class="st18"/>
			<text x="38.89" y="509.69" class="st19" v:langID="1033"><v:paragraph v:horizAlign="1"/><v:tabList/>Host</text>		</g>
		<g id="shape2-86" v:mID="2" v:groupContext="shape" transform="translate(176.395,-465.384)">
			<title>Sheet.2</title>
			<path d="M0 516.69 L30.37 486.32 L3.8 486.32 L0 490.12 L0 516.69 Z" class="st17"/>
		</g>
		<g id="shape3-88" v:mID="3" v:groupContext="shape" transform="translate(176.395,-465.384)">
			<title>Sheet.3</title>
			<path d="M0 516.69 L26.58 516.69 L26.58 490.12 L0 516.69 Z" class="st20"/>
		</g>
		<g id="shape4-90" v:mID="4" v:groupContext="shape" transform="translate(202.973,-465.384)">
			<title>Sheet.4</title>
			<path d="M3.8 486.32 L0 516.69 L0 490.12 L3.8 486.32 Z" class="st21"/>
		</g>
		<g id="shape5-92" v:mID="5" v:groupContext="shape" transform="translate(202.973,-465.384)">
			<title>Sheet.5</title>
			<path d="M0 516.69 L3.8 512.9 L3.8 486.32 L0 516.69 Z" class="st22"/>
		</g>
		<g id="shape6-94" v:mID="6" v:groupContext="shape" transform="translate(176.395,-491.962)">
			<title>Sheet.6</title>
			<path d="M0 516.69 L26.58 516.69" class="st11"/>
		</g>
		<g id="shape67-97" v:mID="67" v:groupContext="shape" transform="translate(177.108,-412.512)">
			<title>Sheet.67</title>
			<path d="M0 516.69 L30.37 486.32 L3.8 486.32 L0 490.12 L0 516.69 Z" class="st17"/>
		</g>
		<g id="shape68-99" v:mID="68" v:groupContext="shape" transform="translate(177.108,-412.512)">
			<title>Sheet.68</title>
			<path d="M0 516.69 L26.58 516.69 L26.58 490.12 L0 516.69 Z" class="st20"/>
		</g>
		<g id="shape79-101" v:mID="79" v:groupContext="shape" transform="translate(203.686,-412.512)">
			<title>Sheet.79</title>
			<path d="M3.8 486.32 L0 516.69 L0 490.12 L3.8 486.32 Z" class="st21"/>
		</g>
		<g id="shape115-103" v:mID="115" v:groupContext="shape" transform="translate(203.686,-412.512)">
			<title>Sheet.115</title>
			<path d="M0 516.69 L3.8 512.9 L3.8 486.32 L0 516.69 Z" class="st22"/>
		</g>
		<g id="shape116-105" v:mID="116" v:groupContext="shape" transform="translate(177.108,-439.091)">
			<title>Sheet.116</title>
			<path d="M0 516.69 L26.58 516.69" class="st11"/>
		</g>
		<g id="shape77-108" v:mID="77" v:groupContext="shape" transform="translate(192.296,-459.637)">
			<title>Sheet.77</title>
		</g>
		<g id="shape117-109" v:mID="117" v:groupContext="shape" transform="translate(709.012,52.1644) rotate(90.0605)">
			<title>Sheet.117</title>
			<path d="M0 516.69 L22.19 516.69" class="st9"/>
		</g>
		<g id="shape120-112" v:mID="120" v:groupContext="shape" transform="translate(870.134,39.6835) rotate(89.3314)">
			<title>Sheet.120</title>
			<path d="M0 516.69 L22.1 516.69" class="st11"/>
		</g>
		<g id="shape12-115" v:mID="12" v:groupContext="shape" transform="translate(337.833,-465.384)">
			<title>Sheet.12</title>
			<path d="M0 516.69 L30.37 486.32 L3.8 486.32 L0 490.12 L0 516.69 Z" class="st17"/>
		</g>
		<g id="shape14-117" v:mID="14" v:groupContext="shape" transform="translate(337.833,-465.384)">
			<title>Sheet.14</title>
			<path d="M0 516.69 L26.58 516.69 L26.58 490.12 L0 516.69 Z" class="st20"/>
		</g>
		<g id="shape15-119" v:mID="15" v:groupContext="shape" transform="translate(364.411,-465.384)">
			<title>Sheet.15</title>
			<path d="M3.8 486.32 L0 516.69 L0 490.12 L3.8 486.32 Z" class="st21"/>
		</g>
		<g id="shape16-121" v:mID="16" v:groupContext="shape" transform="translate(364.411,-465.384)">
			<title>Sheet.16</title>
			<path d="M0 516.69 L3.8 512.9 L3.8 486.32 L0 516.69 Z" class="st22"/>
		</g>
		<g id="shape17-123" v:mID="17" v:groupContext="shape" transform="translate(337.833,-491.962)">
			<title>Sheet.17</title>
			<path d="M0 516.69 L26.58 516.69" class="st11"/>
		</g>
		<g id="shape22-126" v:mID="22" v:groupContext="shape" transform="translate(338.546,-412.512)">
			<title>Sheet.22</title>
			<path d="M0 516.69 L30.37 486.32 L3.8 486.32 L0 490.12 L0 516.69 Z" class="st17"/>
		</g>
		<g id="shape30-128" v:mID="30" v:groupContext="shape" transform="translate(338.546,-412.512)">
			<title>Sheet.30</title>
			<path d="M0 516.69 L26.58 516.69 L26.58 490.12 L0 516.69 Z" class="st20"/>
		</g>
		<g id="shape41-130" v:mID="41" v:groupContext="shape" transform="translate(365.124,-412.512)">
			<title>Sheet.41</title>
			<path d="M3.8 486.32 L0 516.69 L0 490.12 L3.8 486.32 Z" class="st21"/>
		</g>
		<g id="shape47-132" v:mID="47" v:groupContext="shape" transform="translate(365.124,-412.512)">
			<title>Sheet.47</title>
			<path d="M0 516.69 L3.8 512.9 L3.8 486.32 L0 516.69 Z" class="st22"/>
		</g>
		<g id="shape50-134" v:mID="50" v:groupContext="shape" transform="translate(338.546,-439.091)">
			<title>Sheet.50</title>
			<path d="M0 516.69 L26.58 516.69" class="st11"/>
		</g>
		<g id="shape121-137" v:mID="121" v:groupContext="shape" transform="translate(870.427,51.3061) rotate(90)">
			<title>Sheet.121</title>
			<path d="M0 516.69 L22.5 516.69" class="st9"/>
		</g>
		<g id="shape122-140" v:mID="122" v:groupContext="shape" transform="translate(207.483,-427.7)">
			<title>Sheet.122</title>
			<path d="M0 516.69 L131.06 516.69" class="st9"/>
		</g>
		<g id="shape123-143" v:mID="123" v:groupContext="shape" transform="translate(206.63,-479.512)">
			<title>Sheet.123</title>
			<path d="M0 516.69 L131.06 516.69" class="st9"/>
		</g>
		<g id="shape25-146" v:mID="25" v:groupContext="shape" transform="translate(397.454,-443.408) rotate(21.6025)">
			<title>Sheet.25</title>
			<path d="M0 516.69 L141.24 516.69" class="st9"/>
		</g>
		<g id="shape46-149" v:mID="46" v:groupContext="shape" transform="translate(15.8957,-390.867) rotate(-21.7647)">
			<title>Sheet.46</title>
			<path d="M0 516.69 L140.24 516.69" class="st9"/>
		</g>
		<g id="shape36-152" v:mID="36" v:groupContext="shape" transform="translate(169.782,-427.731)">
			<title>Sheet.36</title>
			<desc>STP</desc>
			<v:textBlock v:margins="rect(0,0,0,0)" v:verticalAlign="0"/>
			<v:textRect cx="18" cy="512.194" width="36" height="9"/>
			<rect x="0" y="507.694" width="36" height="9" class="st1"/>
			<text x="10.22" y="514.89" class="st4" v:langID="1033"><v:paragraph v:horizAlign="1"/><v:tabList/>STP</text>		</g>
		<g id="shape42-155" v:mID="42" v:groupContext="shape" transform="translate(590.345,-225.256) rotate(50.3879)">
			<title>Sheet.42</title>
			<path d="M0 516.69 L29.59 516.69" class="st9"/>
		</g>
		<g id="shape43-158" v:mID="43" v:groupContext="shape" transform="translate(133.224,628.684) rotate(-161.79)">
			<title>Sheet.43</title>
			<path d="M0 516.69 L107.8 516.69" class="st9"/>
		</g>
		<g id="shape58-161" v:mID="58" v:groupContext="shape" transform="translate(93.9113,-357.24) rotate(-16.6715)">
			<title>Sheet.58</title>
			<path d="M0 516.69 L115.92 516.69" class="st9"/>
		</g>
		<g id="shape63-164" v:mID="63" v:groupContext="shape" transform="translate(705.678,482.476) rotate(137.067)">
			<title>Sheet.63</title>
			<path d="M0 516.69 L35.89 516.69" class="st9"/>
		</g>
		<g id="shape11-167" v:mID="11" v:groupContext="shape" transform="translate(563.745,-359.098) rotate(29.6067)">
			<title>Sheet.11</title>
			<path d="M0 516.69 L130.41 516.69" class="st9"/>
		</g>
		<g id="shape66-170" v:mID="66" v:groupContext="shape" transform="translate(539.87,-358.653) rotate(24.0856)">
			<title>Sheet.66</title>
			<path d="M0 516.69 L101.71 516.69" class="st9"/>
		</g>
		<g id="shape83-173" v:mID="83" v:groupContext="shape" transform="translate(499.197,-364.673) rotate(18.6001)">
			<title>Sheet.83</title>
			<path d="M0 516.69 L92.59 516.69" class="st9"/>
		</g>
		<g id="shape91-176" v:mID="91" v:groupContext="shape" transform="translate(502.796,531.885) rotate(148.755)">
			<title>Sheet.91</title>
			<path d="M0 516.69 L121.5 516.69" class="st9"/>
		</g>
		<g id="shape92-179" v:mID="92" v:groupContext="shape" transform="translate(447.661,570.873) rotate(152.674)">
			<title>Sheet.92</title>
			<path d="M0 516.69 L89.4 516.69" class="st9"/>
		</g>
		<g id="shape94-182" v:mID="94" v:groupContext="shape" transform="translate(402.349,600.004) rotate(157.582)">
			<title>Sheet.94</title>
			<path d="M0 516.69 L80.02 516.69" class="st9"/>
		</g>
		<g id="shape139-185" v:mID="139" v:groupContext="shape" transform="translate(-246.801,349.366) rotate(-90)">
			<title>Sheet.139</title>
			<path d="M5.16 516.69 L5.52 516.69 L22.65 516.69" class="st23"/>
		</g>
		<g id="shape142-194" v:mID="142" v:groupContext="shape" transform="translate(86.8924,-269.13)">
			<title>Sheet.142</title>
			<path d="M0 516.69 L108 516.69" class="st9"/>
		</g>
		<g id="shape141-197" v:mID="141" v:groupContext="shape" transform="translate(455.892,763.757) rotate(180)">
			<title>Sheet.141</title>
			<path d="M0 516.69 L108.2 516.69" class="st9"/>
		</g>
		<g id="shape145-200" v:mID="145" v:groupContext="shape" transform="translate(578.086,114.064) rotate(90)">
			<title>Sheet.145</title>
			<path d="M0 516.69 L39.73 516.69" class="st9"/>
		</g>
		<g id="shape150-203" v:mID="150" v:groupContext="shape" transform="translate(248.517,-138.359)">
			<title>Sheet.150</title>
			<desc>MNT</desc>
			<v:textBlock v:margins="rect(4,4,4,4)"/>
			<v:textRect cx="21.9364" cy="509.944" width="43.88" height="13.5"/>
			<rect x="0" y="503.194" width="43.8727" height="13.5" class="st1"/>
			<text x="13.27" y="512.34" class="st4" v:langID="1033"><v:paragraph v:horizAlign="1"/><v:tabList/>MNT</text>		</g>
		<g id="shape85-206" v:mID="85" v:groupContext="shape" transform="translate(37.1424,-102.468)">
			<title>Sheet.85</title>
			<rect x="0" y="462.694" width="36" height="54" class="st16"/>
		</g>
		<g id="shape86-208" v:mID="86" v:groupContext="shape" transform="translate(48.3924,-104.718)">
			<title>Sheet.86</title>
			<path d="M0 503.19 L20.25 503.19 L20.25 501.51 L0 501.51 L0 503.19 ZM0 516.69 L20.25 516.69 L20.25 515.01 L0 515.01 L0
						 516.69 ZM0 514.44 L20.25 514.44 L20.25 512.76 L0 512.76 L0 514.44 ZM0 512.19 L20.25 512.19 L20.25 510.51
						 L0 510.51 L0 512.19 ZM0 509.94 L20.25 509.94 L20.25 508.26 L0 508.26 L0 509.94 ZM0 500.94 L20.25 500.94
						 L20.25 499.26 L0 499.26 L0 500.94 ZM0 498.69 L20.25 498.69 L20.25 497.01 L0 497.01 L0 498.69 ZM0 496.44
						 L20.25 496.44 L20.25 494.76 L0 494.76 L0 496.44 ZM0 494.19 L20.25 494.19 L20.25 492.51 L0 492.51 L0 494.19
						 ZM0 475.63 L20.25 475.63 L20.25 473.94 L0 473.94 L0 475.63 ZM0 473.38 L20.25 473.38 L20.25 471.69 L0 471.69
						 L0 473.38 ZM0 471.13 L20.25 471.13 L20.25 469.44 L0 469.44 L0 471.13 ZM0 468.88 L20.25 468.88 L20.25 467.19
						 L0 467.19 L0 468.88 Z" class="st17"/>
		</g>
		<g id="shape89-210" v:mID="89" v:groupContext="shape" transform="translate(39.3924,-102.468)">
			<title>Sheet.89</title>
			<path d="M2.25 478.44 L6.75 478.44 L6.75 477.32 L2.25 477.32 L2.25 478.44 ZM2.25 473.94 L6.75 473.94 L6.75 464.94 L2.25
						 464.94 L2.25 473.94 Z" class="st10"/>
			<path d="M2.25 478.44 L6.75 478.44 L6.75 477.32 L2.25 477.32 L2.25 478.44" class="st11"/>
			<path d="M2.25 473.94 L6.75 473.94 L6.75 464.94 L2.25 464.94 L2.25 473.94" class="st11"/>
			<path d="M0 462.69 L0 516.69" class="st11"/>
			<path d="M31.5 462.69 L31.5 516.69" class="st11"/>
		</g>
		<g id="shape90-216" v:mID="90" v:groupContext="shape" transform="translate(5.14238,-82.4641)">
			<title>Sheet.90</title>
			<desc>Host</desc>
			<v:textBlock v:margins="rect(4,4,4,4)"/>
			<v:textRect cx="50" cy="506.692" width="100.01" height="20.0036"/>
			<rect x="0" y="496.69" width="100" height="20.0036" class="st13"/>
			<rect v:rectContext="textBkgnd" x="38.8894" y="500.692" width="22.2215" height="12.0001" class="st18"/>
			<text x="38.89" y="509.69" class="st19" v:langID="1033"><v:paragraph v:horizAlign="1"/><v:tabList/>Host</text>		</g>
		<g id="shape138-220" v:mID="138" v:groupContext="shape" transform="translate(446.892,-172.993)">
			<title>Sheet.138</title>
			<desc>CDRs, MDRs</desc>
			<v:textBlock v:margins="rect(4,4,4,4)"/>
			<v:textRect cx="16.9688" cy="507.694" width="33.94" height="18"/>
			<rect x="0" y="498.694" width="33.9375" height="18" class="st1"/>
			<text x="4.97" y="505.29" class="st4" v:langID="1033"><v:paragraph v:horizAlign="1"/><v:tabList/>CDRs, <v:newlineChar/><tspan
						x="5.63" dy="1.2em" class="st3">MDRs</tspan></text>		</g>
		<g id="shape136-224" v:mID="136" v:groupContext="shape" transform="translate(55.3396,-158.593)">
			<title>Sheet.136</title>
			<path d="M0 473.04 L0 474.5 L0 510.21" class="st25"/>
		</g>
		<g id="shape97-230" v:mID="97" v:groupContext="shape" transform="translate(131.33,-362.13)">
			<title>Sheet.97</title>
			<path d="M124.27 430.68 L0 430.31 L0 516.69" class="st9"/>
		</g>
		<g id="shape87-233" v:mID="87" v:groupContext="shape" transform="translate(288.483,-361.872)">
			<title>Sheet.87</title>
			<path d="M0 430.71 L133.9 430.71 L133.9 516.69" class="st9"/>
		</g>
		<g id="shape157-236" v:mID="157" v:groupContext="shape" transform="translate(190.632,-454.95)">
			<title>Circle.157</title>
			<path d="M0 514.92 A1.76953 1.76953 0 0 1 3.54 514.92 A1.76953 1.76953 0 1 1 0 514.92 Z" class="st17"/>
		</g>
		<g id="shape61-238" v:mID="61" v:groupContext="shape" transform="translate(977.836,213.2) rotate(90)">
			<title>Sheet.61</title>
			<path d="M9 516.69 L9.36 516.69 L66.96 516.69" class="st27"/>
		</g>
		<g id="shape104-247" v:mID="104" v:groupContext="shape" transform="translate(596.836,213.2) rotate(90)">
			<title>Sheet.104</title>
			<path d="M9 516.69 L9.36 516.69 L66.77 516.69" class="st27"/>
		</g>
		<g id="shape137-254" v:mID="137" v:groupContext="shape" transform="translate(-28.9887,362.038) rotate(-90)">
			<title>Sheet.137</title>
			<path d="M6.12 516.69 L6.48 516.69 L49.84 516.69" class="st29"/>
		</g>
		<g id="shape13-260" v:mID="13" v:groupContext="shape" transform="translate(-33.8012,155.314) rotate(-90)">
			<title>Sheet.13</title>
			<path d="M0 516.69 L41.25 516.69" class="st9"/>
		</g>
		<g id="shape189-263" v:mID="189" v:groupContext="shape" transform="translate(331.444,-481.731)">
			<title>Sheet.189</title>
			<desc>STP</desc>
			<v:textBlock v:margins="rect(0,0,0,0)" v:verticalAlign="0"/>
			<v:textRect cx="18" cy="512.194" width="36" height="9"/>
			<rect x="0" y="507.694" width="36" height="9" class="st1"/>
			<text x="10.22" y="514.89" class="st4" v:langID="1033"><v:paragraph v:horizAlign="1"/><v:tabList/>STP</text>		</g>
		<g id="shape193-266" v:mID="193" v:groupContext="shape" transform="translate(332.157,-428.106)">
			<title>Sheet.193</title>
			<desc>STP</desc>
			<v:textBlock v:margins="rect(0,0,0,0)" v:verticalAlign="0"/>
			<v:textRect cx="18" cy="512.194" width="36" height="9"/>
			<rect x="0" y="507.694" width="36" height="9" class="st1"/>
			<text x="10.22" y="514.89" class="st4" v:langID="1033"><v:paragraph v:horizAlign="1"/><v:tabList/>STP</text>		</g>
		<g id="shape9-269" v:mID="9" v:groupContext="shape" transform="translate(182.142,-500.505)">
			<title>Sheet.9</title>
			<desc>Typical &#34;System&#34; Configuration</desc>
			<v:textBlock v:margins="rect(0,0,0,0)" v:verticalAlign="0"/>
			<v:textRect cx="93.0366" cy="508.959" width="186.08" height="15.4687"/>
			<rect x="0" y="501.225" width="186.073" height="15.4687" class="st1"/>
			<text x="0" y="512.02" class="st2" v:langID="1033"><v:paragraph/><v:tabList/>Typical &#34;System&#34; Configuration</text>		</g>
		<g id="shape18-272" v:mID="18" v:groupContext="shape" transform="translate(355.767,-362.153)">
			<title>Sheet.18</title>
			<path d="M0 421.15 L88.69 421.15 L66.25 516.69" class="st9"/>
		</g>
		<g id="shape31-275" v:mID="31" v:groupContext="shape" transform="translate(115.58,-362.997)">
			<title>Sheet.31</title>
			<path d="M74.49 422.83 L0 422.83 L15.67 516.69" class="st9"/>
		</g>
		<g id="shape65-278" v:mID="65" v:groupContext="shape" transform="translate(233.944,-426.091)">
			<title>Circle.65</title>
			<path d="M0 514.92 A1.76953 1.76953 0 0 1 3.54 514.92 A1.76953 1.76953 0 1 1 0 514.92 Z" class="st17"/>
		</g>
		<g id="shape70-280" v:mID="70" v:groupContext="shape" transform="translate(255.694,-446.512)">
			<title>Circle.70</title>
			<path d="M0 514.92 A1.76953 1.76953 0 0 1 3.54 514.92 A1.76953 1.76953 0 1 1 0 514.92 Z" class="st17"/>
		</g>
		<g id="shape88-282" v:mID="88" v:groupContext="shape" transform="translate(286.632,-445.95)">
			<title>Circle.88</title>
			<path d="M0 514.92 A1.76953 1.76953 0 0 1 3.54 514.92 A1.76953 1.76953 0 1 1 0 514.92 Z" class="st17"/>
		</g>
		<g id="shape99-284" v:mID="99" v:groupContext="shape" transform="translate(305.382,-425.903)">
			<title>Circle.99</title>
			<path d="M0 514.92 A1.76953 1.76953 0 0 1 3.54 514.92 A1.76953 1.76953 0 1 1 0 514.92 Z" class="st17"/>
		</g>
		<g id="shape102-286" v:mID="102" v:groupContext="shape" transform="translate(325.632,-402.653)">
			<title>Circle.102</title>
			<path d="M0 514.92 A1.76953 1.76953 0 0 1 3.54 514.92 A1.76953 1.76953 0 1 1 0 514.92 Z" class="st17"/>
		</g>
		<g id="shape103-288" v:mID="103" v:groupContext="shape" transform="translate(330.853,-390.911)">
			<title>Circle.103</title>
			<path d="M0 514.92 A1.76953 1.76953 0 0 1 3.54 514.92 A1.76953 1.76953 0 1 1 0 514.92 Z" class="st17"/>
		</g>
		<g id="shape132-290" v:mID="132" v:groupContext="shape" transform="translate(352.257,-455.7)">
			<title>Circle.132</title>
			<path d="M0 514.92 A1.76953 1.76953 0 0 1 3.54 514.92 A1.76953 1.76953 0 1 1 0 514.92 Z" class="st17"/>
		</g>
		<g id="shape143-292" v:mID="143" v:groupContext="shape" transform="translate(209.944,-404.325)">
			<title>Circle.143</title>
			<path d="M0 514.92 A1.76953 1.76953 0 0 1 3.54 514.92 A1.76953 1.76953 0 1 1 0 514.92 Z" class="st17"/>
		</g>
		<g id="shape153-294" v:mID="153" v:groupContext="shape" transform="translate(204.853,-393.63)">
			<title>Circle.153</title>
			<path d="M0 514.92 A1.76953 1.76953 0 0 1 3.54 514.92 A1.76953 1.76953 0 1 1 0 514.92 Z" class="st17"/>
		</g>
		<g id="shape76-296" v:mID="76" v:groupContext="shape" transform="translate(169.069,-481.387)">
			<title>Sheet.76</title>
			<desc>STP</desc>
			<v:textBlock v:margins="rect(0,0,0,0)" v:verticalAlign="0"/>
			<v:textRect cx="18" cy="512.194" width="36" height="9"/>
			<rect x="0" y="507.694" width="36" height="9" class="st1"/>
			<text x="10.22" y="514.89" class="st4" v:langID="1033"><v:paragraph v:horizAlign="1"/><v:tabList/>STP</text>		</g>
		<g id="shape155-299" v:mID="155" v:groupContext="shape" transform="translate(234.622,-377.944)">
			<title>Sheet.155</title>
			<path d="M3.2 504.11 A382.273 100.166 52.79 0 1 0 516.69 L8.32 516.69 A18 18 -180 0 0 3.2 504.11 Z" class="st30"/>
		</g>
		<g id="shape156-301" v:mID="156" v:groupContext="shape" transform="translate(206.944,-377.944)">
			<title>Sheet.156</title>
			<path d="M27.68 516.69 A382.273 100.166 -127.21 0 0 30.87 504.11 A18 18 -180 0 0 0 516.69 L27.68 516.69 Z" class="st31"/>
		</g>
		<g id="shape158-303" v:mID="158" v:groupContext="shape" transform="translate(218.197,-359.944)">
			<title>Sheet.158</title>
			<path d="M16.42 498.69 A382.273 100.166 52.79 0 1 0 515.38 A18 18 -180 0 0 24.75 498.69 L16.42 498.69 Z" class="st22"/>
		</g>
		<g id="shape159-305" v:mID="159" v:groupContext="shape" transform="translate(206.944,-361.257)">
			<title>Sheet.159</title>
			<path d="M11.25 516.69 A382.273 100.166 -127.21 0 0 27.68 500.01 L0 500.01 A18 18 -180 0 0 11.25 516.69 Z" class="st32"/>
		</g>
		<g id="shape160-307" v:mID="160" v:groupContext="shape" transform="translate(206.944,-359.944)">
			<title>Sheet.160</title>
			<path d="M0 498.69 A18 18 0 0 1 36 498.69 A18 18 0 1 1 0 498.69" class="st11"/>
		</g>
		<g id="shape161-310" v:mID="161" v:groupContext="shape" transform="translate(184.944,-342.344)">
			<title>Sheet.161</title>
			<rect x="0" y="499.094" width="80" height="17.6" class="st33"/>
		</g>
		<g id="shape164-312" v:mID="164" v:groupContext="shape" transform="translate(209.569,-376.444)">
			<title>Sheet.164</title>
			<desc>SSP #1</desc>
			<v:textBlock v:margins="rect(4,4,4,4)"/>
			<v:textRect cx="14.9063" cy="510.787" width="29.82" height="11.8125"/>
			<rect x="0" y="504.881" width="29.8125" height="11.8125" class="st1"/>
			<text x="4.73" y="512.59" class="st34" v:langID="1033"><v:paragraph v:horizAlign="1"/><v:tabList/>SSP #1</text>		</g>
		<g id="shape169-315" v:mID="169" v:groupContext="shape" transform="translate(322.747,-377.194)">
			<title>Sheet.169</title>
			<path d="M3.2 504.11 A382.273 100.166 52.79 0 1 0 516.69 L8.32 516.69 A18 18 -180 0 0 3.2 504.11 Z" class="st30"/>
		</g>
		<g id="shape172-317" v:mID="172" v:groupContext="shape" transform="translate(295.069,-377.194)">
			<title>Sheet.172</title>
			<path d="M27.68 516.69 A382.273 100.166 -127.21 0 0 30.87 504.11 A18 18 -180 0 0 0 516.69 L27.68 516.69 Z" class="st31"/>
		</g>
		<g id="shape183-319" v:mID="183" v:groupContext="shape" transform="translate(306.322,-359.194)">
			<title>Sheet.183</title>
			<path d="M16.42 498.69 A382.273 100.166 52.79 0 1 0 515.38 A18 18 -180 0 0 24.75 498.69 L16.42 498.69 Z" class="st22"/>
		</g>
		<g id="shape184-321" v:mID="184" v:groupContext="shape" transform="translate(295.069,-360.507)">
			<title>Sheet.184</title>
			<path d="M11.25 516.69 A382.273 100.166 -127.21 0 0 27.68 500.01 L0 500.01 A18 18 -180 0 0 11.25 516.69 Z" class="st32"/>
		</g>
		<g id="shape185-323" v:mID="185" v:groupContext="shape" transform="translate(295.069,-359.194)">
			<title>Sheet.185</title>
			<path d="M0 498.69 A18 18 0 0 1 36 498.69 A18 18 0 1 1 0 498.69" class="st11"/>
		</g>
		<g id="shape186-326" v:mID="186" v:groupContext="shape" transform="translate(273.069,-341.594)">
			<title>Sheet.186</title>
			<rect x="0" y="499.094" width="80" height="17.6" class="st33"/>
		</g>
		<g id="shape187-328" v:mID="187" v:groupContext="shape" transform="translate(290.944,-379.069)">
			<title>Sheet.187</title>
			<desc>SSP #N</desc>
			<v:textBlock v:margins="rect(4,4,4,4)"/>
			<v:textRect cx="19.5469" cy="513.178" width="39.1" height="7.03125"/>
			<rect x="0" y="509.662" width="39.0938" height="7.03125" class="st1"/>
			<text x="8.88" y="514.98" class="st34" v:langID="1033"><v:paragraph v:horizAlign="1"/><v:tabList/>SSP #N</text>		</g>
		<g id="shape75-331" v:mID="75" v:groupContext="shape" transform="translate(176.892,-246.63)">
			<title>Sheet.75</title>
			<desc>CDRs · Reports · MDRs To MNT&#39;s and/or Host Computers via Ethe...</desc>
			<v:textBlock v:margins="rect(4,4,4,4)"/>
			<v:textRect cx="94.4531" cy="494.756" width="188.91" height="43.875"/>
			<rect x="0" y="472.819" width="188.906" height="43.875" class="st1"/>
			<text x="33.34" y="488.26" class="st35" v:langID="1033"><v:paragraph v:spBefore="-1" v:horizAlign="1"/><v:tabList/>CDRs · Reports · MDRs<v:newlineChar/><tspan
						x="23.13" dy="1.156em" class="st36">To MNT</tspan><tspan class="st36">&#39;</tspan><tspan class="st36">s and</tspan><tspan
						class="st36">/</tspan><tspan class="st36">or Host Computers<v:newlineChar/></tspan><tspan x="52.94"
						dy="1.089em" class="st36">via Ethernet TCP</tspan><tspan class="st36">/</tspan><tspan class="st36">IP</tspan></text>		</g>
		<g id="shape163-342" v:mID="163" v:groupContext="shape" transform="translate(305.33,-122.046)">
			<title>Sheet.163</title>
			<desc>· Message Type Count Summaries · Minutes of Use Measurements ...</desc>
			<v:textBlock v:margins="rect(4,4,4,4)"/>
			<v:textRect cx="80.4375" cy="493.35" width="160.88" height="46.6875"/>
			<rect x="0" y="470.006" width="160.875" height="46.6875" class="st1"/>
			<text x="4" y="479.85" class="st37" v:langID="1033"><v:paragraph/><v:tabList/>· Message Type Count Summaries<v:newlineChar/><tspan
						x="4" dy="1.2em" class="st3">· Minutes of Use Measurements<v:newlineChar/></tspan><tspan x="4" dy="1.2em"
						class="st3">· Link Percent Occupancy  Display<v:newlineChar/></tspan><tspan x="4" dy="1.2em" class="st3">· Graphically Presented  Statistics </tspan> </text>		</g>
		<g id="shape73-348" v:mID="73" v:groupContext="shape" transform="translate(97.8924,-122.359)">
			<title>Sheet.73</title>
			<desc>· Call Filters &#38; Traps (Trace) · E B &#38; F Protocol Analysis · ...</desc>
			<v:textBlock v:margins="rect(4,4,4,4)"/>
			<v:textRect cx="72.8438" cy="493.662" width="145.69" height="46.0625"/>
			<rect x="0" y="470.631" width="145.688" height="46.0625" class="st1"/>
			<text x="4" y="480.16" class="st37" v:langID="1033"><v:paragraph/><v:tabList/>· Call Filters &#38; Traps (Trace)<v:newlineChar/><tspan
						x="4" dy="1.2em" class="st3">· E B </tspan>&#38; F Protocol Analysis<v:newlineChar/><tspan x="4" dy="1.2em"
						class="st3">· LNP</tspan>,  800 &#38; Roamer Support<v:newlineChar/><tspan x="4" dy="1.2em" class="st3">· Quality Assurance Reports</tspan></text>		</g>
		<g id="shape130-354" v:mID="130" v:groupContext="shape" transform="translate(690.075,183.603) rotate(90)">
			<title>Sheet.130</title>
			<path d="M0 516.69 L13.22 516.69" class="st9"/>
		</g>
		<g id="shape194-357" v:mID="194" v:groupContext="shape" v:layerMember="0" transform="translate(206.142,-327.233)">
			<title>Direct data</title>
			<v:custProps>
				<v:cp v:nameU="Cost" v:lbl="Cost" v:prompt="Enter the cost associated with this process." v:type="7" v:format="@"
						v:langID="1033"/>
				<v:cp v:nameU="Duration" v:lbl="Duration" v:prompt="Enter the duration of this step." v:type="2" v:langID="1033"/>
				<v:cp v:nameU="Resources" v:lbl="Resources" v:prompt="Enter the number of people required to complete this task."
						v:langID="1033"/>
			</v:custProps>
			<v:userDefs>
				<v:ud v:nameU="visVersion" v:val="VT0(10):26"/>
			</v:userDefs>
			<path d="M1.58 504.06 L122.62 504.06 A13.4271 13.4271 0 0 1 122.62 516.69 L1.58 516.69 A13.4271 13.4271 0 0 1 1.58 504.06
						 Z" class="st38"/>
			<path d="M1.58 504.06 L122.62 504.06 A13.4271 13.4271 0 0 1 122.62 516.69 L1.58 516.69 A13.4271 13.4271 0 0 1 1.58 504.06"
					class="st39"/>
			<path d="M122.62 504.06 A13.4271 13.4271 -180 0 0 122.63 516.69" class="st39"/>
		</g>
		<g id="shape124-361" v:mID="124" v:groupContext="shape" transform="translate(207.176,699.835) rotate(179.885)">
			<title>Sheet.124</title>
			<path d="M0 516.69 L59.63 516.69" class="st9"/>
		</g>
		<g id="shape125-364" v:mID="125" v:groupContext="shape" transform="translate(329.561,-333.551) rotate(0.0879971)">
			<title>Sheet.125</title>
			<path d="M0 516.69 L77.63 516.69" class="st9"/>
		</g>
		<g id="shape131-367" v:mID="131" v:groupContext="shape" transform="translate(224.008,-303.372)">
			<title>Sheet.131</title>
			<desc>Dedicated T1(s)</desc>
			<v:textBlock v:margins="rect(4,4,4,4)"/>
			<v:textRect cx="44.3497" cy="504.882" width="88.7" height="23.6223"/>
			<rect x="0" y="493.071" width="88.6994" height="23.6223" class="st1"/>
			<text x="14.56" y="507.28" class="st4" v:langID="1033"><v:paragraph v:horizAlign="1"/><v:tabList/>Dedicated T1(s)</text>		</g>
		<g id="shape8-370" v:mID="8" v:groupContext="shape" transform="translate(55.3924,-181.431)">
			<title>Sheet.8</title>
			<path d="M0 516.69 L18 516.69" class="st9"/>
		</g>
		<g id="shape10-373" v:mID="10" v:groupContext="shape" transform="translate(487.955,851.769) rotate(180)">
			<title>Sheet.10</title>
			<path d="M0 516.69 L14.06 516.69" class="st9"/>
		</g>
		<g id="shape195-376" v:mID="195" v:groupContext="shape" transform="translate(183.267,-50.2336)">
			<title>Sheet.195</title>
			<desc>Maintenance &#38; Networking Terminal and NetInsight or NetScope</desc>
			<v:textBlock v:margins="rect(4,4,4,4)"/>
			<v:textRect cx="93.8438" cy="498.131" width="187.69" height="37.125"/>
			<rect x="0" y="479.569" width="187.688" height="37.125" class="st1"/>
			<text x="7.72" y="489.13" class="st19" v:langID="1033"><v:paragraph v:horizAlign="1"/><v:tabList/>Maintenance &#38; Networking Terminal <v:newlineChar/><tspan
						x="84.95" dy="1.2em" class="st3">and <v:newlineChar/></tspan><tspan x="38.56" dy="1.2em" class="st3">NetInsight or NetScope</tspan></text>		</g>
		<g id="shape196-381" v:mID="196" v:groupContext="shape" transform="translate(420.385,-1.01266)">
			<title>Sheet.196</title>
			<desc>T182A.vsd</desc>
			<v:textBlock v:margins="rect(4,4,4,4)"/>
			<v:textRect cx="41.9414" cy="510.506" width="83.89" height="12.375"/>
			<rect x="0" y="504.319" width="83.8828" height="12.375" class="st1"/>
			<text x="11.93" y="514.11" class="st2" v:langID="1033"><v:paragraph v:horizAlign="1"/><v:tabList/>T182A.vsd</text>		</g>
		<g id="shape24-384" v:mID="24" v:groupContext="shape" transform="translate(406.885,-305.932)">
			<title>Sheet.24</title>
			<desc>NetAnalyzer System</desc>
			<v:textBlock v:margins="rect(4,4,4,4)"/>
			<v:textRect cx="63" cy="489.153" width="126" height="55.0809"/>
			<rect x="0" y="461.613" width="126" height="55.0809" class="st7"/>
			<text x="30.02" y="485.85" class="st8" v:langID="1033"><v:paragraph v:horizAlign="1"/><v:tabList/>NetAnalyzer <v:lf/><tspan
						x="43.27" dy="1.2em" class="st3">System</tspan></text>		</g>
		<g id="shape38-388" v:mID="38" v:groupContext="shape" transform="translate(456.642,-407.13)">
			<title>Sheet.38</title>
			<desc>Internet Time Server</desc>
			<v:textBlock v:margins="rect(0,0,0,0)" v:verticalAlign="0"/>
			<v:textRect cx="37.125" cy="504.881" width="74.25" height="23.625"/>
			<rect x="0" y="493.069" width="74.25" height="23.625" class="st1"/>
			<text x="0" y="503.87" class="st2" v:langID="1033"><v:paragraph/><v:tabList/>Internet<v:newlineChar/><tspan x="0"
						dy="1.2em" class="st3">Time Server</tspan></text>		</g>
		<g id="shape39-392" v:mID="39" v:groupContext="shape" transform="translate(32.1424,-402.63)">
			<title>Sheet.39</title>
			<desc>Internet Time Server</desc>
			<v:textBlock v:margins="rect(0,0,0,0)" v:verticalAlign="0"/>
			<v:textRect cx="37.125" cy="502.699" width="74.25" height="27.99"/>
			<rect x="0" y="488.704" width="74.25" height="27.99" class="st1"/>
			<text x="0" y="499.5" class="st2" v:langID="1033"><v:paragraph/><v:tabList/>Internet<v:newlineChar/><tspan x="0"
						dy="1.2em" class="st3">Time Server</tspan></text>		</g>
	</g>
</svg>
